Code/test/fpga/tb_spi_slave_mcu_debug.vcd
$date
	Sun Nov 30 14:46:18 2025
$end
$version
	Icarus Verilog
$end
$timescale
	1ps
$end
$scope module tb_spi_slave_mcu_debug $end
$var wire 3 ! bit_count [2:0] $end
$var wire 4 " byte_count [3:0] $end
$var wire 1 # gyro1_valid_snap $end
$var wire 16 $ gyro1_x_snap [15:0] $end
$var wire 1 % quat1_valid_snap $end
$var wire 16 & quat1_w_snap [15:0] $end
$var wire 16 ' quat1_x_snap [15:0] $end
$var wire 8 ( shift_out [7:0] $end
$var wire 128 ) tx_packet [127:0] $end
$var wire 1 * sdo $end
$var parameter 32 + CLK_PERIOD $end
$var parameter 32 , SCK_PERIOD $end
$var reg 1 - clk $end
$var reg 1 . cs_n $end
$var reg 1 / expected_bit $end
$var reg 1 0 gyro1_valid $end
$var reg 16 1 gyro1_x [15:0] $end
$var reg 16 2 gyro1_y [15:0] $end
$var reg 16 3 gyro1_z [15:0] $end
$var reg 1 4 quat1_valid $end
$var reg 16 5 quat1_w [15:0] $end
$var reg 16 6 quat1_x [15:0] $end
$var reg 16 7 quat1_y [15:0] $end
$var reg 16 8 quat1_z [15:0] $end
$var reg 1 9 sampled_bit $end
$var reg 1 : sck $end
$var reg 1 ; sdi $end
$var integer 32 < bit_idx [31:0] $end
$var integer 32 = fail_count [31:0] $end
$var integer 32 > i [31:0] $end
$var integer 32 ? j [31:0] $end
$var integer 32 @ pass_count [31:0] $end
$var integer 32 A test_count [31:0] $end
$scope module dut $end
$var wire 1 - clk $end
$var wire 1 B cs_falling_edge $end
$var wire 1 C cs_falling_edge_sck $end
$var wire 1 . cs_n $end
$var wire 1 0 gyro1_valid $end
$var wire 16 D gyro1_x [15:0] $end
$var wire 16 E gyro1_y [15:0] $end
$var wire 16 F gyro1_z [15:0] $end
$var wire 1 4 quat1_valid $end
$var wire 16 G quat1_w [15:0] $end
$var wire 16 H quat1_x [15:0] $end
$var wire 16 I quat1_y [15:0] $end
$var wire 16 J quat1_z [15:0] $end
$var wire 1 : sck $end
$var wire 1 ; sdi $end
$var wire 128 K tx_packet [127:0] $end
$var wire 1 * sdo $end
$var parameter 8 L HEADER_BYTE $end
$var parameter 32 M PACKET_SIZE $end
$var parameter 1 N TEST_MODE $end
$var reg 3 O bit_count [2:0] $end
$var reg 4 P byte_count [3:0] $end
$var reg 1 Q cs_n_prev_sck $end
$var reg 1 R cs_n_sync1 $end
$var reg 1 S cs_n_sync2 $end
$var reg 1 T cs_n_sync_sck $end
$var reg 8 U first_byte_reg [7:0] $end
$var reg 1 V gyro1_valid_clk $end
$var reg 1 W gyro1_valid_latched $end
$var reg 1 X gyro1_valid_snap $end
$var reg 1 Y gyro1_valid_sync1 $end
$var reg 1 Z gyro1_valid_sync2 $end
$var reg 16 [ gyro1_x_clk [15:0] $end
$var reg 16 \ gyro1_x_snap [15:0] $end
$var reg 16 ] gyro1_y_clk [15:0] $end
$var reg 16 ^ gyro1_y_snap [15:0] $end
$var reg 16 _ gyro1_z_clk [15:0] $end
$var reg 16 ` gyro1_z_snap [15:0] $end
$var reg 1 a quat1_valid_clk $end
$var reg 1 b quat1_valid_latched $end
$var reg 1 c quat1_valid_snap $end
$var reg 1 d quat1_valid_sync1 $end
$var reg 1 e quat1_valid_sync2 $end
$var reg 16 f quat1_w_clk [15:0] $end
$var reg 16 g quat1_w_snap [15:0] $end
$var reg 16 h quat1_x_clk [15:0] $end
$var reg 16 i quat1_x_snap [15:0] $end
$var reg 16 j quat1_y_clk [15:0] $end
$var reg 16 k quat1_y_snap [15:0] $end
$var reg 16 l quat1_z_clk [15:0] $end
$var reg 16 m quat1_z_snap [15:0] $end
$var reg 1 n seen_first_rising $end
$var reg 8 o shift_out [7:0] $end
$var reg 1 p snapshot_initialized $end
$scope begin gen_normal_mode $end
$upscope $end
$upscope $end
$scope task check_test $end
$var reg 1 q condition $end
$upscope $end
$scope task mcu_read_packet_cs $end
$var reg 16 r data_before_transaction [15:0] $end
$var integer 32 s i [31:0] $end
$var integer 32 t j [31:0] $end
$upscope $end
$upscope $end
$enddefinitions $end
$comment Show the parameter values. $end
$dumpall
0N
b10000 M
b10101010 L
b1111101000 ,
b101001101 +
$end
#0
$dumpvars
bx t
bx s
bx r
xq
0p
b10101010 o
0n
bx m
bx l
bx k
bx j
bx i
bx h
bx g
bx f
xe
xd
xc
0b
xa
bx `
bx _
bx ^
bx ]
bx \
bx [
xZ
xY
xX
0W
xV
b10101010 U
1T
xS
xR
1Q
b0 P
b0 O
b10101010xxxxxxxxxxxxxxxxxxxxxxxxxxxxxxxxxxxxxxxxxxxxxxxxxxxxxxxxxxxxxxxxxxxxxxxxxxxxxxxxxxxxxxxxxxxxxxxxxxxxxxxxxxxxxxxx000000xx K
b1101111011110000 J
b1001101010111100 I
b101011001111000 H
b1001000110100 G
b11001100110011 F
b10001000100010 E
b1000100010001 D
0C
0B
b0 A
b0 @
bx ?
bx >
b0 =
bx <
0;
0:
x9
b1101111011110000 8
b1001101010111100 7
b101011001111000 6
b1001000110100 5
14
b11001100110011 3
b10001000100010 2
b1000100010001 1
10
x/
1.
0-
z*
b10101010xxxxxxxxxxxxxxxxxxxxxxxxxxxxxxxxxxxxxxxxxxxxxxxxxxxxxxxxxxxxxxxxxxxxxxxxxxxxxxxxxxxxxxxxxxxxxxxxxxxxxxxxxxxxxxxx000000xx )
b10101010 (
bx '
bx &
x%
bx $
x#
b0 "
b0 !
$end
#166000
b11001100110011 _
b10001000100010 ]
b1000100010001 [
b1101111011110000 l
b1001101010111100 j
b101011001111000 h
b1001000110100 f
0V
0a
1W
1b
1R
1-
#332000
0-
#498000
b101010100001001000110100010101100111100010011010101111001101111011110000000100010001000100100010001000100011001100110011000000xx )
b101010100001001000110100010101100111100010011010101111001101111011110000000100010001000100100010001000100011001100110011000000xx K
b11001100110011 `
b10001000100010 ^
b1000100010001 $
b1000100010001 \
b1101111011110000 m
b1001101010111100 k
b101011001111000 '
b101011001111000 i
b1001000110100 &
b1001000110100 g
1S
0Y
0d
1V
1a
1-
#664000
0-
#830000
0Z
1Y
0e
1d
1-
#996000
0-
#1162000
0#
0X
b10101010000100100011010001010110011110001001101010111100110111101111000000010001000100010010001000100010001100110011001100000000 )
b10101010000100100011010001010110011110001001101010111100110111101111000000010001000100010010001000100010001100110011001100000000 K
0%
0c
1Z
1e
1-
#1328000
0-
#1494000
1#
1X
b10101010000100100011010001010110011110001001101010111100110111101111000000010001000100010010001000100010001100110011001100000011 )
b10101010000100100011010001010110011110001001101010111100110111101111000000010001000100010010001000100010001100110011001100000011 K
1%
1c
1-
#1660000
0-
#1826000
1-
#1992000
0-
#2158000
1-
#2324000
0-
#2490000
1-
#2656000
0-
#2822000
1-
#2988000
0-
#3154000
1-
#3320000
0-
#3486000
1-
#3652000
0-
#3818000
1-
#3984000
0-
#3996000
b110 @
b110 A
1q
#4150000
1-
#4316000
0-
#4482000
1-
#4648000
0-
#4814000
1-
#4980000
0-
#5146000
1-
#5312000
0-
#5478000
1-
#5644000
0-
#5661000
1B
1*
0.
b1001 @
b1001 A
#5810000
0B
0R
1-
#5976000
0-
#6142000
0S
1-
#6308000
0-
#6474000
1-
#6640000
0-
#6806000
1-
#6972000
0-
#7138000
1-
#7304000
0-
#7326000
1n
1:
b111 <
b1011 @
b1011 A
#7336000
19
#7470000
1-
#7636000
0-
#7802000
1-
#7826000
0*
1C
b1 !
b1 O
b1010100 (
b1010100 o
0T
0:
b1100 @
b1100 A
1/
#7968000
0-
#8134000
1-
#8300000
0-
#8326000
1:
b110 <
#8336000
09
#8466000
1-
#8632000
0-
#8798000
1-
#8826000
1*
0C
b0 !
b0 O
b10101010 (
b10101010 o
0Q
0:
b1101 @
b1101 A
0/
#8964000
0-
#9130000
1-
#9296000
0-
#9326000
1:
b101 <
#9336000
19
#9462000
1-
#9628000
0-
#9794000
1-
#9826000
0*
b1 !
b1 O
b1010100 (
b1010100 o
0:
b1110 @
b1110 A
1/
#9960000
0-
#10126000
1-
#10292000
0-
#10326000
1:
b100 <
#10336000
09
#10458000
1-
#10624000
0-
#10790000
1-
#10826000
1*
b10 !
b10 O
b10101000 (
b10101000 o
0:
b1111 @
b1111 A
0/
#10956000
0-
#11122000
1-
#11288000
0-
#11326000
1:
b11 <
#11336000
19
#11454000
1-
#11620000
0-
#11786000
1-
#11826000
0*
b11 !
b11 O
b1010000 (
b1010000 o
0:
b10000 @
b10000 A
1/
#11952000
0-
#12118000
1-
#12284000
0-
#12326000
1:
b10 <
#12336000
09
#12450000
1-
#12616000
0-
#12782000
1-
#12826000
1*
b100 !
b100 O
b10100000 (
b10100000 o
0:
b10001 @
b10001 A
0/
#12948000
0-
#13114000
1-
#13280000
0-
#13326000
1:
b1 <
#13336000
19
#13446000
1-
#13612000
0-
#13778000
1-
#13826000
0*
b101 !
b101 O
b1000000 (
b1000000 o
0:
b10010 @
b10010 A
1/
#13944000
0-
#14110000
1-
#14276000
0-
#14326000
1:
b0 <
#14336000
09
#14442000
1-
#14608000
0-
#14774000
1-
#14826000
1*
b110 !
b110 O
b10000000 (
b10000000 o
0:
b11111111111111111111111111111111 <
b10011 @
b10011 A
0/
#14940000
0-
#15106000
1-
#15272000
0-
#15326000
b10101010 (
b10101010 o
b0 !
b0 O
0n
z*
1.
b10 =
b10101 A
0q
#15438000
1R
1-
#15604000
0-
#15770000
1S
1-
#15936000
0-
#16102000
1-
#16268000
0-
#16434000
1-
#16600000
0-
#16766000
1-
#16932000
0-
#17098000
1-
#17264000
0-
#17430000
1-
#17596000
0-
#17762000
1-
#17928000
0-
#18094000
1-
#18260000
0-
#18426000
1-
#18592000
0-
#18656000
1B
1*
0.
b1001000110100 r
#18758000
0B
0R
1-
#18924000
0-
#19090000
0S
1-
#19256000
0-
#19422000
1-
#19588000
0-
#19754000
1-
#19920000
0-
#20086000
1-
#20252000
0-
#20321000
1n
1:
b111 t
b0 s
#20418000
1-
#20584000
0-
#20750000
1-
#20821000
0*
b1 !
b1 O
b1010100 (
b1010100 o
0:
#20916000
0-
#21082000
1-
#21248000
0-
#21321000
1:
b110 t
#21414000
1-
#21580000
0-
#21746000
1-
#21821000
1*
b10 !
b10 O
b10101000 (
b10101000 o
0:
#21912000
0-
#22078000
1-
#22244000
0-
#22321000
1:
b101 t
#22410000
1-
#22576000
0-
#22742000
1-
#22821000
0*
b11 !
b11 O
b1010000 (
b1010000 o
0:
#22908000
0-
#23074000
1-
#23240000
0-
#23321000
1:
b100 t
#23406000
1-
#23572000
0-
#23738000
1-
#23821000
1*
b100 !
b100 O
b10100000 (
b10100000 o
0:
#23904000
0-
#24070000
1-
#24236000
0-
#24321000
1:
b11 t
#24402000
1-
#24568000
0-
#24734000
1-
#24821000
0*
b101 !
b101 O
b1000000 (
b1000000 o
0:
#24900000
0-
#25066000
1-
#25232000
0-
#25321000
1:
b10 t
#25398000
1-
#25564000
0-
#25730000
1-
#25821000
1*
b110 !
b110 O
b10000000 (
b10000000 o
0:
#25896000
0-
#26062000
1-
#26228000
0-
#26321000
1:
b1 t
#26394000
1-
#26560000
0-
#26726000
1-
#26821000
0*
b111 !
b111 O
b0 (
b0 o
0:
#26892000
0-
#27058000
1-
#27224000
0-
#27321000
1:
b0 t
#27390000
1-
#27556000
0-
#27722000
1-
#27821000
b10010 (
b10010 o
b0 !
b0 O
b1 "
b1 P
0:
#27888000
0-
#28054000
1-
#28220000
0-
#28321000
1:
b1 s
b111 t
#28386000
1-
#28552000
0-
#28718000
1-
#28821000
b1 !
b1 O
b100100 (
b100100 o
0:
#28884000
0-
#29050000
1-
#29216000
0-
#29321000
1:
b110 t
#29382000
1-
#29548000
0-
#29714000
1-
#29821000
b10 !
b10 O
b1001000 (
b1001000 o
0:
#29880000
0-
#30046000
1-
#30212000
0-
#30321000
1:
b101 t
#30378000
1-
#30544000
0-
#30710000
1-
#30821000
1*
b11 !
b11 O
b10010000 (
b10010000 o
0:
#30876000
0-
#31042000
1-
#31208000
0-
#31321000
1:
b100 t
#31374000
1-
#31540000
0-
#31706000
1-
#31821000
0*
b100 !
b100 O
b100000 (
b100000 o
0:
#31872000
0-
#32038000
1-
#32204000
0-
#32321000
1:
b11 t
#32370000
1-
#32536000
0-
#32702000
1-
#32821000
b101 !
b101 O
b1000000 (
b1000000 o
0:
#32868000
0-
#33034000
1-
#33200000
0-
#33321000
1:
b10 t
#33366000
1-
#33532000
0-
#33698000
1-
#33821000
1*
b110 !
b110 O
b10000000 (
b10000000 o
0:
#33864000
0-
#34030000
1-
#34196000
0-
#34321000
1:
b1 t
#34362000
1-
#34528000
0-
#34694000
1-
#34821000
0*
b111 !
b111 O
b0 (
b0 o
0:
#34860000
0-
#35026000
1-
#35192000
0-
#35321000
1:
b0 t
#35358000
1-
#35524000
0-
#35690000
1-
#35821000
b110100 (
b110100 o
b0 !
b0 O
b10 "
b10 P
0:
#35856000
0-
#36022000
1-
#36188000
0-
#36321000
1:
b10 s
b111 t
#36354000
1-
#36520000
0-
#36686000
1-
#36821000
b1 !
b1 O
b1101000 (
b1101000 o
0:
#36852000
0-
#37018000
1-
#37184000
0-
#37321000
1:
b110 t
#37350000
1-
#37516000
0-
#37682000
1-
#37821000
1*
b10 !
b10 O
b11010000 (
b11010000 o
0:
#37848000
0-
#38014000
1-
#38180000
0-
#38321000
1:
b101 t
#38346000
1-
#38512000
0-
#38678000
1-
#38821000
b11 !
b11 O
b10100000 (
b10100000 o
0:
#38844000
0-
#39010000
1-
#39176000
0-
#39321000
1:
b100 t
#39342000
1-
#39508000
0-
#39674000
1-
#39821000
0*
b100 !
b100 O
b1000000 (
b1000000 o
0:
#39840000
0-
#40006000
1-
#40172000
0-
#40321000
1:
b11 t
#40338000
1-
#40504000
0-
#40670000
1-
#40821000
1*
b101 !
b101 O
b10000000 (
b10000000 o
0:
#40836000
0-
#41002000
1-
#41168000
0-
#41321000
1:
b10 t
#41334000
1-
#41500000
0-
#41666000
1-
#41821000
0*
b110 !
b110 O
b0 (
b0 o
0:
#41832000
0-
#41998000
1-
#42164000
0-
#42321000
1:
b1 t
#42330000
1-
#42496000
0-
#42662000
1-
#42821000
b111 !
b111 O
0:
#42828000
0-
#42994000
1-
#43160000
0-
#43321000
1:
b0 t
#43326000
1-
#43492000
0-
#43658000
1-
#43821000
b1010110 (
b1010110 o
b0 !
b0 O
b11 "
b11 P
0:
#43824000
0-
#43990000
1-
#44156000
0-
#44321000
1:
b11 s
b111 t
#44322000
1-
#44488000
0-
#44654000
1-
#44820000
0-
#44821000
1*
b1 !
b1 O
b10101100 (
b10101100 o
0:
#44986000
1-
#45152000
0-
#45318000
1-
#45321000
1:
b110 t
#45484000
0-
#45650000
1-
#45816000
0-
#45821000
0*
b10 !
b10 O
b1011000 (
b1011000 o
0:
#45982000
1-
#46148000
0-
#46314000
1-
#46321000
1:
b101 t
#46480000
0-
#46646000
1-
#46812000
0-
#46821000
1*
b11 !
b11 O
b10110000 (
b10110000 o
0:
#46978000
1-
#47144000
0-
#47310000
1-
#47321000
1:
b100 t
#47476000
0-
#47642000
1-
#47808000
0-
#47821000
0*
b100 !
b100 O
b1100000 (
b1100000 o
0:
#47974000
1-
#48140000
0-
#48306000
1-
#48321000
1:
b11 t
#48472000
0-
#48638000
1-
#48804000
0-
#48821000
1*
b101 !
b101 O
b11000000 (
b11000000 o
0:
#48970000
1-
#49136000
0-
#49302000
1-
#49321000
1:
b10 t
#49468000
0-
#49634000
1-
#49800000
0-
#49821000
b110 !
b110 O
b10000000 (
b10000000 o
0:
#49966000
1-
#50132000
0-
#50298000
1-
#50321000
1:
b1 t
#50464000
0-
#50630000
1-
#50796000
0-
#50821000
0*
b111 !
b111 O
b0 (
b0 o
0:
#50962000
1-
#51128000
0-
#51294000
1-
#51321000
1:
b0 t
#51460000
0-
#51626000
1-
#51792000
0-
#51821000
b1111000 (
b1111000 o
b0 !
b0 O
b100 "
b100 P
0:
#51958000
1-
#52124000
0-
#52290000
1-
#52321000
1:
b100 s
b111 t
#52456000
0-
#52622000
1-
#52788000
0-
#52821000
1*
b1 !
b1 O
b11110000 (
b11110000 o
0:
#52954000
1-
#53120000
0-
#53286000
1-
#53321000
1:
b110 t
#53452000
0-
#53618000
1-
#53784000
0-
#53821000
b10 !
b10 O
b11100000 (
b11100000 o
0:
#53950000
1-
#54116000
0-
#54282000
1-
#54321000
1:
b101 t
#54448000
0-
#54614000
1-
#54780000
0-
#54821000
b11 !
b11 O
b11000000 (
b11000000 o
0:
#54946000
1-
#55112000
0-
#55278000
1-
#55321000
1:
b100 t
#55444000
0-
#55610000
1-
#55776000
0-
#55821000
b100 !
b100 O
b10000000 (
b10000000 o
0:
#55942000
1-
#56108000
0-
#56274000
1-
#56321000
1:
b11 t
#56440000
0-
#56606000
1-
#56772000
0-
#56821000
0*
b101 !
b101 O
b0 (
b0 o
0:
#56938000
1-
#57104000
0-
#57270000
1-
#57321000
1:
b10 t
#57436000
0-
#57602000
1-
#57768000
0-
#57821000
b110 !
b110 O
0:
#57934000
1-
#58100000
0-
#58266000
1-
#58321000
1:
b1 t
#58432000
0-
#58598000
1-
#58764000
0-
#58821000
b111 !
b111 O
0:
#58930000
1-
#59096000
0-
#59262000
1-
#59321000
1:
b0 t
#59428000
0-
#59594000
1-
#59760000
0-
#59821000
1*
b10011010 (
b10011010 o
b0 !
b0 O
b101 "
b101 P
0:
#59926000
1-
#60092000
0-
#60258000
1-
#60321000
1:
b101 s
b111 t
#60424000
0-
#60590000
1-
#60756000
0-
#60821000
0*
b1 !
b1 O
b110100 (
b110100 o
0:
#60922000
1-
#61088000
0-
#61254000
1-
#61321000
1:
b110 t
#61420000
0-
#61586000
1-
#61752000
0-
#61821000
b10 !
b10 O
b1101000 (
b1101000 o
0:
#61918000
1-
#62084000
0-
#62250000
1-
#62321000
1:
b101 t
#62416000
0-
#62582000
1-
#62748000
0-
#62821000
1*
b11 !
b11 O
b11010000 (
b11010000 o
0:
#62914000
1-
#63080000
0-
#63246000
1-
#63321000
1:
b100 t
#63412000
0-
#63578000
1-
#63744000
0-
#63821000
b100 !
b100 O
b10100000 (
b10100000 o
0:
#63910000
1-
#64076000
0-
#64242000
1-
#64321000
1:
b11 t
#64408000
0-
#64574000
1-
#64740000
0-
#64821000
0*
b101 !
b101 O
b1000000 (
b1000000 o
0:
#64906000
1-
#65072000
0-
#65238000
1-
#65321000
1:
b10 t
#65404000
0-
#65570000
1-
#65736000
0-
#65821000
1*
b110 !
b110 O
b10000000 (
b10000000 o
0:
#65902000
1-
#66068000
0-
#66234000
1-
#66321000
1:
b1 t
#66400000
0-
#66566000
1-
#66732000
0-
#66821000
0*
b111 !
b111 O
b0 (
b0 o
0:
#66898000
1-
#67064000
0-
#67230000
1-
#67321000
1:
b0 t
#67396000
0-
#67562000
1-
#67728000
0-
#67821000
1*
b10111100 (
b10111100 o
b0 !
b0 O
b110 "
b110 P
0:
#67894000
1-
#68060000
0-
#68226000
1-
#68321000
1:
b110 s
b111 t
#68392000
0-
#68558000
1-
#68724000
0-
#68821000
0*
b1 !
b1 O
b1111000 (
b1111000 o
0:
#68890000
1-
#69056000
0-
#69222000
1-
#69321000
1:
b110 t
#69388000
0-
#69554000
1-
#69720000
0-
#69821000
1*
b10 !
b10 O
b11110000 (
b11110000 o
0:
#69886000
1-
#70052000
0-
#70218000
1-
#70321000
1:
b101 t
#70384000
0-
#70550000
1-
#70716000
0-
#70821000
b11 !
b11 O
b11100000 (
b11100000 o
0:
#70882000
1-
#71048000
0-
#71214000
1-
#71321000
1:
b100 t
#71380000
0-
#71546000
1-
#71712000
0-
#71821000
b100 !
b100 O
b11000000 (
b11000000 o
0:
#71878000
1-
#72044000
0-
#72210000
1-
#72321000
1:
b11 t
#72376000
0-
#72542000
1-
#72708000
0-
#72821000
b101 !
b101 O
b10000000 (
b10000000 o
0:
#72874000
1-
#73040000
0-
#73206000
1-
#73321000
1:
b10 t
#73372000
0-
#73538000
1-
#73704000
0-
#73821000
0*
b110 !
b110 O
b0 (
b0 o
0:
#73870000
1-
#74036000
0-
#74202000
1-
#74321000
1:
b1 t
#74368000
0-
#74534000
1-
#74700000
0-
#74821000
b111 !
b111 O
0:
#74866000
1-
#75032000
0-
#75198000
1-
#75321000
1:
b0 t
#75364000
0-
#75530000
1-
#75696000
0-
#75821000
1*
b11011110 (
b11011110 o
b0 !
b0 O
b111 "
b111 P
0:
#75862000
1-
#76028000
0-
#76194000
1-
#76321000
1:
b111 s
b111 t
#76360000
0-
#76526000
1-
#76692000
0-
#76821000
b1 !
b1 O
b10111100 (
b10111100 o
0:
#76858000
1-
#77024000
0-
#77190000
1-
#77321000
1:
b110 t
#77356000
0-
#77522000
1-
#77688000
0-
#77821000
0*
b10 !
b10 O
b1111000 (
b1111000 o
0:
#77854000
1-
#78020000
0-
#78186000
1-
#78321000
1:
b101 t
#78352000
0-
#78518000
1-
#78684000
0-
#78821000
1*
b11 !
b11 O
b11110000 (
b11110000 o
0:
#78850000
1-
#79016000
0-
#79182000
1-
#79321000
1:
b100 t
#79348000
0-
#79514000
1-
#79680000
0-
#79821000
b100 !
b100 O
b11100000 (
b11100000 o
0:
#79846000
1-
#80012000
0-
#80178000
1-
#80321000
1:
b11 t
#80344000
0-
#80510000
1-
#80676000
0-
#80821000
b101 !
b101 O
b11000000 (
b11000000 o
0:
#80842000
1-
#81008000
0-
#81174000
1-
#81321000
1:
b10 t
#81340000
0-
#81506000
1-
#81672000
0-
#81821000
b110 !
b110 O
b10000000 (
b10000000 o
0:
#81838000
1-
#82004000
0-
#82170000
1-
#82321000
1:
b1 t
#82336000
0-
#82502000
1-
#82668000
0-
#82821000
0*
b111 !
b111 O
b0 (
b0 o
0:
#82834000
1-
#83000000
0-
#83166000
1-
#83321000
1:
b0 t
#83332000
0-
#83498000
1-
#83664000
0-
#83821000
1*
b11110000 (
b11110000 o
b0 !
b0 O
b1000 "
b1000 P
0:
#83830000
1-
#83996000
0-
#84162000
1-
#84321000
1:
b1000 s
b111 t
#84328000
0-
#84494000
1-
#84660000
0-
#84821000
b1 !
b1 O
b11100000 (
b11100000 o
0:
#84826000
1-
#84992000
0-
#85158000
1-
#85321000
1:
b110 t
#85324000
0-
#85490000
1-
#85656000
0-
#85821000
b10 !
b10 O
b11000000 (
b11000000 o
0:
#85822000
1-
#85988000
0-
#86154000
1-
#86320000
0-
#86321000
1:
b101 t
#86486000
1-
#86652000
0-
#86818000
1-
#86821000
b11 !
b11 O
b10000000 (
b10000000 o
0:
#86984000
0-
#87150000
1-
#87316000
0-
#87321000
1:
b100 t
#87482000
1-
#87648000
0-
#87814000
1-
#87821000
0*
b100 !
b100 O
b0 (
b0 o
0:
#87980000
0-
#88146000
1-
#88312000
0-
#88321000
1:
b11 t
#88478000
1-
#88644000
0-
#88810000
1-
#88821000
b101 !
b101 O
0:
#88976000
0-
#89142000
1-
#89308000
0-
#89321000
1:
b10 t
#89474000
1-
#89640000
0-
#89806000
1-
#89821000
b110 !
b110 O
0:
#89972000
0-
#90138000
1-
#90304000
0-
#90321000
1:
b1 t
#90470000
1-
#90636000
0-
#90802000
1-
#90821000
b111 !
b111 O
0:
#90968000
0-
#91134000
1-
#91300000
0-
#91321000
1:
b0 t
#91466000
1-
#91632000
0-
#91798000
1-
#91821000
b10001 (
b10001 o
b0 !
b0 O
b1001 "
b1001 P
0:
#91964000
0-
#92130000
1-
#92296000
0-
#92321000
1:
b1001 s
b111 t
#92462000
1-
#92628000
0-
#92794000
1-
#92821000
b1 !
b1 O
b100010 (
b100010 o
0:
#92960000
0-
#93126000
1-
#93292000
0-
#93321000
1:
b110 t
#93458000
1-
#93624000
0-
#93790000
1-
#93821000
b10 !
b10 O
b1000100 (
b1000100 o
0:
#93956000
0-
#94122000
1-
#94288000
0-
#94321000
1:
b101 t
#94454000
1-
#94620000
0-
#94786000
1-
#94821000
1*
b11 !
b11 O
b10001000 (
b10001000 o
0:
#94952000
0-
#95118000
1-
#95284000
0-
#95321000
1:
b100 t
#95450000
1-
#95616000
0-
#95782000
1-
#95821000
0*
b100 !
b100 O
b10000 (
b10000 o
0:
#95948000
0-
#96114000
1-
#96280000
0-
#96321000
1:
b11 t
#96446000
1-
#96612000
0-
#96778000
1-
#96821000
b101 !
b101 O
b100000 (
b100000 o
0:
#96944000
0-
#97110000
1-
#97276000
0-
#97321000
1:
b10 t
#97442000
1-
#97608000
0-
#97774000
1-
#97821000
b110 !
b110 O
b1000000 (
b1000000 o
0:
#97940000
0-
#98106000
1-
#98272000
0-
#98321000
1:
b1 t
#98438000
1-
#98604000
0-
#98770000
1-
#98821000
1*
b111 !
b111 O
b10000000 (
b10000000 o
0:
#98936000
0-
#99102000
1-
#99268000
0-
#99321000
1:
b0 t
#99434000
1-
#99600000
0-
#99766000
1-
#99821000
0*
b10001 (
b10001 o
b0 !
b0 O
b1010 "
b1010 P
0:
#99932000
0-
#100098000
1-
#100264000
0-
#100321000
1:
b1010 s
b111 t
#100430000
1-
#100596000
0-
#100762000
1-
#100821000
b1 !
b1 O
b100010 (
b100010 o
0:
#100928000
0-
#101094000
1-
#101260000
0-
#101321000
1:
b110 t
#101426000
1-
#101592000
0-
#101758000
1-
#101821000
b10 !
b10 O
b1000100 (
b1000100 o
0:
#101924000
0-
#102090000
1-
#102256000
0-
#102321000
1:
b101 t
#102422000
1-
#102588000
0-
#102754000
1-
#102821000
1*
b11 !
b11 O
b10001000 (
b10001000 o
0:
#102920000
0-
#103086000
1-
#103252000
0-
#103321000
1:
b100 t
#103418000
1-
#103584000
0-
#103750000
1-
#103821000
0*
b100 !
b100 O
b10000 (
b10000 o
0:
#103916000
0-
#104082000
1-
#104248000
0-
#104321000
1:
b11 t
#104414000
1-
#104580000
0-
#104746000
1-
#104821000
b101 !
b101 O
b100000 (
b100000 o
0:
#104912000
0-
#105078000
1-
#105244000
0-
#105321000
1:
b10 t
#105410000
1-
#105576000
0-
#105742000
1-
#105821000
b110 !
b110 O
b1000000 (
b1000000 o
0:
#105908000
0-
#106074000
1-
#106240000
0-
#106321000
1:
b1 t
#106406000
1-
#106572000
0-
#106738000
1-
#106821000
1*
b111 !
b111 O
b10000000 (
b10000000 o
0:
#106904000
0-
#107070000
1-
#107236000
0-
#107321000
1:
b0 t
#107402000
1-
#107568000
0-
#107734000
1-
#107821000
0*
b100010 (
b100010 o
b0 !
b0 O
b1011 "
b1011 P
0:
#107900000
0-
#108066000
1-
#108232000
0-
#108321000
1:
b1011 s
b111 t
#108398000
1-
#108564000
0-
#108730000
1-
#108821000
b1 !
b1 O
b1000100 (
b1000100 o
0:
#108896000
0-
#109062000
1-
#109228000
0-
#109321000
1:
b110 t
#109394000
1-
#109560000
0-
#109726000
1-
#109821000
1*
b10 !
b10 O
b10001000 (
b10001000 o
0:
#109892000
0-
#110058000
1-
#110224000
0-
#110321000
1:
b101 t
#110390000
1-
#110556000
0-
#110722000
1-
#110821000
0*
b11 !
b11 O
b10000 (
b10000 o
0:
#110888000
0-
#111054000
1-
#111220000
0-
#111321000
1:
b100 t
#111386000
1-
#111552000
0-
#111718000
1-
#111821000
b100 !
b100 O
b100000 (
b100000 o
0:
#111884000
0-
#112050000
1-
#112216000
0-
#112321000
1:
b11 t
#112382000
1-
#112548000
0-
#112714000
1-
#112821000
b101 !
b101 O
b1000000 (
b1000000 o
0:
#112880000
0-
#113046000
1-
#113212000
0-
#113321000
1:
b10 t
#113378000
1-
#113544000
0-
#113710000
1-
#113821000
1*
b110 !
b110 O
b10000000 (
b10000000 o
0:
#113876000
0-
#114042000
1-
#114208000
0-
#114321000
1:
b1 t
#114374000
1-
#114540000
0-
#114706000
1-
#114821000
0*
b111 !
b111 O
b0 (
b0 o
0:
#114872000
0-
#115038000
1-
#115204000
0-
#115321000
1:
b0 t
#115370000
1-
#115536000
0-
#115702000
1-
#115821000
b100010 (
b100010 o
b0 !
b0 O
b1100 "
b1100 P
0:
#115868000
0-
#116034000
1-
#116200000
0-
#116321000
1:
b1100 s
b111 t
#116366000
1-
#116532000
0-
#116698000
1-
#116821000
b1 !
b1 O
b1000100 (
b1000100 o
0:
#116864000
0-
#117030000
1-
#117196000
0-
#117321000
1:
b110 t
#117362000
1-
#117528000
0-
#117694000
1-
#117821000
1*
b10 !
b10 O
b10001000 (
b10001000 o
0:
#117860000
0-
#118026000
1-
#118192000
0-
#118321000
1:
b101 t
#118358000
1-
#118524000
0-
#118690000
1-
#118821000
0*
b11 !
b11 O
b10000 (
b10000 o
0:
#118856000
0-
#119022000
1-
#119188000
0-
#119321000
1:
b100 t
#119354000
1-
#119520000
0-
#119686000
1-
#119821000
b100 !
b100 O
b100000 (
b100000 o
0:
#119852000
0-
#120018000
1-
#120184000
0-
#120321000
1:
b11 t
#120350000
1-
#120516000
0-
#120682000
1-
#120821000
b101 !
b101 O
b1000000 (
b1000000 o
0:
#120848000
0-
#121014000
1-
#121180000
0-
#121321000
1:
b10 t
#121346000
1-
#121512000
0-
#121678000
1-
#121821000
1*
b110 !
b110 O
b10000000 (
b10000000 o
0:
#121844000
0-
#122010000
1-
#122176000
0-
#122321000
1:
b1 t
#122342000
1-
#122508000
0-
#122674000
1-
#122821000
0*
b111 !
b111 O
b0 (
b0 o
0:
#122840000
0-
#123006000
1-
#123172000
0-
#123321000
1:
b0 t
#123338000
1-
#123504000
0-
#123670000
1-
#123821000
b110011 (
b110011 o
b0 !
b0 O
b1101 "
b1101 P
0:
#123836000
0-
#124002000
1-
#124168000
0-
#124321000
1:
b1101 s
b111 t
#124334000
1-
#124500000
0-
#124666000
1-
#124821000
b1 !
b1 O
b1100110 (
b1100110 o
0:
#124832000
0-
#124998000
1-
#125164000
0-
#125321000
1:
b110 t
#125330000
1-
