Code/test/fpga/tb_spi_slave_unit_tests.vcd
$date
	Sun Nov 30 14:14:13 2025
$end
$version
	Icarus Verilog
$end
$timescale
	1ps
$end
$scope module tb_spi_slave_unit_tests $end
$var wire 3 ! bit_count [2:0] $end
$var wire 8 " packet_buffer_0 [7:0] $end
$var wire 8 # packet_buffer_1 [7:0] $end
$var wire 8 $ packet_buffer_2 [7:0] $end
$var wire 16 % quat1_w_snap [15:0] $end
$var wire 16 & quat1_x_snap [15:0] $end
$var wire 8 ' shift_out [7:0] $end
$var wire 128 ( tx_packet [127:0] $end
$var wire 1 ) sdo $end
$var parameter 32 * CLK_PERIOD $end
$var parameter 32 + SCK_PERIOD $end
$var reg 1 , clk $end
$var reg 1 - cs_n $end
$var reg 1 . gyro1_valid $end
$var reg 16 / gyro1_x [15:0] $end
$var reg 16 0 gyro1_y [15:0] $end
$var reg 16 1 gyro1_z [15:0] $end
$var reg 1 2 quat1_valid $end
$var reg 16 3 quat1_w [15:0] $end
$var reg 16 4 quat1_x [15:0] $end
$var reg 16 5 quat1_y [15:0] $end
$var reg 16 6 quat1_z [15:0] $end
$var reg 8 7 received_byte [7:0] $end
$var reg 1 8 sck $end
$var integer 32 9 fail_count [31:0] $end
$var integer 32 : j [31:0] $end
$var integer 32 ; pass_count [31:0] $end
$var integer 32 < test_count [31:0] $end
$scope module dut $end
$var wire 1 , clk $end
$var wire 1 = cs_falling_edge $end
$var wire 1 > cs_falling_edge_sck $end
$var wire 1 - cs_n $end
$var wire 1 . gyro1_valid $end
$var wire 16 ? gyro1_x [15:0] $end
$var wire 16 @ gyro1_y [15:0] $end
$var wire 16 A gyro1_z [15:0] $end
$var wire 1 2 quat1_valid $end
$var wire 16 B quat1_w [15:0] $end
$var wire 16 C quat1_x [15:0] $end
$var wire 16 D quat1_y [15:0] $end
$var wire 16 E quat1_z [15:0] $end
$var wire 1 8 sck $end
$var wire 1 F sdi $end
$var wire 128 G tx_packet [127:0] $end
$var wire 1 ) sdo $end
$var parameter 8 H HEADER_BYTE $end
$var parameter 32 I PACKET_SIZE $end
$var reg 3 J bit_count [2:0] $end
$var reg 4 K byte_count [3:0] $end
$var reg 1 L cs_n_prev_sck $end
$var reg 1 M cs_n_sync1 $end
$var reg 1 N cs_n_sync2 $end
$var reg 8 O first_byte_reg [7:0] $end
$var reg 1 P gyro1_valid_clk $end
$var reg 1 Q gyro1_valid_snap $end
$var reg 1 R gyro1_valid_sync1 $end
$var reg 1 S gyro1_valid_sync2 $end
$var reg 16 T gyro1_x_clk [15:0] $end
$var reg 16 U gyro1_x_snap [15:0] $end
$var reg 16 V gyro1_y_clk [15:0] $end
$var reg 16 W gyro1_y_snap [15:0] $end
$var reg 16 X gyro1_z_clk [15:0] $end
$var reg 16 Y gyro1_z_snap [15:0] $end
$var reg 1 Z quat1_valid_clk $end
$var reg 1 [ quat1_valid_snap $end
$var reg 1 \ quat1_valid_sync1 $end
$var reg 1 ] quat1_valid_sync2 $end
$var reg 16 ^ quat1_w_clk [15:0] $end
$var reg 16 _ quat1_w_snap [15:0] $end
$var reg 16 ` quat1_x_clk [15:0] $end
$var reg 16 a quat1_x_snap [15:0] $end
$var reg 16 b quat1_y_clk [15:0] $end
$var reg 16 c quat1_y_snap [15:0] $end
$var reg 16 d quat1_z_clk [15:0] $end
$var reg 16 e quat1_z_snap [15:0] $end
$var reg 1 f seen_first_rising $end
$var reg 8 g shift_out [7:0] $end
$var reg 1 h snapshot_initialized $end
$upscope $end
$scope task check_test $end
$var reg 1 i condition $end
$upscope $end
$upscope $end
$enddefinitions $end
$comment Show the parameter values. $end
$dumpall
b10000 I
b10101010 H
b1111101000 +
b101001101 *
$end
#0
$dumpvars
xi
0h
b10101010 g
0f
bx e
bx d
bx c
bx b
bx a
bx `
bx _
bx ^
x]
x\
x[
xZ
bx Y
bx X
bx W
bx V
bx U
bx T
xS
xR
xQ
xP
b10101010 O
xN
xM
1L
b0 K
b0 J
b10101010xxxxxxxxxxxxxxxxxxxxxxxxxxxxxxxxxxxxxxxxxxxxxxxxxxxxxxxxxxxxxxxxxxxxxxxxxxxxxxxxxxxxxxxxxxxxxxxxxxxxxxxxxxxxxxxx000000xx G
0F
b1101111011110000 E
b1001101010111100 D
b101011001111000 C
b1001000110100 B
b11001100110011 A
b10001000100010 @
b1000100010001 ?
0>
0=
b0 <
b0 ;
bx :
b0 9
08
bx 7
b1101111011110000 6
b1001101010111100 5
b101011001111000 4
b1001000110100 3
12
b11001100110011 1
b10001000100010 0
b1000100010001 /
1.
1-
0,
z)
b10101010xxxxxxxxxxxxxxxxxxxxxxxxxxxxxxxxxxxxxxxxxxxxxxxxxxxxxxxxxxxxxxxxxxxxxxxxxxxxxxxxxxxxxxxxxxxxxxxxxxxxxxxxxxxxxxxx000000xx (
b10101010 '
bx &
bx %
bx $
bx #
b10101010 "
b0 !
$end
#166000
b11001100110011 X
b10001000100010 V
b1000100010001 T
b1101111011110000 d
b1001101010111100 b
b101011001111000 `
b1001000110100 ^
1P
1Z
1M
1h
1,
#332000
0,
#498000
0h
1N
1R
1\
1,
#664000
0,
#830000
b10010 #
b101010100001001000110100010101100111100010011010101111001101111011110000000100010001000100100010001000100011001100110011000000xx (
b101010100001001000110100010101100111100010011010101111001101111011110000000100010001000100100010001000100011001100110011000000xx G
b110100 $
1S
1]
1h
b11001100110011 Y
b10001000100010 W
b1000100010001 U
b1101111011110000 e
b1001101010111100 c
b101011001111000 &
b101011001111000 a
b1001000110100 %
b1001000110100 _
1,
#996000
0,
#1162000
0h
1,
#1328000
0,
#1494000
1h
1Q
b10101010000100100011010001010110011110001001101010111100110111101111000000010001000100010010001000100010001100110011001100000011 (
b10101010000100100011010001010110011110001001101010111100110111101111000000010001000100010010001000100010001100110011001100000011 G
1[
1,
#1660000
0,
#1826000
0h
1,
#1992000
0,
#2158000
1h
1,
#2324000
0,
#2490000
0h
1,
#2656000
0,
#2822000
1h
1,
#2988000
0,
#3154000
0h
1,
#3320000
0,
#3330000
1=
1>
1)
0-
b1 ;
b1 <
1i
#3331000
b110 ;
b110 <
#3486000
0M
1h
1,
#3652000
0,
#3818000
0=
0N
1,
#3984000
0,
#4150000
1,
#4316000
0,
#4482000
1,
#4648000
0,
#4814000
1,
#4980000
0,
#5146000
1,
#5312000
0,
#5478000
1,
#5644000
0,
#5810000
1,
#5976000
0,
#6142000
1,
#6308000
0,
#6474000
1,
#6640000
0,
#6661000
b0 7
b1010 ;
b1010 <
#6806000
1,
#6972000
0,
#7138000
1,
#7304000
0,
#7470000
1,
#7636000
0,
#7802000
1,
#7968000
0,
#8134000
1,
#8300000
0,
#8326000
0>
1f
0L
18
b111 :
#8336000
b10000000 7
#8466000
1,
#8632000
0,
#8798000
1,
#8826000
0)
b1 !
b1 J
b1010100 '
b1010100 g
08
#8964000
0,
#9130000
1,
#9296000
0,
#9326000
18
b110 :
#9462000
1,
#9628000
0,
#9794000
1,
#9826000
1)
b10 !
b10 J
b10101000 '
b10101000 g
08
#9960000
0,
#10126000
1,
#10292000
0,
#10326000
18
b101 :
#10336000
b10100000 7
#10458000
1,
#10624000
0,
#10790000
1,
#10826000
0)
b11 !
b11 J
b1010000 '
b1010000 g
08
#10956000
0,
#11122000
1,
#11288000
0,
#11326000
18
b100 :
#11454000
1,
#11620000
0,
#11786000
1,
#11826000
1)
b100 !
b100 J
b10100000 '
b10100000 g
08
#11952000
0,
#12118000
1,
#12284000
0,
#12326000
18
b11 :
#12336000
b10101000 7
#12450000
1,
#12616000
0,
#12782000
1,
#12826000
0)
b101 !
b101 J
b1000000 '
b1000000 g
08
#12948000
0,
#13114000
1,
#13280000
0,
#13326000
18
b10 :
#13446000
1,
#13612000
0,
#13778000
1,
#13826000
1)
b110 !
b110 J
b10000000 '
b10000000 g
08
#13944000
0,
#14110000
1,
#14276000
0,
#14326000
18
b1 :
#14336000
b10101010 7
#14442000
1,
#14608000
0,
#14774000
1,
#14826000
0)
b111 !
b111 J
b0 '
b0 g
08
#14940000
0,
#15106000
1,
#15272000
0,
#15326000
18
b0 :
#15438000
1,
#15604000
0,
#15770000
1,
#15826000
b10010 '
b10010 g
b0 !
b0 J
b1 K
08
b11111111111111111111111111111111 :
#15936000
0,
#16102000
1,
#16268000
0,
#16326000
b10101010 '
b10101010 g
b0 K
0f
z)
1-
b1011 ;
b1011 <
#16434000
0h
1M
1,
#16600000
0,
#16766000
1N
1h
1,
#16932000
0,
#17098000
0h
1,
#17264000
0,
#17430000
1h
1,
#17596000
0,
#17762000
0h
1,
#17928000
0,
#18094000
1h
1,
#18260000
0,
#18426000
0h
1,
#18592000
0,
#18758000
1h
1,
#18924000
0,
#19090000
0h
1,
#19256000
0,
#19422000
1h
1,
#19588000
0,
#19754000
0h
1,
#19920000
0,
#20086000
1h
1,
#20252000
0,
#20418000
0h
1,
#20584000
0,
#20750000
1h
1,
#20916000
0,
#21082000
0h
1,
#21248000
0,
#21414000
1h
1,
#21580000
0,
#21746000
0h
1,
#21912000
0,
#22078000
1h
1,
#22244000
0,
#22410000
0h
1,
#22576000
0,
#22742000
1h
1,
#22908000
0,
#23074000
0h
1,
#23240000
0,
#23406000
1h
1,
#23572000
0,
#23738000
0h
1,
#23904000
0,
#24070000
1h
1,
#24236000
0,
#24402000
0h
1,
#24568000
0,
#24734000
1h
1,
#24900000
0,
#25066000
0h
1,
#25232000
0,
#25398000
1h
1,
#25564000
0,
#25730000
0h
1,
#25896000
0,
#26062000
1h
1,
#26228000
0,
#26394000
0h
1,
#26560000
0,
#26726000
1h
1,
#26892000
0,
#27058000
0h
1,
#27224000
0,
#27390000
1h
1,
#27556000
0,
#27722000
0h
1,
#27888000
0,
#28054000
1h
1,
#28220000
0,
#28386000
0h
1,
#28552000
0,
#28718000
1h
1,
#28884000
0,
#29050000
0h
1,
#29216000
0,
#29382000
1h
1,
#29548000
0,
#29714000
0h
1,
#29880000
0,
#30046000
1h
1,
#30212000
0,
#30378000
0h
1,
#30544000
0,
#30710000
1h
1,
#30876000
0,
#31042000
0h
1,
#31208000
0,
#31374000
1h
1,
#31540000
0,
#31706000
0h
1,
#31872000
0,
#32038000
1h
1,
#32204000
0,
#32370000
0h
1,
#32536000
0,
#32702000
1h
1,
#32868000
0,
#33034000
0h
1,
#33200000
0,
#33366000
1h
1,
#33532000
0,
#33698000
0h
1,
#33864000
0,
#34030000
1h
1,
#34196000
0,
#34362000
0h
1,
#34528000
0,
#34694000
1h
1,
#34860000
0,
#35026000
0h
1,
#35192000
0,
#35358000
1h
1,
#35524000
0,
#35690000
0h
1,
#35856000
0,
#36022000
1h
1,
#36188000
0,
#36354000
0h
1,
#36520000
0,
#36686000
1h
1,
#36852000
0,
#37018000
0h
1,
#37184000
0,
#37350000
1h
1,
#37516000
0,
#37682000
0h
1,
#37848000
0,
#38014000
1h
1,
#38180000
0,
#38346000
0h
1,
#38512000
0,
#38678000
1h
1,
#38844000
0,
#39010000
0h
1,
#39176000
0,
#39342000
1h
1,
#39508000
0,
#39674000
0h
1,
#39840000
0,
#40006000
1h
1,
#40172000
0,
#40338000
0h
1,
#40504000
0,
#40670000
1h
1,
#40836000
0,
#41002000
0h
1,
#41168000
0,
#41334000
1h
1,
#41500000
0,
#41666000
0h
1,
#41832000
0,
#41998000
1h
1,
#42164000
0,
#42330000
0h
1,
#42496000
0,
#42662000
1h
1,
#42828000
0,
#42994000
0h
1,
#43160000
0,
#43326000
1h
1,
#43492000
0,
#43658000
0h
1,
#43824000
0,
#43990000
1h
1,
#44156000
0,
#44322000
0h
1,
#44488000
0,
#44654000
1h
1,
#44820000
0,
#44986000
0h
1,
#45152000
0,
#45318000
1h
1,
#45484000
0,
#45650000
0h
1,
#45816000
0,
#45982000
1h
1,
#46148000
0,
#46314000
0h
1,
#46480000
0,
#46646000
1h
1,
#46812000
0,
#46978000
0h
1,
#47144000
0,
#47310000
1h
1,
#47476000
0,
#47642000
0h
1,
#47808000
0,
#47974000
1h
1,
#48140000
0,
#48306000
0h
1,
#48472000
0,
#48638000
1h
1,
#48804000
0,
#48970000
0h
1,
#49136000
0,
#49302000
1h
1,
#49468000
0,
#49634000
0h
1,
#49800000
0,
#49966000
1h
1,
#50132000
0,
#50298000
0h
1,
#50464000
0,
#50630000
1h
1,
#50796000
0,
#50962000
0h
1,
#51128000
0,
#51294000
1h
1,
#51460000
0,
#51626000
0h
1,
#51792000
0,
#51958000
1h
1,
#52124000
0,
#52290000
0h
1,
#52456000
0,
#52622000
1h
1,
#52788000
0,
#52954000
0h
1,
