tb_arduino_spi_slave.vcd
$date
	Wed Dec  3 11:30:27 2025
$end
$version
	Icarus Verilog
$end
$timescale
	1ps
$end
$scope module tb_arduino_spi_slave $end
$var wire 16 ! quat1_z [15:0] $end
$var wire 16 " quat1_y [15:0] $end
$var wire 16 # quat1_x [15:0] $end
$var wire 16 $ quat1_w [15:0] $end
$var wire 1 % quat1_valid $end
$var wire 1 & initialized $end
$var wire 16 ' gyro1_z [15:0] $end
$var wire 16 ( gyro1_y [15:0] $end
$var wire 16 ) gyro1_x [15:0] $end
$var wire 1 * gyro1_valid $end
$var wire 1 + error $end
$var parameter 32 , CLK_PERIOD $end
$var parameter 32 - SCK_PERIOD $end
$var reg 1 . clk $end
$var reg 1 / cs_n $end
$var reg 1 0 sck $end
$var reg 1 1 sdi $end
$var integer 32 2 fail_count [31:0] $end
$var integer 32 3 pass_count [31:0] $end
$var integer 32 4 test_count [31:0] $end
$scope module dut $end
$var wire 1 . clk $end
$var wire 1 5 cs_falling_edge_sck $end
$var wire 1 6 cs_fell_direct $end
$var wire 1 / cs_n $end
$var wire 1 7 cs_rising_edge_clk $end
$var wire 8 8 flags [7:0] $end
$var wire 8 9 header [7:0] $end
$var wire 1 0 sck $end
$var wire 1 1 sdi $end
$var wire 16 : yaw [15:0] $end
$var wire 16 ; roll [15:0] $end
$var wire 16 < pitch [15:0] $end
$var wire 16 = gyro_z [15:0] $end
$var wire 16 > gyro_y [15:0] $end
$var wire 16 ? gyro_x [15:0] $end
$var parameter 8 @ HEADER_BYTE $end
$var parameter 32 A PACKET_SIZE $end
$var reg 3 B bit_count [2:0] $end
$var reg 4 C byte_count [3:0] $end
$var reg 1 D cs_n_prev $end
$var reg 1 E cs_n_prev_clk $end
$var reg 1 F cs_n_prev_sck $end
$var reg 1 G cs_n_sync_clk1 $end
$var reg 1 H cs_n_sync_clk2 $end
$var reg 1 I cs_n_sync_sck $end
$var reg 1 + error $end
$var reg 1 * gyro1_valid $end
$var reg 16 J gyro1_x [15:0] $end
$var reg 16 K gyro1_y [15:0] $end
$var reg 16 L gyro1_z [15:0] $end
$var reg 1 & initialized $end
$var reg 1 M packet_valid $end
$var reg 1 % quat1_valid $end
$var reg 16 N quat1_w [15:0] $end
$var reg 16 O quat1_x [15:0] $end
$var reg 16 P quat1_y [15:0] $end
$var reg 16 Q quat1_z [15:0] $end
$var reg 1 R receiving $end
$var reg 8 S rx_shift [7:0] $end
$upscope $end
$scope task check_test $end
$var reg 1 T condition $end
$upscope $end
$scope task send_packet_inline $end
$var reg 8 U b0 [7:0] $end
$var reg 8 V b1 [7:0] $end
$var reg 8 W b10 [7:0] $end
$var reg 8 X b11 [7:0] $end
$var reg 8 Y b12 [7:0] $end
$var reg 8 Z b13 [7:0] $end
$var reg 8 [ b14 [7:0] $end
$var reg 8 \ b15 [7:0] $end
$var reg 8 ] b2 [7:0] $end
$var reg 8 ^ b3 [7:0] $end
$var reg 8 _ b4 [7:0] $end
$var reg 8 ` b5 [7:0] $end
$var reg 8 a b6 [7:0] $end
$var reg 8 b b7 [7:0] $end
$var reg 8 c b8 [7:0] $end
$var reg 8 d b9 [7:0] $end
$upscope $end
$scope task send_spi_byte $end
$var reg 8 e data [7:0] $end
$var integer 32 f i [31:0] $end
$upscope $end
$scope task wait_cdc $end
$upscope $end
$upscope $end
$enddefinitions $end
$comment Show the parameter values. $end
$dumpall
b10000 A
b10101010 @
b10011100010000 -
b101001101 ,
$end
#0
$dumpvars
bx f
bx e
bx d
bx c
bx b
bx a
bx `
bx _
bx ^
bx ]
bx \
bx [
bx Z
bx Y
bx X
bx W
bx V
bx U
xT
b0 S
0R
b0 Q
b0 P
b0 O
b0 N
xM
b0 L
b0 K
b0 J
1I
xH
xG
1F
xE
1D
b0 C
b0 B
bx ?
bx >
bx =
bx <
bx ;
bx :
bx 9
bx 8
x7
06
05
b0 4
b0 3
b0 2
01
00
1/
0.
0+
0*
b0 )
b0 (
b0 '
0&
0%
b0 $
b0 #
b0 "
b0 !
$end
#166000
1G
0M
1.
#332000
0.
#498000
1H
1.
#664000
0.
#830000
07
1E
1.
#996000
0.
#1162000
1.
#1328000
0.
#1494000
1.
#1660000
0.
#1826000
1.
#1992000
0.
#2158000
1.
#2324000
0.
#2490000
1.
#2656000
0.
#2822000
1.
#2988000
0.
#3154000
1.
#3320000
0.
#3330000
b0 \
b0 [
b11 Z
b110010 Y
b0 X
b111000 W
b11111111 d
b1100100 c
b0 b
b11010000 a
b111 `
b1100 _
b11111110 ^
b11101000 ]
b11 V
b10101010 U
#3486000
1.
#3652000
0.
#3818000
1.
#3984000
0.
#4150000
1.
#4316000
0.
#4482000
1.
#4648000
0.
#4814000
1.
#4980000
0.
#5146000
1.
#5312000
0.
#5478000
1.
#5644000
0.
#5810000
1.
#5976000
0.
#6142000
1.
#6308000
0.
#6474000
1.
#6640000
0.
#6806000
1.
#6972000
0.
#7138000
1.
#7304000
0.
#7470000
1.
#7636000
0.
#7802000
1.
#7968000
0.
#8134000
1.
#8300000
0.
#8466000
1.
#8632000
0.
#8798000
1.
#8964000
0.
#9130000
1.
#9296000
0.
#9462000
1.
#9628000
0.
#9794000
1.
#9960000
0.
#10126000
1.
#10292000
0.
#10458000
1.
#10624000
0.
#10790000
1.
#10956000
0.
#11122000
1.
#11288000
0.
#11454000
1.
#11620000
0.
#11786000
1.
#11952000
0.
#12118000
1.
#12284000
0.
#12450000
1.
#12616000
0.
#12782000
1.
#12948000
0.
#13114000
1.
#13280000
0.
#13446000
1.
#13612000
0.
#13778000
1.
#13944000
0.
#14110000
1.
#14276000
0.
#14442000
1.
#14608000
0.
#14774000
1.
#14940000
0.
#15106000
1.
#15272000
0.
#15438000
1.
#15604000
0.
#15770000
1.
#15936000
0.
#16102000
1.
#16268000
0.
#16434000
1.
#16600000
0.
#16766000
1.
#16932000
0.
#17098000
1.
#17264000
0.
#17430000
1.
#17596000
0.
#17762000
1.
#17928000
0.
#18094000
1.
#18260000
0.
#18426000
1.
#18592000
0.
#18758000
1.
#18924000
0.
#19090000
1.
#19256000
0.
#19422000
1.
#19588000
0.
#19754000
1.
#19920000
0.
#20086000
1.
#20252000
0.
#20418000
1.
#20584000
0.
#20750000
1.
#20916000
0.
#21082000
1.
#21248000
0.
#21414000
1.
#21580000
0.
#21746000
1.
#21912000
0.
#22078000
1.
#22244000
0.
#22410000
1.
#22576000
0.
#22742000
1.
#22908000
0.
#23074000
1.
#23240000
0.
#23406000
1.
#23572000
0.
#23738000
1.
#23904000
0.
#24070000
1.
#24236000
0.
#24402000
1.
#24568000
0.
#24734000
1.
#24900000
0.
#25066000
1.
#25232000
0.
#25398000
1.
#25564000
0.
#25730000
1.
#25896000
0.
#26062000
1.
#26228000
0.
#26394000
1.
#26560000
0.
#26726000
1.
#26892000
0.
#27058000
1.
#27224000
0.
#27390000
1.
#27556000
0.
#27722000
1.
#27888000
0.
#28054000
1.
#28220000
0.
#28386000
1.
#28552000
0.
#28718000
1.
#28884000
0.
#29050000
1.
#29216000
0.
#29382000
1.
#29548000
0.
#29714000
1.
#29880000
0.
#30046000
1.
#30212000
0.
#30378000
1.
#30544000
0.
#30710000
1.
#30876000
0.
#31042000
1.
#31208000
0.
#31374000
1.
#31540000
0.
#31706000
1.
#31872000
0.
#32038000
1.
#32204000
0.
#32370000
1.
#32536000
0.
#32702000
1.
#32868000
0.
#33034000
1.
#33200000
0.
#33330000
16
0/
#33366000
06
0D
1R
0G
1.
#33532000
0.
#33698000
0H
1.
#33864000
0.
#34030000
0E
1.
#34196000
0.
#34362000
1.
#34528000
0.
#34694000
1.
#34860000
0.
#35026000
1.
#35192000
0.
#35358000
1.
#35524000
0.
#35690000
1.
#35856000
0.
#36022000
1.
#36188000
0.
#36354000
1.
#36520000
0.
#36686000
1.
#36852000
0.
#37018000
1.
#37184000
0.
#37350000
1.
#37516000
0.
#37682000
1.
#37848000
0.
#38014000
1.
#38180000
0.
#38346000
1.
#38512000
0.
#38678000
1.
#38844000
0.
#39010000
1.
#39176000
0.
#39342000
1.
#39508000
0.
#39674000
1.
#39840000
0.
#40006000
1.
#40172000
0.
#40338000
1.
#40504000
0.
#40670000
1.
#40836000
0.
#41002000
1.
#41168000
0.
#41334000
1.
#41500000
0.
#41666000
1.
#41832000
0.
#41998000
1.
#42164000
0.
#42330000
1.
#42496000
0.
#42662000
1.
#42828000
0.
#42994000
1.
#43160000
0.
#43326000
1.
#43492000
0.
#43658000
1.
#43824000
0.
#43990000
1.
#44156000
0.
#44322000
1.
#44488000
0.
#44654000
1.
#44820000
0.
#44986000
1.
#45152000
0.
#45318000
1.
#45484000
0.
#45650000
1.
#45816000
0.
#45982000
1.
#46148000
0.
#46314000
1.
#46480000
0.
#46646000
1.
#46812000
0.
#46978000
1.
#47144000
0.
#47310000
1.
#47476000
0.
#47642000
1.
#47808000
0.
#47974000
1.
#48140000
0.
#48306000
1.
#48472000
0.
#48638000
1.
#48804000
0.
#48970000
1.
#49136000
0.
#49302000
1.
#49468000
0.
#49634000
1.
#49800000
0.
#49966000
1.
#50132000
0.
#50298000
1.
#50464000
0.
#50630000
1.
#50796000
0.
#50962000
1.
#51128000
0.
#51294000
1.
#51460000
0.
#51626000
1.
#51792000
0.
#51958000
1.
#52124000
0.
#52290000
1.
#52456000
0.
#52622000
1.
#52788000
0.
#52954000
1.
#53120000
0.
#53286000
1.
#53330000
11
b111 f
b10101010 e
#53452000
0.
#53618000
1.
#53784000
0.
#53950000
1.
#54116000
0.
#54282000
1.
#54448000
0.
#54614000
1.
#54780000
0.
#54946000
1.
#55112000
0.
#55278000
1.
#55444000
0.
#55610000
1.
#55776000
0.
#55942000
1.
#56108000
0.
#56274000
1.
#56440000
0.
#56606000
1.
#56772000
0.
#56938000
1.
#57104000
0.
#57270000
1.
#57436000
0.
#57602000
1.
#57768000
0.
#57934000
1.
#58100000
0.
#58266000
1.
#58330000
b1 B
b1 S
10
#58432000
0.
#58598000
1.
#58764000
0.
#58930000
1.
#59096000
0.
#59262000
1.
#59428000
0.
#59594000
1.
#59760000
0.
#59926000
1.
#60092000
0.
#60258000
1.
#60424000
0.
#60590000
1.
#60756000
0.
#60922000
1.
#61088000
0.
#61254000
1.
#61420000
0.
#61586000
1.
#61752000
0.
#61918000
1.
#62084000
0.
#62250000
1.
#62416000
0.
#62582000
1.
#62748000
0.
#62914000
1.
#63080000
0.
#63246000
1.
#63330000
15
0I
01
b110 f
00
#63412000
0.
#63578000
1.
#63744000
0.
#63910000
1.
#64076000
0.
#64242000
1.
#64408000
0.
#64574000
1.
#64740000
0.
#64906000
1.
#65072000
0.
#65238000
1.
#65404000
0.
#65570000
1.
#65736000
0.
#65902000
1.
#66068000
0.
#66234000
1.
#66400000
0.
#66566000
1.
#66732000
0.
#66898000
1.
#67064000
0.
#67230000
1.
#67396000
0.
#67562000
1.
#67728000
0.
#67894000
1.
#68060000
0.
#68226000
1.
#68330000
b10 B
b10 S
10
#68392000
0.
#68558000
1.
#68724000
0.
#68890000
1.
#69056000
0.
#69222000
1.
#69388000
0.
#69554000
1.
#69720000
0.
#69886000
1.
#70052000
0.
#70218000
1.
#70384000
0.
#70550000
1.
#70716000
0.
#70882000
1.
#71048000
0.
#71214000
1.
#71380000
0.
#71546000
1.
#71712000
0.
#71878000
1.
#72044000
0.
#72210000
1.
#72376000
0.
#72542000
1.
#72708000
0.
#72874000
1.
#73040000
0.
#73206000
1.
#73330000
05
0F
11
b101 f
00
#73372000
0.
#73538000
1.
#73704000
0.
#73870000
1.
#74036000
0.
#74202000
1.
#74368000
0.
#74534000
1.
#74700000
0.
#74866000
1.
#75032000
0.
#75198000
1.
#75364000
0.
#75530000
1.
#75696000
0.
#75862000
1.
#76028000
0.
#76194000
1.
#76360000
0.
#76526000
1.
#76692000
0.
#76858000
1.
#77024000
0.
#77190000
1.
#77356000
0.
#77522000
1.
#77688000
0.
#77854000
1.
#78020000
0.
#78186000
1.
#78330000
b11 B
b101 S
10
#78352000
0.
#78518000
1.
#78684000
0.
#78850000
1.
#79016000
0.
#79182000
1.
#79348000
0.
#79514000
1.
#79680000
0.
#79846000
1.
#80012000
0.
#80178000
1.
#80344000
0.
#80510000
1.
#80676000
0.
#80842000
1.
#81008000
0.
#81174000
1.
#81340000
0.
#81506000
1.
#81672000
0.
#81838000
1.
#82004000
0.
#82170000
1.
#82336000
0.
#82502000
1.
#82668000
0.
#82834000
1.
#83000000
0.
#83166000
1.
#83330000
01
b100 f
00
#83332000
0.
#83498000
1.
#83664000
0.
#83830000
1.
#83996000
0.
#84162000
1.
#84328000
0.
#84494000
1.
#84660000
0.
#84826000
1.
#84992000
0.
#85158000
1.
#85324000
0.
#85490000
1.
#85656000
0.
#85822000
1.
#85988000
0.
#86154000
1.
#86320000
0.
#86486000
1.
#86652000
0.
#86818000
1.
#86984000
0.
#87150000
1.
#87316000
0.
#87482000
1.
#87648000
0.
#87814000
1.
#87980000
0.
#88146000
1.
#88312000
0.
#88330000
b100 B
b1010 S
10
#88478000
1.
#88644000
0.
#88810000
1.
#88976000
0.
#89142000
1.
#89308000
0.
#89474000
1.
#89640000
0.
#89806000
1.
#89972000
0.
#90138000
1.
#90304000
0.
#90470000
1.
#90636000
0.
#90802000
1.
#90968000
0.
#91134000
1.
#91300000
0.
#91466000
1.
#91632000
0.
#91798000
1.
#91964000
0.
#92130000
1.
#92296000
0.
#92462000
1.
#92628000
0.
#92794000
1.
#92960000
0.
#93126000
1.
#93292000
0.
#93330000
11
b11 f
00
#93458000
1.
#93624000
0.
#93790000
1.
#93956000
0.
#94122000
1.
#94288000
0.
#94454000
1.
#94620000
0.
#94786000
1.
#94952000
0.
#95118000
1.
#95284000
0.
#95450000
1.
#95616000
0.
#95782000
1.
#95948000
0.
#96114000
1.
#96280000
0.
#96446000
1.
#96612000
0.
#96778000
1.
#96944000
0.
#97110000
1.
#97276000
0.
#97442000
1.
#97608000
0.
#97774000
1.
#97940000
0.
#98106000
1.
#98272000
0.
#98330000
b101 B
b10101 S
10
#98438000
1.
#98604000
0.
#98770000
1.
#98936000
0.
#99102000
1.
#99268000
0.
#99434000
1.
#99600000
0.
#99766000
1.
#99932000
0.
#100098000
1.
#100264000
0.
#100430000
1.
#100596000
0.
#100762000
1.
#100928000
0.
#101094000
1.
#101260000
0.
#101426000
1.
#101592000
0.
#101758000
1.
#101924000
0.
#102090000
1.
#102256000
0.
#102422000
1.
#102588000
0.
#102754000
1.
#102920000
0.
#103086000
1.
#103252000
0.
#103330000
01
b10 f
00
#103418000
1.
#103584000
0.
#103750000
1.
#103916000
0.
#104082000
1.
#104248000
0.
#104414000
1.
#104580000
0.
#104746000
1.
#104912000
0.
#105078000
1.
#105244000
0.
#105410000
1.
#105576000
0.
#105742000
1.
#105908000
0.
#106074000
1.
#106240000
0.
#106406000
1.
#106572000
0.
#106738000
1.
#106904000
0.
#107070000
1.
#107236000
0.
#107402000
1.
#107568000
0.
#107734000
1.
#107900000
0.
#108066000
1.
#108232000
0.
#108330000
b110 B
b101010 S
10
#108398000
1.
#108564000
0.
#108730000
1.
#108896000
0.
#109062000
1.
#109228000
0.
#109394000
1.
#109560000
0.
#109726000
1.
#109892000
0.
#110058000
1.
#110224000
0.
#110390000
1.
#110556000
0.
#110722000
1.
#110888000
0.
#111054000
1.
#111220000
0.
#111386000
1.
#111552000
0.
#111718000
1.
#111884000
0.
#112050000
1.
#112216000
0.
#112382000
1.
#112548000
0.
#112714000
1.
#112880000
0.
#113046000
1.
#113212000
0.
#113330000
11
b1 f
00
#113378000
1.
#113544000
0.
#113710000
1.
#113876000
0.
#114042000
1.
#114208000
0.
#114374000
1.
#114540000
0.
#114706000
1.
#114872000
0.
#115038000
1.
#115204000
0.
#115370000
1.
#115536000
0.
#115702000
1.
#115868000
0.
#116034000
1.
#116200000
0.
#116366000
1.
#116532000
0.
#116698000
1.
#116864000
0.
#117030000
1.
#117196000
0.
#117362000
1.
#117528000
0.
#117694000
1.
#117860000
0.
#118026000
1.
#118192000
0.
#118330000
b111 B
b1010101 S
10
#118358000
1.
#118524000
0.
#118690000
1.
#118856000
0.
#119022000
1.
#119188000
0.
#119354000
1.
#119520000
0.
#119686000
1.
#119852000
0.
#120018000
1.
#120184000
0.
#120350000
1.
#120516000
0.
#120682000
1.
#120848000
0.
#121014000
1.
#121180000
0.
#121346000
1.
#121512000
0.
#121678000
1.
#121844000
0.
#122010000
1.
#122176000
0.
#122342000
1.
#122508000
0.
#122674000
1.
#122840000
0.
#123006000
1.
#123172000
0.
#123330000
01
b0 f
00
#123338000
1.
#123504000
0.
#123670000
1.
#123836000
0.
#124002000
1.
#124168000
0.
#124334000
1.
#124500000
0.
#124666000
1.
#124832000
0.
#124998000
1.
#125164000
0.
#125330000
1.
#125496000
0.
#125662000
1.
#125828000
0.
#125994000
1.
#126160000
0.
#126326000
1.
#126492000
0.
#126658000
1.
#126824000
0.
#126990000
1.
#127156000
0.
#127322000
1.
#127488000
0.
#127654000
1.
#127820000
0.
#127986000
1.
#128152000
0.
#128318000
1.
#128330000
b0 S
b0 B
b1 C
10
#128484000
0.
#128650000
1.
#128816000
0.
#128982000
1.
#129148000
0.
#129314000
1.
#129480000
0.
#129646000
1.
#129812000
0.
#129978000
1.
#130144000
0.
#130310000
1.
#130476000
0.
#130642000
1.
#130808000
0.
#130974000
1.
#131140000
0.
#131306000
1.
#131472000
0.
#131638000
1.
#131804000
0.
#131970000
1.
#132136000
0.
#132302000
1.
#132468000
0.
#132634000
1.
#132800000
0.
#132966000
1.
#133132000
0.
#133298000
1.
#133330000
b11 e
b111 f
00
#133464000
0.
#133630000
1.
#133796000
0.
#133962000
1.
#134128000
0.
#134294000
1.
#134460000
0.
#134626000
1.
#134792000
0.
#134958000
1.
#135124000
0.
#135290000
1.
#135456000
0.
#135622000
1.
#135788000
0.
#135954000
1.
#136120000
0.
#136286000
1.
#136452000
0.
#136618000
1.
#136784000
0.
#136950000
1.
#137116000
0.
#137282000
1.
#137448000
0.
#137614000
1.
#137780000
0.
#137946000
1.
#138112000
0.
#138278000
1.
#138330000
b1 B
10
#138444000
0.
#138610000
1.
#138776000
0.
#138942000
1.
#139108000
0.
#139274000
1.
#139440000
0.
#139606000
1.
#139772000
0.
#139938000
1.
#140104000
0.
#140270000
1.
#140436000
0.
#140602000
1.
#140768000
0.
#140934000
1.
#141100000
0.
#141266000
1.
#141432000
0.
#141598000
1.
#141764000
0.
#141930000
1.
#142096000
0.
#142262000
1.
#142428000
0.
#142594000
1.
#142760000
0.
#142926000
1.
#143092000
0.
#143258000
1.
#143330000
b110 f
00
#143424000
0.
#143590000
1.
#143756000
0.
#143922000
1.
#144088000
0.
#144254000
1.
#144420000
0.
#144586000
1.
#144752000
0.
#144918000
1.
#145084000
0.
#145250000
1.
#145416000
0.
#145582000
1.
#145748000
0.
#145914000
1.
#146080000
0.
#146246000
1.
#146412000
0.
#146578000
1.
#146744000
0.
#146910000
1.
#147076000
0.
#147242000
1.
#147408000
0.
#147574000
1.
#147740000
0.
#147906000
1.
#148072000
0.
#148238000
1.
#148330000
b10 B
10
#148404000
0.
#148570000
1.
#148736000
0.
#148902000
1.
#149068000
0.
#149234000
1.
#149400000
0.
#149566000
1.
#149732000
0.
#149898000
1.
#150064000
0.
#150230000
1.
#150396000
0.
#150562000
1.
#150728000
0.
#150894000
1.
#151060000
0.
#151226000
1.
#151392000
0.
#151558000
1.
#151724000
0.
#151890000
1.
#152056000
0.
#152222000
1.
#152388000
0.
#152554000
1.
#152720000
0.
#152886000
1.
#153052000
0.
#153218000
1.
#153330000
b101 f
00
#153384000
0.
#153550000
1.
#153716000
0.
#153882000
1.
#154048000
0.
#154214000
1.
#154380000
0.
#154546000
1.
#154712000
0.
#154878000
1.
#155044000
0.
#155210000
1.
#155376000
0.
#155542000
1.
#155708000
0.
#155874000
1.
#156040000
0.
#156206000
1.
#156372000
0.
#156538000
1.
#156704000
0.
#156870000
1.
#157036000
0.
#157202000
1.
#157368000
0.
#157534000
1.
#157700000
0.
#157866000
1.
#158032000
0.
#158198000
1.
#158330000
b11 B
10
#158364000
0.
#158530000
1.
#158696000
0.
#158862000
1.
#159028000
0.
#159194000
1.
#159360000
0.
#159526000
1.
#159692000
0.
#159858000
1.
#160024000
0.
#160190000
1.
#160356000
0.
#160522000
1.
#160688000
0.
#160854000
1.
#161020000
0.
#161186000
1.
#161352000
0.
#161518000
1.
#161684000
0.
#161850000
1.
#162016000
0.
#162182000
1.
#162348000
0.
#162514000
1.
#162680000
0.
#162846000
1.
#163012000
0.
#163178000
1.
#163330000
b100 f
00
#163344000
0.
#163510000
1.
#163676000
0.
#163842000
1.
#164008000
0.
#164174000
1.
#164340000
0.
#164506000
1.
#164672000
0.
#164838000
1.
#165004000
0.
#165170000
1.
#165336000
0.
#165502000
1.
#165668000
0.
#165834000
1.
#166000000
0.
#166166000
1.
#166332000
0.
#166498000
1.
#166664000
0.
#166830000
1.
#166996000
0.
#167162000
1.
#167328000
0.
#167494000
1.
#167660000
0.
#167826000
1.
#167992000
0.
#168158000
1.
#168324000
0.
#168330000
b100 B
10
#168490000
1.
#168656000
0.
#168822000
1.
#168988000
0.
#169154000
1.
#169320000
0.
#169486000
1.
#169652000
0.
#169818000
1.
#169984000
0.
#170150000
1.
#170316000
0.
#170482000
1.
#170648000
0.
#170814000
1.
#170980000
0.
#171146000
1.
#171312000
0.
#171478000
1.
#171644000
0.
#171810000
1.
#171976000
0.
#172142000
1.
#172308000
0.
#172474000
1.
#172640000
0.
#172806000
1.
#172972000
0.
#173138000
1.
#173304000
0.
#173330000
b11 f
00
#173470000
1.
#173636000
0.
#173802000
1.
#173968000
0.
#174134000
1.
#174300000
0.
#174466000
1.
#174632000
0.
#174798000
1.
#174964000
0.
#175130000
1.
#175296000
0.
#175462000
1.
#175628000
0.
#175794000
1.
#175960000
0.
#176126000
1.
#176292000
0.
#176458000
1.
#176624000
0.
#176790000
1.
#176956000
0.
#177122000
1.
#177288000
0.
#177454000
1.
#177620000
0.
#177786000
1.
#177952000
0.
#178118000
1.
#178284000
0.
#178330000
b101 B
10
#178450000
1.
#178616000
0.
#178782000
1.
#178948000
0.
#179114000
1.
#179280000
0.
#179446000
1.
#179612000
0.
#179778000
1.
#179944000
0.
#180110000
1.
#180276000
0.
#180442000
1.
#180608000
0.
#180774000
1.
#180940000
0.
#181106000
1.
#181272000
0.
#181438000
1.
#181604000
0.
#181770000
1.
#181936000
0.
#182102000
1.
#182268000
0.
#182434000
1.
#182600000
0.
#182766000
1.
#182932000
0.
#183098000
1.
#183264000
0.
#183330000
b10 f
00
#183430000
1.
#183596000
0.
#183762000
1.
#183928000
0.
#184094000
1.
#184260000
0.
#184426000
1.
#184592000
0.
#184758000
1.
#184924000
0.
#185090000
1.
#185256000
0.
#185422000
1.
#185588000
0.
#185754000
1.
#185920000
0.
#186086000
1.
#186252000
0.
#186418000
1.
#186584000
0.
#186750000
1.
#186916000
0.
#187082000
1.
#187248000
0.
#187414000
1.
#187580000
0.
#187746000
1.
#187912000
0.
#188078000
1.
#188244000
0.
#188330000
b110 B
10
#188410000
1.
#188576000
0.
#188742000
1.
#188908000
0.
#189074000
1.
#189240000
0.
#189406000
1.
#189572000
0.
#189738000
1.
#189904000
0.
#190070000
1.
#190236000
0.
#190402000
1.
#190568000
0.
#190734000
1.
#190900000
0.
#191066000
1.
#191232000
0.
#191398000
1.
#191564000
0.
#191730000
1.
#191896000
0.
#192062000
1.
#192228000
0.
#192394000
1.
#192560000
0.
#192726000
1.
#192892000
0.
#193058000
1.
#193224000
0.
#193330000
11
b1 f
00
#193390000
1.
#193556000
0.
#193722000
1.
#193888000
0.
#194054000
1.
#194220000
0.
#194386000
1.
#194552000
0.
#194718000
1.
#194884000
0.
#195050000
1.
#195216000
0.
#195382000
1.
#195548000
0.
#195714000
1.
#195880000
0.
#196046000
1.
#196212000
0.
#196378000
1.
#196544000
0.
#196710000
1.
#196876000
0.
#197042000
1.
#197208000
0.
#197374000
1.
#197540000
0.
#197706000
1.
#197872000
0.
#198038000
1.
#198204000
0.
#198330000
b111 B
b1 S
10
#198370000
1.
#198536000
0.
#198702000
1.
#198868000
0.
#199034000
1.
#199200000
0.
#199366000
1.
#199532000
0.
#199698000
1.
#199864000
0.
#200030000
1.
#200196000
0.
#200362000
1.
#200528000
0.
#200694000
1.
#200860000
0.
#201026000
1.
#201192000
0.
#201358000
1.
#201524000
0.
#201690000
1.
#201856000
0.
#202022000
1.
#202188000
0.
#202354000
1.
#202520000
0.
#202686000
1.
#202852000
0.
#203018000
1.
#203184000
0.
#203330000
b0 f
00
#203350000
1.
#203516000
0.
#203682000
1.
#203848000
0.
#204014000
1.
#204180000
0.
#204346000
1.
#204512000
0.
#204678000
1.
#204844000
0.
#205010000
1.
#205176000
0.
#205342000
1.
#205508000
0.
#205674000
1.
#205840000
0.
#206006000
1.
#206172000
0.
#206338000
1.
#206504000
0.
#206670000
1.
#206836000
0.
#207002000
1.
#207168000
0.
#207334000
1.
#207500000
0.
#207666000
1.
#207832000
0.
#207998000
1.
#208164000
0.
#208330000
b0 S
b0 B
b10 C
1.
10
#208496000
0.
#208662000
1.
#208828000
0.
#208994000
1.
#209160000
0.
#209326000
1.
#209492000
0.
#209658000
1.
#209824000
0.
#209990000
1.
#210156000
0.
#210322000
1.
#210488000
0.
#210654000
1.
#210820000
0.
#210986000
1.
#211152000
0.
#211318000
1.
#211484000
0.
#211650000
1.
#211816000
0.
#211982000
1.
#212148000
0.
#212314000
1.
#212480000
0.
#212646000
1.
#212812000
0.
#212978000
1.
#213144000
0.
#213310000
1.
#213330000
b11101000 e
b111 f
00
#213476000
0.
#213642000
1.
#213808000
0.
#213974000
1.
#214140000
0.
#214306000
1.
#214472000
0.
#214638000
1.
#214804000
0.
#214970000
1.
#215136000
0.
#215302000
1.
#215468000
0.
#215634000
1.
#215800000
0.
#215966000
1.
#216132000
0.
#216298000
1.
#216464000
0.
#216630000
1.
#216796000
0.
#216962000
1.
#217128000
0.
#217294000
1.
#217460000
0.
#217626000
1.
#217792000
0.
#217958000
1.
#218124000
0.
#218290000
1.
#218330000
b1 B
b1 S
10
#218456000
0.
#218622000
1.
#218788000
0.
#218954000
1.
#219120000
0.
#219286000
1.
#219452000
0.
#219618000
1.
#219784000
0.
#219950000
1.
#220116000
0.
#220282000
1.
#220448000
0.
#220614000
1.
#220780000
0.
#220946000
1.
#221112000
0.
#221278000
1.
#221444000
0.
#221610000
1.
#221776000
0.
#221942000
1.
#222108000
0.
#222274000
1.
#222440000
0.
#222606000
1.
#222772000
0.
#222938000
1.
#223104000
0.
#223270000
1.
#223330000
b110 f
00
#223436000
0.
#223602000
1.
#223768000
0.
#223934000
1.
#224100000
0.
#224266000
1.
#224432000
0.
#224598000
1.
#224764000
0.
#224930000
1.
#225096000
0.
#225262000
1.
#225428000
0.
#225594000
1.
#225760000
0.
#225926000
1.
#226092000
0.
#226258000
1.
#226424000
0.
#226590000
1.
#226756000
0.
#226922000
1.
#227088000
0.
#227254000
1.
#227420000
0.
#227586000
1.
#227752000
0.
#227918000
1.
#228084000
0.
#228250000
1.
#228330000
b10 B
b11 S
10
#228416000
0.
#228582000
1.
#228748000
0.
#228914000
1.
#229080000
0.
#229246000
1.
#229412000
0.
#229578000
1.
#229744000
0.
#229910000
1.
#230076000
0.
#230242000
1.
#230408000
0.
#230574000
1.
#230740000
0.
#230906000
1.
#231072000
0.
#231238000
1.
#231404000
0.
#231570000
1.
#231736000
0.
#231902000
1.
#232068000
0.
#232234000
1.
#232400000
0.
#232566000
1.
#232732000
0.
#232898000
1.
#233064000
0.
#233230000
1.
#233330000
b101 f
00
#233396000
0.
#233562000
1.
#233728000
0.
#233894000
1.
#234060000
0.
#234226000
1.
#234392000
0.
#234558000
1.
#234724000
0.
#234890000
1.
#235056000
0.
#235222000
1.
#235388000
0.
#235554000
1.
#235720000
0.
#235886000
1.
#236052000
0.
#236218000
1.
#236384000
0.
#236550000
1.
#236716000
0.
#236882000
1.
#237048000
0.
#237214000
1.
#237380000
0.
#237546000
1.
#237712000
0.
#237878000
1.
#238044000
0.
#238210000
1.
#238330000
b11 B
b111 S
10
#238376000
0.
#238542000
1.
#238708000
0.
#238874000
1.
#239040000
0.
#239206000
1.
#239372000
0.
#239538000
1.
#239704000
0.
#239870000
1.
#240036000
0.
#240202000
1.
#240368000
0.
#240534000
1.
#240700000
0.
#240866000
1.
#241032000
0.
#241198000
1.
#241364000
0.
#241530000
1.
#241696000
0.
#241862000
1.
#242028000
0.
#242194000
1.
#242360000
0.
#242526000
1.
#242692000
0.
#242858000
1.
#243024000
0.
#243190000
1.
#243330000
01
b100 f
00
#243356000
0.
#243522000
1.
#243688000
0.
#243854000
1.
#244020000
0.
#244186000
1.
#244352000
0.
#244518000
1.
#244684000
0.
#244850000
1.
#245016000
0.
#245182000
1.
#245348000
0.
#245514000
1.
#245680000
0.
#245846000
1.
#246012000
0.
#246178000
1.
#246344000
0.
#246510000
1.
#246676000
0.
#246842000
1.
#247008000
0.
#247174000
1.
#247340000
0.
#247506000
1.
#247672000
0.
#247838000
1.
#248004000
0.
#248170000
1.
#248330000
b100 B
b1110 S
10
#248336000
0.
#248502000
1.
#248668000
0.
#248834000
1.
#249000000
0.
#249166000
1.
#249332000
0.
#249498000
1.
#249664000
0.
#249830000
1.
#249996000
0.
#250162000
1.
#250328000
0.
#250494000
1.
#250660000
0.
#250826000
1.
#250992000
0.
#251158000
1.
#251324000
0.
#251490000
1.
#251656000
0.
#251822000
1.
#251988000
0.
#252154000
1.
#252320000
0.
#252486000
1.
#252652000
0.
#252818000
1.
#252984000
0.
#253150000
1.
#253316000
0.
#253330000
11
b11 f
00
