tb_bno085_controller.vcd
$date
	Fri Nov 28 22:13:02 2025
$end
$version
	Icarus Verilog
$end
$timescale
	1ps
$end
$scope module tb_bno085_controller $end
$var wire 1 ! spi_tx_valid $end
$var wire 1 " spi_tx_ready $end
$var wire 8 # spi_tx_data [7:0] $end
$var wire 1 $ spi_start $end
$var wire 1 % spi_rx_valid $end
$var wire 8 & spi_rx_data [7:0] $end
$var wire 1 ' spi_busy $end
$var wire 1 ( sclk $end
$var wire 16 ) quat_z [15:0] $end
$var wire 16 * quat_y [15:0] $end
$var wire 16 + quat_x [15:0] $end
$var wire 16 , quat_w [15:0] $end
$var wire 1 - quat_valid $end
$var wire 1 . ps0_wake $end
$var wire 1 / mosi $end
$var wire 1 0 miso $end
$var wire 1 1 int_n $end
$var wire 1 2 initialized $end
$var wire 16 3 gyro_z [15:0] $end
$var wire 16 4 gyro_y [15:0] $end
$var wire 16 5 gyro_x [15:0] $end
$var wire 1 6 gyro_valid $end
$var wire 1 7 error $end
$var wire 1 8 cs_n $end
$var parameter 32 9 CLK_PERIOD $end
$var reg 1 : clk $end
$var reg 1 ; rst_n $end
$var integer 32 < init_commands_received [31:0] $end
$scope module dut $end
$var wire 1 : clk $end
$var wire 1 ; rst_n $end
$var wire 1 " spi_tx_ready $end
$var wire 1 % spi_rx_valid $end
$var wire 8 = spi_rx_data [7:0] $end
$var wire 1 ' spi_busy $end
$var wire 1 1 int_n $end
$var parameter 8 > CHANNEL_COMMAND $end
$var parameter 8 ? CHANNEL_CONTROL $end
$var parameter 8 @ CHANNEL_EXECUTABLE $end
$var parameter 8 A CHANNEL_GYRO_RV $end
$var parameter 8 B CHANNEL_REPORTS $end
$var parameter 8 C CHANNEL_WAKE_REPORTS $end
$var parameter 8 D REPORT_ID_GYROSCOPE $end
$var parameter 8 E REPORT_ID_ROTATION_VECTOR $end
$var reg 8 F byte_cnt [7:0] $end
$var reg 8 G channel [7:0] $end
$var reg 2 H cmd_select [1:0] $end
$var reg 1 8 cs_n $end
$var reg 8 I current_report_id [7:0] $end
$var reg 19 J delay_counter [18:0] $end
$var reg 1 7 error $end
$var reg 1 6 gyro_valid $end
$var reg 16 K gyro_x [15:0] $end
$var reg 16 L gyro_y [15:0] $end
$var reg 16 M gyro_z [15:0] $end
$var reg 1 2 initialized $end
$var reg 1 N int_n_prev $end
$var reg 1 O int_n_sync $end
$var reg 8 P last_seq_num [7:0] $end
$var reg 16 Q packet_length [15:0] $end
$var reg 1 . ps0_wake $end
$var reg 1 - quat_valid $end
$var reg 16 R quat_w [15:0] $end
$var reg 16 S quat_x [15:0] $end
$var reg 16 T quat_y [15:0] $end
$var reg 16 U quat_z [15:0] $end
$var reg 8 V report_delay [7:0] $end
$var reg 8 W report_status [7:0] $end
$var reg 1 $ spi_start $end
$var reg 8 X spi_tx_data [7:0] $end
$var reg 1 ! spi_tx_valid $end
$var reg 4 Y state [3:0] $end
$var reg 8 Z temp_byte_lsb [7:0] $end
$scope function get_cmd_len $end
$var reg 2 [ cmd [1:0] $end
$upscope $end
$scope function get_init_byte $end
$var reg 2 \ cmd [1:0] $end
$var reg 8 ] idx [7:0] $end
$upscope $end
$upscope $end
$scope module sensor_model $end
$var wire 1 : clk $end
$var wire 1 8 cs_n $end
$var wire 1 ^ ps0_falling_edge $end
$var wire 1 . ps0_wake $end
$var wire 1 ; rst_n $end
$var wire 1 ( sclk $end
$var wire 1 / mosi $end
$var reg 1 _ cs_n_prev $end
$var reg 1 ` cs_n_sync $end
$var reg 1 1 int_n $end
$var reg 1 0 miso $end
$var reg 1 a ps0_prev $end
$var reg 1 b ps0_sync $end
$var reg 8 c received_channel [7:0] $end
$var reg 16 d received_length [15:0] $end
$var reg 8 e received_seq [7:0] $end
$var reg 19 f reset_delay_counter [18:0] $end
$var reg 4 g rx_bit_cnt [3:0] $end
$var reg 8 h rx_byte [7:0] $end
$var reg 4 i tx_bit_cnt [3:0] $end
$var reg 8 j tx_byte [7:0] $end
$var reg 1 k wake_triggered $end
$var integer 32 l cmd_byte_count [31:0] $end
$var integer 32 m response_len [31:0] $end
$var integer 32 n response_ptr [31:0] $end
$var integer 32 o rx_byte_count [31:0] $end
$var integer 32 p rx_ptr [31:0] $end
$var integer 32 q state [31:0] $end
$scope function get_prod_id_byte $end
$var reg 4 r idx [3:0] $end
$upscope $end
$scope function get_set_feature_ack $end
$var reg 8 s seq [7:0] $end
$upscope $end
$scope task prepare_response $end
$var integer 32 t i [31:0] $end
$upscope $end
$scope task send_gyroscope $end
$var reg 16 u x [15:0] $end
$var reg 16 v y [15:0] $end
$var reg 16 w z [15:0] $end
$upscope $end
$scope task send_rotation_vector $end
$var reg 16 x w [15:0] $end
$var reg 16 y x [15:0] $end
$var reg 16 z y [15:0] $end
$var reg 16 { z [15:0] $end
$upscope $end
$upscope $end
$scope module spi_master_inst $end
$var wire 1 : clk $end
$var wire 1 0 miso $end
$var wire 1 ; rst_n $end
$var wire 1 ( sclk $end
$var wire 1 $ start $end
$var wire 8 | tx_data [7:0] $end
$var wire 1 ! tx_valid $end
$var wire 1 / mosi $end
$var wire 1 ' busy $end
$var parameter 32 } CLK_DIV $end
$var reg 4 ~ bit_cnt [3:0] $end
$var reg 8 !" clk_cnt [7:0] $end
$var reg 8 "" rx_data [7:0] $end
$var reg 8 #" rx_shift [7:0] $end
$var reg 1 % rx_valid $end
$var reg 1 $" sclk_en $end
$var reg 1 %" sclk_reg $end
$var reg 3 &" state [2:0] $end
$var reg 1 " tx_ready $end
$var reg 8 '" tx_shift [7:0] $end
$upscope $end
$scope begin gyro_timeout $end
$upscope $end
$scope begin quat_timeout $end
$upscope $end
$upscope $end
$enddefinitions $end
$comment Show the parameter values. $end
$dumpall
b10000 }
b101 E
b10 D
b100 C
b11 B
b101 A
b1 @
b10 ?
b0 >
b101001101 9
$end
#0
$dumpvars
b0 '"
b0 &"
1%"
0$"
b0 #"
b0 ""
b0 !"
b0 ~
bx |
bx {
bx z
bx y
bx x
bx w
bx v
bx u
bx t
bx s
bx r
b1 q
b0 p
b0 o
b0 n
b0 m
b0 l
0k
b0 j
b0 i
b0 h
b0 g
b0 f
b0 e
b0 d
b0 c
1b
1a
1`
1_
0^
bx ]
bx \
bx [
b0 Z
b1 Y
bx X
b0 W
b0 V
b0 U
b0 T
b0 S
b0 R
bx Q
b0 P
1O
1N
b0 M
b0 L
b0 K
b0 J
b0 I
b0 H
bx G
b0 F
b0 =
b0 <
0;
0:
18
07
06
b0 5
b0 4
b0 3
02
11
x0
0/
1.
0-
b0 ,
b0 +
b0 *
b0 )
1(
0'
b0 &
0%
0$
bx #
0"
0!
$end
#166000
1:
#332000
0:
#498000
1:
#664000
0:
#830000
1:
#996000
0:
#1000000
1;
#1162000
1"
b1 f
b1001001001111010110 J
1:
#1328000
0:
#1494000
b10 f
b1001001001111010111 J
1:
#1660000
0:
#1826000
b1001001001111011000 J
b11 f
1:
#1992000
0:
#2158000
b100 f
b1001001001111011001 J
1:
#2324000
0:
#2490000
b1001001001111011010 J
b101 f
1:
#2656000
0:
#2822000
b110 f
b1001001001111011011 J
1:
#2988000
0:
#3154000
b1001001001111011100 J
b111 f
1:
#3320000
0:
#3486000
b1000 f
b1001001001111011101 J
1:
#3652000
0:
#3818000
b1001001001111011110 J
b1001 f
1:
#3984000
0:
#4150000
b1010 f
b1001001001111011111 J
1:
#4316000
0:
#4482000
b1001001001111100000 J
b1011 f
1:
#4648000
0:
#4814000
b1100 f
b0 J
b10 Y
1:
#4980000
0:
#5146000
b11 Y
0.
b1101 f
1:
#5312000
0:
#5478000
1^
0b
b1110 f
b1 J
1:
#5644000
0:
#5810000
0^
b10 J
b1111 f
0a
b10 q
1k
1:
#5976000
0:
#6142000
b10000 f
b11 J
1:
#6146000
01
#6308000
0:
#6474000
0O
b100 J
b10001 f
1:
#6640000
0:
#6806000
b10010 f
b100 Y
b0 J
0N
1:
#6972000
0:
#7138000
b101 Y
1.
08
b10011 f
1:
#7304000
0:
#7470000
0`
1b
b10100 f
1$
1!
b101 #
b101 X
b101 |
b0 \
b0 ]
b0 [
1:
#7636000
0:
#7802000
1$"
0"
b101 '"
1'
b1 &"
1!
1$
b10101 f
1a
0_
11
1:
#7968000
0:
#8134000
b10110 f
0!
0$
1O
b1 !"
1:
#8300000
0:
#8466000
b10 !"
1N
b10111 f
1:
#8632000
0:
#8798000
b11000 f
b11 !"
1:
#8964000
0:
#9130000
b100 !"
b11001 f
1:
#9296000
0:
#9462000
b11010 f
b101 !"
1:
#9628000
0:
#9794000
b110 !"
b11011 f
1:
#9960000
0:
#10126000
b11100 f
b111 !"
1:
#10292000
0:
#10458000
b1000 !"
b11101 f
1:
#10624000
0:
#10790000
b11110 f
b1001 !"
1:
#10956000
0:
#11122000
b1010 !"
b11111 f
1:
#11288000
0:
#11454000
b100000 f
b1011 !"
1:
#11620000
0:
#11786000
b1100 !"
b100001 f
1:
#11952000
0:
#12118000
b100010 f
b1101 !"
1:
#12284000
0:
#12450000
b1110 !"
b100011 f
1:
#12616000
0:
#12782000
b100100 f
b1111 !"
1:
#12948000
0:
#13114000
00
0(
0%"
b0 !"
b100101 f
1:
#13280000
0:
#13446000
b100110 f
b1 !"
1:
#13612000
0:
#13778000
b10 !"
b100111 f
1:
#13944000
0:
#14110000
b101000 f
b11 !"
1:
#14276000
0:
#14442000
b100 !"
b101001 f
1:
#14608000
0:
#14774000
b101010 f
b101 !"
1:
#14940000
0:
#15106000
b110 !"
b101011 f
1:
#15272000
0:
#15438000
b101100 f
b111 !"
1:
#15604000
0:
#15770000
b1000 !"
b101101 f
1:
#15936000
0:
#16102000
b101110 f
b1001 !"
1:
#16268000
0:
#16434000
b1010 !"
b101111 f
1:
#16600000
0:
#16766000
b110000 f
b1011 !"
1:
#16932000
0:
#17098000
b1100 !"
b110001 f
1:
#17264000
0:
#17430000
b110010 f
b1101 !"
1:
#17596000
0:
#17762000
b1110 !"
b110011 f
1:
#17928000
0:
#18094000
b110100 f
b1111 !"
1:
#18260000
0:
#18426000
b1 g
1(
1%"
b0 !"
b1 ~
b110101 f
1:
#18592000
0:
#18758000
b110110 f
b1 !"
1:
#18924000
0:
#19090000
b10 !"
b110111 f
1:
#19256000
0:
#19422000
b111000 f
b11 !"
1:
#19588000
0:
#19754000
b100 !"
b111001 f
1:
#19920000
0:
#20086000
b111010 f
b101 !"
1:
#20252000
0:
#20418000
b110 !"
b111011 f
1:
#20584000
0:
#20750000
b111100 f
b111 !"
1:
#20916000
0:
#21082000
b1000 !"
b111101 f
1:
#21248000
0:
#21414000
b111110 f
b1001 !"
1:
#21580000
0:
#21746000
b1010 !"
b111111 f
1:
#21912000
0:
#22078000
b1000000 f
b1011 !"
1:
#22244000
0:
#22410000
b1100 !"
b1000001 f
1:
#22576000
0:
#22742000
b1000010 f
b1101 !"
1:
#22908000
0:
#23074000
b1110 !"
b1000011 f
1:
#23240000
0:
#23406000
b1000100 f
b1111 !"
1:
#23572000
0:
#23738000
0(
0%"
b0 !"
b1010 '"
b1000101 f
1:
#23904000
0:
#24070000
b1000110 f
b1 !"
1:
#24236000
0:
#24402000
b10 !"
b1000111 f
1:
#24568000
0:
#24734000
b1001000 f
b11 !"
1:
#24900000
0:
#25066000
b100 !"
b1001001 f
1:
#25232000
0:
#25398000
b1001010 f
b101 !"
1:
#25564000
0:
#25730000
b110 !"
b1001011 f
1:
#25896000
0:
#26062000
b1001100 f
b111 !"
1:
#26228000
0:
#26394000
b1000 !"
b1001101 f
1:
#26560000
0:
#26726000
b1001110 f
b1001 !"
1:
#26892000
0:
#27058000
b1010 !"
b1001111 f
1:
#27224000
0:
#27390000
b1010000 f
b1011 !"
1:
#27556000
0:
#27722000
b1100 !"
b1010001 f
1:
#27888000
0:
#28054000
b1010010 f
b1101 !"
1:
#28220000
0:
#28386000
b1110 !"
b1010011 f
1:
#28552000
0:
#28718000
b1010100 f
b1111 !"
1:
#28884000
0:
#29050000
b10 g
1(
1%"
b0 !"
b10 ~
b1010101 f
1:
#29216000
0:
#29382000
b1010110 f
b1 !"
1:
#29548000
0:
#29714000
b10 !"
b1010111 f
1:
#29880000
0:
#30046000
b1011000 f
b11 !"
1:
#30212000
0:
#30378000
b100 !"
b1011001 f
1:
#30544000
0:
#30710000
b1011010 f
b101 !"
1:
#30876000
0:
#31042000
b110 !"
b1011011 f
1:
#31208000
0:
#31374000
b1011100 f
b111 !"
1:
#31540000
0:
#31706000
b1000 !"
b1011101 f
1:
#31872000
0:
#32038000
b1011110 f
b1001 !"
1:
#32204000
0:
#32370000
b1010 !"
b1011111 f
1:
#32536000
0:
#32702000
b1100000 f
b1011 !"
1:
#32868000
0:
#33034000
b1100 !"
b1100001 f
1:
#33200000
0:
#33366000
b1100010 f
b1101 !"
1:
#33532000
0:
#33698000
b1110 !"
b1100011 f
1:
#33864000
0:
#34030000
b1100100 f
b1111 !"
1:
#34196000
0:
#34362000
0(
0%"
b0 !"
b10100 '"
b1100101 f
1:
#34528000
0:
#34694000
b1100110 f
b1 !"
1:
#34860000
0:
#35026000
b10 !"
b1100111 f
1:
#35192000
0:
#35358000
b1101000 f
b11 !"
1:
#35524000
0:
#35690000
b100 !"
b1101001 f
1:
#35856000
0:
#36022000
b1101010 f
b101 !"
1:
#36188000
0:
#36354000
b110 !"
b1101011 f
1:
#36520000
0:
#36686000
b1101100 f
b111 !"
1:
#36852000
0:
#37018000
b1000 !"
b1101101 f
1:
#37184000
0:
#37350000
b1101110 f
b1001 !"
1:
#37516000
0:
#37682000
b1010 !"
b1101111 f
1:
#37848000
0:
#38014000
b1110000 f
b1011 !"
1:
#38180000
0:
#38346000
b1100 !"
b1110001 f
1:
#38512000
0:
#38678000
b1110010 f
b1101 !"
1:
#38844000
0:
#39010000
b1110 !"
b1110011 f
1:
#39176000
0:
#39342000
b1110100 f
b1111 !"
1:
#39508000
0:
#39674000
b11 g
1(
1%"
b0 !"
b11 ~
b1110101 f
1:
#39840000
0:
#40006000
b1110110 f
b1 !"
1:
#40172000
0:
#40338000
b10 !"
b1110111 f
1:
#40504000
0:
#40670000
b1111000 f
b11 !"
1:
#40836000
0:
#41002000
b100 !"
b1111001 f
1:
#41168000
0:
#41334000
b1111010 f
b101 !"
1:
#41500000
0:
#41666000
b110 !"
b1111011 f
1:
#41832000
0:
#41998000
b1111100 f
b111 !"
1:
#42164000
0:
#42330000
b1000 !"
b1111101 f
1:
#42496000
0:
#42662000
b1111110 f
b1001 !"
1:
#42828000
0:
#42994000
b1010 !"
b1111111 f
1:
#43160000
0:
#43326000
b10000000 f
b1011 !"
1:
#43492000
0:
#43658000
b1100 !"
b10000001 f
1:
#43824000
0:
#43990000
b10000010 f
b1101 !"
1:
#44156000
0:
#44322000
b1110 !"
b10000011 f
1:
#44488000
0:
#44654000
b10000100 f
b1111 !"
1:
#44820000
0:
#44986000
0(
0%"
b0 !"
b101000 '"
b10000101 f
1:
#45152000
0:
#45318000
b10000110 f
b1 !"
1:
#45484000
0:
#45650000
b10 !"
b10000111 f
1:
#45816000
0:
#45982000
b10001000 f
b11 !"
1:
#46148000
0:
#46314000
b100 !"
b10001001 f
1:
#46480000
0:
#46646000
b10001010 f
b101 !"
1:
#46812000
0:
#46978000
b110 !"
b10001011 f
1:
#47144000
0:
#47310000
b10001100 f
b111 !"
1:
#47476000
0:
#47642000
b1000 !"
b10001101 f
1:
#47808000
0:
#47974000
b10001110 f
b1001 !"
1:
#48140000
0:
#48306000
b1010 !"
b10001111 f
1:
#48472000
0:
#48638000
b10010000 f
b1011 !"
1:
#48804000
0:
#48970000
b1100 !"
b10010001 f
1:
#49136000
0:
#49302000
b10010010 f
b1101 !"
1:
#49468000
0:
#49634000
b1110 !"
b10010011 f
1:
#49800000
0:
#49966000
b10010100 f
b1111 !"
1:
#50132000
0:
#50298000
b100 g
1(
1%"
b0 !"
b100 ~
b10010101 f
1:
#50464000
0:
#50630000
b10010110 f
b1 !"
1:
#50796000
0:
#50962000
b10 !"
b10010111 f
1:
#51128000
0:
#51294000
b10011000 f
b11 !"
1:
#51460000
0:
#51626000
b100 !"
b10011001 f
1:
#51792000
0:
#51958000
b10011010 f
b101 !"
1:
#52124000
0:
#52290000
b110 !"
b10011011 f
1:
#52456000
0:
#52622000
b10011100 f
b111 !"
1:
#52788000
0:
#52954000
b1000 !"
b10011101 f
1:
#53120000
0:
#53286000
b10011110 f
b1001 !"
1:
#53452000
0:
#53618000
b1010 !"
b10011111 f
1:
#53784000
0:
#53950000
b10100000 f
b1011 !"
1:
#54116000
0:
#54282000
b1100 !"
b10100001 f
1:
#54448000
0:
#54614000
b10100010 f
b1101 !"
1:
#54780000
0:
#54946000
b1110 !"
b10100011 f
1:
#55112000
0:
#55278000
b10100100 f
b1111 !"
1:
#55444000
0:
#55610000
0(
0%"
b0 !"
b1010000 '"
b10100101 f
1:
#55776000
0:
#55942000
b10100110 f
b1 !"
1:
#56108000
0:
#56274000
b10 !"
b10100111 f
1:
#56440000
0:
#56606000
b10101000 f
b11 !"
1:
#56772000
0:
#56938000
b100 !"
b10101001 f
1:
#57104000
0:
#57270000
b10101010 f
b101 !"
1:
#57436000
0:
#57602000
b110 !"
b10101011 f
1:
#57768000
0:
#57934000
b10101100 f
b111 !"
1:
#58100000
0:
#58266000
b1000 !"
b10101101 f
1:
#58432000
0:
#58598000
b10101110 f
b1001 !"
1:
#58764000
0:
#58930000
b1010 !"
b10101111 f
1:
#59096000
0:
#59262000
b10110000 f
b1011 !"
1:
#59428000
0:
#59594000
b1100 !"
b10110001 f
1:
#59760000
0:
#59926000
b10110010 f
b1101 !"
1:
#60092000
0:
#60258000
b1110 !"
b10110011 f
1:
#60424000
0:
#60590000
b10110100 f
b1111 !"
1:
#60756000
0:
#60922000
b101 g
1(
1%"
b0 !"
b101 ~
b10110101 f
1:
#61088000
0:
#61254000
b10110110 f
b1 !"
1:
#61420000
0:
#61586000
b10 !"
b10110111 f
1:
#61752000
0:
#61918000
b10111000 f
b11 !"
1:
#62084000
0:
#62250000
b100 !"
b10111001 f
1:
#62416000
0:
#62582000
b10111010 f
b101 !"
1:
#62748000
0:
#62914000
b110 !"
b10111011 f
1:
#63080000
0:
#63246000
b10111100 f
b111 !"
1:
#63412000
0:
#63578000
b1000 !"
b10111101 f
1:
#63744000
0:
#63910000
b10111110 f
b1001 !"
1:
#64076000
0:
#64242000
b1010 !"
b10111111 f
1:
#64408000
0:
#64574000
b11000000 f
b1011 !"
1:
#64740000
0:
#64906000
b1100 !"
b11000001 f
1:
#65072000
0:
#65238000
b11000010 f
b1101 !"
1:
#65404000
0:
#65570000
b1110 !"
b11000011 f
1:
#65736000
0:
#65902000
b11000100 f
b1111 !"
1:
#66068000
0:
#66234000
1/
0(
0%"
b0 !"
b10100000 '"
b11000101 f
1:
#66400000
0:
#66566000
b11000110 f
b1 !"
1:
#66732000
0:
#66898000
b10 !"
b11000111 f
1:
#67064000
0:
#67230000
b11001000 f
b11 !"
1:
#67396000
0:
#67562000
b100 !"
b11001001 f
1:
#67728000
0:
#67894000
b11001010 f
b101 !"
1:
#68060000
0:
#68226000
b110 !"
b11001011 f
1:
#68392000
0:
#68558000
b11001100 f
b111 !"
1:
#68724000
0:
#68890000
b1000 !"
b11001101 f
1:
#69056000
0:
#69222000
b11001110 f
b1001 !"
1:
#69388000
0:
#69554000
b1010 !"
b11001111 f
1:
#69720000
0:
#69886000
b11010000 f
b1011 !"
1:
#70052000
0:
#70218000
b1100 !"
b11010001 f
1:
#70384000
0:
#70550000
b11010010 f
b1101 !"
1:
#70716000
0:
#70882000
b1110 !"
b11010011 f
1:
#71048000
0:
#71214000
b11010100 f
b1111 !"
1:
#71380000
0:
#71546000
b110 g
b1 h
1(
1%"
b0 !"
b110 ~
b11010101 f
1:
#71712000
0:
#71878000
b11010110 f
b1 !"
1:
#72044000
0:
#72210000
b10 !"
b11010111 f
1:
#72376000
0:
#72542000
b11011000 f
b11 !"
1:
#72708000
0:
#72874000
b100 !"
b11011001 f
1:
#73040000
0:
#73206000
b11011010 f
b101 !"
1:
#73372000
0:
#73538000
b110 !"
b11011011 f
1:
#73704000
0:
#73870000
b11011100 f
b111 !"
1:
#74036000
0:
#74202000
b1000 !"
b11011101 f
1:
#74368000
0:
#74534000
b11011110 f
b1001 !"
1:
#74700000
0:
#74866000
b1010 !"
b11011111 f
1:
#75032000
0:
#75198000
b11100000 f
b1011 !"
1:
#75364000
0:
#75530000
b1100 !"
b11100001 f
1:
#75696000
0:
#75862000
b11100010 f
b1101 !"
1:
#76028000
0:
#76194000
b1110 !"
b11100011 f
1:
#76360000
0:
#76526000
b11100100 f
b1111 !"
1:
#76692000
0:
#76858000
0/
0(
0%"
b0 !"
b1000000 '"
b11100101 f
1:
#77024000
0:
#77190000
b11100110 f
b1 !"
1:
#77356000
0:
#77522000
b10 !"
b11100111 f
1:
#77688000
0:
#77854000
b11101000 f
b11 !"
1:
#78020000
0:
#78186000
b100 !"
b11101001 f
1:
#78352000
0:
#78518000
b11101010 f
b101 !"
1:
#78684000
0:
#78850000
b110 !"
b11101011 f
1:
#79016000
0:
#79182000
b11101100 f
b111 !"
1:
#79348000
0:
#79514000
b1000 !"
b11101101 f
1:
#79680000
0:
#79846000
b11101110 f
b1001 !"
1:
#80012000
0:
#80178000
b1010 !"
b11101111 f
1:
#80344000
0:
#80510000
b11110000 f
b1011 !"
1:
#80676000
0:
#80842000
b1100 !"
b11110001 f
1:
#81008000
0:
#81174000
b11110010 f
b1101 !"
1:
#81340000
0:
#81506000
b1110 !"
b11110011 f
1:
#81672000
0:
#81838000
b11110100 f
b1111 !"
1:
#82004000
0:
#82170000
b111 g
b10 h
1(
1%"
b0 !"
b111 ~
b11110101 f
1:
#82336000
0:
#82502000
b11110110 f
b1 !"
1:
#82668000
0:
#82834000
b10 !"
b11110111 f
1:
#83000000
0:
#83166000
b11111000 f
b11 !"
1:
#83332000
0:
#83498000
b100 !"
b11111001 f
1:
#83664000
0:
#83830000
b11111010 f
b101 !"
1:
#83996000
0:
#84162000
b110 !"
b11111011 f
1:
#84328000
0:
#84494000
b11111100 f
b111 !"
1:
#84660000
0:
#84826000
b1000 !"
b11111101 f
1:
#84992000
0:
#85158000
b11111110 f
b1001 !"
1:
#85324000
0:
#85490000
b1010 !"
b11111111 f
1:
#85656000
0:
#85822000
b100000000 f
b1011 !"
1:
#85988000
0:
#86154000
b1100 !"
b100000001 f
1:
#86320000
0:
#86486000
b100000010 f
b1101 !"
1:
#86652000
0:
#86818000
b1110 !"
b100000011 f
1:
#86984000
0:
#87150000
b100000100 f
b1111 !"
1:
#87316000
0:
#87482000
1/
0(
0%"
b0 !"
b10000000 '"
b100000101 f
1:
#87648000
0:
#87814000
b100000110 f
b1 !"
1:
#87980000
0:
#88146000
b10 !"
b100000111 f
1:
#88312000
0:
#88478000
b100001000 f
b11 !"
1:
#88644000
0:
#88810000
b100 !"
b100001001 f
1:
#88976000
0:
#89142000
b100001010 f
b101 !"
1:
#89308000
0:
#89474000
b110 !"
b100001011 f
1:
#89640000
0:
#89806000
b100001100 f
b111 !"
1:
#89972000
0:
#90138000
b1000 !"
b100001101 f
1:
#90304000
0:
#90470000
b100001110 f
b1001 !"
1:
#90636000
0:
#90802000
b1010 !"
b100001111 f
1:
#90968000
0:
#91134000
b100010000 f
b1011 !"
1:
#91300000
0:
#91466000
b1100 !"
b100010001 f
1:
#91632000
0:
#91798000
b100010010 f
b1101 !"
1:
#91964000
0:
#92130000
b1110 !"
b100010011 f
1:
#92296000
0:
#92462000
b100010100 f
b1111 !"
1:
#92628000
0:
#92794000
b101 d
b1 o
b1 p
b0 g
b101 h
1(
1%"
b0 !"
0$"
b10 &"
b100010101 f
1:
#92960000
0:
#93126000
b100010110 f
0'
b0 &"
1%
1:
#93292000
0:
#93458000
1"
b0 ~
0%
b1 F
b100010111 f
1:
#93624000
0:
#93790000
b100011000 f
1$
1!
b0 #
b0 X
b0 |
b1 ]
1:
#93956000
0:
#94122000
0/
1$"
0"
b0 '"
1'
b1 &"
1!
1$
b100011001 f
1:
#94288000
0:
#94454000
b100011010 f
0!
0$
b1 !"
1:
#94620000
0:
#94786000
b10 !"
b100011011 f
1:
#94952000
0:
#95118000
b100011100 f
b11 !"
1:
#95284000
0:
#95450000
b100 !"
b100011101 f
1:
#95616000
0:
#95782000
b100011110 f
b101 !"
1:
#95948000
0:
#96114000
b110 !"
b100011111 f
1:
#96280000
0:
#96446000
b100100000 f
b111 !"
1:
#96612000
0:
#96778000
b1000 !"
b100100001 f
1:
#96944000
0:
#97110000
b100100010 f
b1001 !"
1:
#97276000
0:
#97442000
b1010 !"
b100100011 f
1:
#97608000
0:
#97774000
b100100100 f
b1011 !"
1:
#97940000
0:
#98106000
b1100 !"
b100100101 f
1:
#98272000
0:
#98438000
b100100110 f
b1101 !"
1:
#98604000
0:
#98770000
b1110 !"
b100100111 f
1:
#98936000
0:
#99102000
b100101000 f
b1111 !"
1:
#99268000
0:
#99434000
0(
0%"
b0 !"
b100101001 f
1:
#99600000
0:
#99766000
b100101010 f
b1 !"
1:
#99932000
0:
#100098000
b10 !"
b100101011 f
1:
#100264000
0:
#100430000
b100101100 f
b11 !"
1:
#100596000
0:
#100762000
b100 !"
b100101101 f
1:
#100928000
0:
#101094000
b100101110 f
b101 !"
1:
#101260000
0:
#101426000
b110 !"
b100101111 f
1:
#101592000
0:
#101758000
b100110000 f
b111 !"
1:
#101924000
0:
#102090000
b1000 !"
b100110001 f
1:
#102256000
0:
#102422000
b100110010 f
b1001 !"
1:
#102588000
0:
#102754000
b1010 !"
b100110011 f
1:
#102920000
0:
#103086000
b100110100 f
b1011 !"
1:
#103252000
0:
#103418000
b1100 !"
b100110101 f
1:
#103584000
0:
#103750000
b100110110 f
b1101 !"
1:
#103916000
0:
#104082000
b1110 !"
b100110111 f
1:
#104248000
0:
#104414000
b100111000 f
b1111 !"
1:
#104580000
0:
#104746000
b1 g
b1010 h
1(
1%"
b0 !"
b1 ~
b100111001 f
1:
#104912000
0:
#105078000
b100111010 f
b1 !"
1:
#105244000
0:
#105410000
b10 !"
b100111011 f
1:
#105576000
0:
#105742000
b100111100 f
b11 !"
1:
#105908000
0:
#106074000
b100 !"
b100111101 f
1:
#106240000
0:
#106406000
b100111110 f
b101 !"
1:
#106572000
0:
#106738000
b110 !"
b100111111 f
1:
#106904000
0:
#107070000
b101000000 f
b111 !"
1:
#107236000
0:
#107402000
b1000 !"
b101000001 f
1:
#107568000
0:
#107734000
b101000010 f
b1001 !"
1:
#107900000
0:
#108066000
b1010 !"
b101000011 f
1:
#108232000
0:
#108398000
b101000100 f
b1011 !"
1:
#108564000
0:
#108730000
b1100 !"
b101000101 f
1:
#108896000
0:
#109062000
b101000110 f
b1101 !"
1:
#109228000
0:
#109394000
b1110 !"
b101000111 f
1:
#109560000
0:
#109726000
b101001000 f
b1111 !"
1:
#109892000
0:
#110058000
0(
0%"
b0 !"
b101001001 f
1:
#110224000
0:
#110390000
b101001010 f
b1 !"
1:
#110556000
0:
#110722000
b10 !"
b101001011 f
1:
#110888000
0:
#111054000
b101001100 f
b11 !"
1:
#111220000
0:
#111386000
b100 !"
b101001101 f
1:
#111552000
0:
#111718000
b101001110 f
b101 !"
1:
#111884000
0:
#112050000
b110 !"
b101001111 f
1:
#112216000
0:
#112382000
b101010000 f
b111 !"
1:
#112548000
0:
#112714000
b1000 !"
b101010001 f
1:
#112880000
0:
#113046000
b101010010 f
b1001 !"
1:
#113212000
0:
#113378000
b1010 !"
b101010011 f
1:
#113544000
0:
#113710000
b101010100 f
b1011 !"
1:
#113876000
0:
#114042000
b1100 !"
b101010101 f
1:
#114208000
0:
#114374000
b101010110 f
b1101 !"
1:
#114540000
0:
#114706000
b1110 !"
b101010111 f
1:
#114872000
0:
#115038000
b101011000 f
b1111 !"
1:
#115204000
0:
#115370000
b10 g
b10100 h
1(
1%"
b0 !"
b10 ~
b101011001 f
1:
#115536000
0:
#115702000
b101011010 f
b1 !"
1:
#115868000
0:
#116034000
b10 !"
b101011011 f
1:
#116200000
0:
#116366000
b101011100 f
b11 !"
1:
#116532000
0:
#116698000
b100 !"
b101011101 f
1:
#116864000
0:
#117030000
b101011110 f
b101 !"
1:
#117196000
0:
#117362000
b110 !"
b101011111 f
1:
#117528000
0:
#117694000
b101100000 f
b111 !"
1:
#117860000
0:
#118026000
b1000 !"
b101100001 f
1:
#118192000
0:
#118358000
b101100010 f
b1001 !"
1:
#118524000
0:
#118690000
b1010 !"
b101100011 f
1:
#118856000
0:
#119022000
b101100100 f
b1011 !"
1:
#119188000
0:
#119354000
b1100 !"
b101100101 f
1:
#119520000
0:
#119686000
b101100110 f
b1101 !"
1:
#119852000
0:
#120018000
b1110 !"
b101100111 f
1:
#120184000
0:
#120350000
b101101000 f
b1111 !"
1:
#120516000
0:
#120682000
0(
0%"
b0 !"
b101101001 f
1:
#120848000
0:
#121014000
b101101010 f
b1 !"
1:
#121180000
0:
#121346000
b10 !"
b101101011 f
1:
#121512000
0:
#121678000
b101101100 f
b11 !"
1:
#121844000
0:
#122010000
b100 !"
b101101101 f
1:
#122176000
0:
#122342000
b101101110 f
b101 !"
1:
#122508000
0:
#122674000
b110 !"
b101101111 f
1:
#122840000
0:
#123006000
b101110000 f
b111 !"
1:
#123172000
0:
#123338000
b1000 !"
b101110001 f
1:
#123504000
0:
#123670000
b101110010 f
b1001 !"
1:
#123836000
0:
#124002000
b1010 !"
b101110011 f
1:
#124168000
0:
#124334000
b101110100 f
b1011 !"
1:
#124500000
0:
#124666000
b1100 !"
b101110101 f
1:
#124832000
0:
#124998000
b101110110 f
b1101 !"
1:
#125164000
0:
#125330000
b1110 !"
b101110111 f
1:
