tb_mcu_spi_slave_simple.vcd
$date
	Fri Nov 28 21:08:02 2025
$end
$version
	Icarus Verilog
$end
$timescale
	1ps
$end
$scope module tb_mcu_spi_slave_simple $end
$var wire 1 ! sdo $end
$var wire 1 " done $end
$var parameter 32 # CLK_PERIOD $end
$var reg 1 $ clk $end
$var reg 1 % gyro1_valid $end
$var reg 16 & gyro1_x [15:0] $end
$var reg 16 ' gyro1_y [15:0] $end
$var reg 16 ( gyro1_z [15:0] $end
$var reg 1 ) load $end
$var reg 1 * quat1_valid $end
$var reg 16 + quat1_w [15:0] $end
$var reg 16 , quat1_x [15:0] $end
$var reg 16 - quat1_y [15:0] $end
$var reg 16 . quat1_z [15:0] $end
$var reg 1 / sck $end
$var reg 1 0 sdi $end
$var integer 32 1 fail_count [31:0] $end
$var integer 32 2 pass_count [31:0] $end
$var integer 32 3 test_count [31:0] $end
$scope module dut $end
$var wire 1 $ clk $end
$var wire 1 " done $end
$var wire 1 % gyro1_valid $end
$var wire 16 4 gyro1_x [15:0] $end
$var wire 16 5 gyro1_y [15:0] $end
$var wire 16 6 gyro1_z [15:0] $end
$var wire 1 7 has_valid $end
$var wire 1 ) load $end
$var wire 1 * quat1_valid $end
$var wire 16 8 quat1_w [15:0] $end
$var wire 16 9 quat1_x [15:0] $end
$var wire 16 : quat1_y [15:0] $end
$var wire 16 ; quat1_z [15:0] $end
$var wire 1 / sck $end
$var wire 1 0 sdi $end
$var wire 1 ! sdo $end
$var parameter 8 < HEADER_BYTE $end
$var parameter 32 = PACKET_SIZE $end
$var reg 1 " data_ready_reg $end
$var reg 1 > has_valid_prev $end
$var reg 1 ? has_valid_prev_reg $end
$var reg 1 @ load_prev $end
$var reg 128 A packet_shift_reg [127:0] $end
$var reg 1 B sdodelayed $end
$var reg 1 C wasdone $end
$upscope $end
$scope task check_test $end
$var reg 1 D condition $end
$upscope $end
$scope task wait_comb $end
$upscope $end
$upscope $end
$enddefinitions $end
$comment Show the parameter values. $end
$dumpall
b10000 =
b10101010 <
b101001101 #
$end
#0
$dumpvars
xD
xC
xB
bx A
x@
0?
0>
b0 ;
b0 :
b0 9
b0 8
07
b0 6
b0 5
b0 4
b0 3
b0 2
b0 1
00
0/
b0 .
b0 -
b0 ,
b0 +
0*
0)
b0 (
b0 '
b0 &
0%
0$
0"
x!
$end
#166000
0@
1$
#332000
0$
#498000
1$
#664000
0$
#830000
1$
#996000
0$
#1162000
1$
#1328000
0$
#1494000
1$
#1660000
0$
#1826000
1$
#1992000
0$
#2158000
1$
#2324000
0$
#2490000
1$
#2656000
0$
#2822000
1$
#2988000
0$
#3154000
1$
#3320000
0$
#3330000
b1001000110100 +
b1001000110100 8
#3486000
1$
#3652000
0$
#3818000
1$
#3984000
0$
#3996000
b1101111011110000 .
b1101111011110000 ;
b1001101010111100 -
b1001101010111100 :
b101011001111000 ,
b101011001111000 9
b1 2
b1 3
1D
#4150000
1$
#4316000
0$
#4482000
1$
#4648000
0$
#4662000
b11001100110011 (
b11001100110011 6
b10001000100010 '
b10001000100010 5
b1000100010001 &
b1000100010001 4
b101 2
b101 3
#4814000
1$
#4980000
0$
#5146000
1$
#5312000
0$
#5328000
17
1*
b1000 2
b1000 3
#5478000
1>
1"
1$
#5644000
0$
#5810000
1?
1$
#5976000
0$
#5994000
1%
0*
b1001 2
b1001 3
#6142000
1$
#6308000
0$
#6474000
1$
#6640000
0$
#6660000
1*
b1010 2
b1010 3
#6806000
1$
#6972000
0$
#7138000
1$
#7304000
0$
#7326000
07
0%
0*
b1011 2
b1011 3
#7470000
0>
0"
1$
#7636000
0$
#7802000
0?
1$
#7968000
0$
#8134000
1$
#8300000
0$
#8466000
1$
#8632000
0$
#8798000
1$
#8964000
0$
#8991000
17
1*
b1100 2
b1100 3
#9130000
1>
1"
1$
#9296000
0$
#9462000
1?
1$
#9628000
0$
#9794000
1$
#9960000
0$
#10126000
1$
#10292000
0$
#10458000
1$
#10624000
0$
#10656000
1%
0*
b1101 2
b1101 3
#10790000
1$
#10956000
0$
#11122000
1$
#11288000
0$
#11454000
1$
#11620000
0$
#11786000
1$
#11952000
0$
#12118000
1$
#12284000
0$
#12321000
1*
b1110 2
b1110 3
#12450000
1$
#12616000
0$
#12782000
1$
#12948000
0$
#13114000
1$
#13280000
0$
#13446000
1$
#13612000
0$
#13778000
1$
#13944000
0$
#13986000
b1111 2
b1111 3
#14110000
1$
#14276000
0$
#14442000
1$
#14608000
0$
#14774000
1$
#14940000
0$
#15106000
1$
#15272000
0$
#15438000
1$
#15604000
0$
#15651000
1)
b10000 2
b10000 3
#15770000
0"
1@
1$
#15936000
0$
#16102000
1$
#16268000
0$
#16434000
1$
#16600000
0$
#16766000
1$
#16932000
0$
#17098000
1$
#17264000
0$
#17316000
0)
b10001 2
b10001 3
#17430000
0@
1$
#17596000
0$
#17762000
1$
#17928000
0$
#18094000
1$
#18260000
0$
#18426000
1$
#18592000
0$
#18758000
1$
#18924000
0$
#18981000
0*
b10010 2
b10010 3
#19090000
1$
#19256000
0$
#19422000
1$
#19588000
0$
#19754000
1$
#19920000
0$
#20086000
1$
#20252000
0$
#20418000
1$
#20584000
0$
#20750000
1$
#20916000
0$
#21082000
1$
#21248000
0$
#21414000
1$
#21580000
0$
#21746000
1$
#21912000
0$
#22078000
1*
1$
#22244000
0$
#22410000
1$
#22576000
0$
#22742000
1$
#22908000
0$
#23074000
1$
#23240000
0$
#23406000
1$
#23572000
0$
#23738000
1$
#23904000
0$
#24070000
1$
#24236000
0$
#24402000
1$
#24568000
0$
#24734000
1$
#24900000
0$
#25066000
1$
#25232000
0$
#25398000
1)
b1 1
b10011 3
0D
1$
#25564000
0$
#25730000
1@
1$
#25896000
0$
#26062000
1$
#26064000
0)
#26228000
0$
#26394000
0@
1$
#26560000
0$
#26726000
1$
#26730000
1)
#26892000
0$
#27058000
1@
1$
#27224000
0$
#27390000
1$
#27396000
0)
#27556000
0$
#27722000
0@
1$
#27888000
0$
#28054000
1$
#28220000
0$
#28386000
1$
#28552000
0$
#28718000
1$
#28884000
0$
#29050000
1$
#29061000
b0 (
b0 6
b0 '
b0 5
b0 &
b0 4
b0 .
b0 ;
b0 -
b0 :
b0 ,
b0 9
b0 +
b0 8
b10011 2
b10100 3
1D
#29216000
0$
#29382000
1$
#29548000
0$
#29714000
1$
#29727000
b111111111111111 +
b111111111111111 8
b10100 2
b10101 3
#29880000
0$
#30046000
1$
#30212000
0$
#30378000
1$
#30393000
b1000000000000000 +
b1000000000000000 8
b10101 2
b10110 3
#30544000
0$
#30710000
1$
#30876000
0$
#31042000
1$
#31059000
b1111111111111111 +
b1111111111111111 8
b10110 2
b10111 3
#31208000
0$
#31374000
1$
#31540000
0$
#31706000
1$
#31725000
0%
b10111 2
b11000 3
#31872000
0$
#32038000
1$
#32204000
0$
#32370000
1$
#32391000
1%
0*
b11000 2
b11001 3
#32536000
0$
#32702000
1$
#32868000
0$
#33034000
1$
#33057000
1*
b11001 2
b11010 3
#33200000
0$
#33366000
1$
#33532000
0$
#33698000
1$
#33723000
b1000100010001 +
b1000100010001 8
b11010 2
b11011 3
#33864000
0$
#34030000
1$
#34196000
0$
#34362000
1$
#34389000
b10001000100010 +
b10001000100010 8
#34528000
0$
#34694000
1$
#34860000
0$
#35026000
1$
#35055000
b11001100110011 +
b11001100110011 8
#35192000
0$
#35358000
1$
#35524000
0$
#35690000
1$
#35721000
b1001000110100 +
b1001000110100 8
b11011 2
b11100 3
#35856000
0$
#36022000
1$
#36188000
0$
#36354000
1$
#36387000
b1010101111001101 +
b1010101111001101 8
b11100 2
b11101 3
#36520000
0$
#36686000
1$
#36852000
0$
#37018000
1$
#37053000
b1111111111111111 +
b1111111111111111 8
b11101 2
b11110 3
#37184000
0$
#37350000
1$
#37516000
0$
#37682000
1$
#37719000
b0 +
b0 8
b11110 2
b11111 3
#37848000
0$
#38014000
1$
#38180000
0$
#38346000
1$
#38385000
b11111 2
b100000 3
