Code/tb_spi_slave_mcu_debug.vcd
$date
	Wed Dec  3 12:18:28 2025
$end
$version
	Icarus Verilog
$end
$timescale
	1ps
$end
$scope module tb_spi_slave_mcu_debug $end
$var wire 3 ! bit_count [2:0] $end
$var wire 4 " byte_count [3:0] $end
$var wire 1 # gyro1_valid_snap $end
$var wire 16 $ gyro1_x_snap [15:0] $end
$var wire 1 % quat1_valid_snap $end
$var wire 16 & quat1_w_snap [15:0] $end
$var wire 16 ' quat1_x_snap [15:0] $end
$var wire 8 ( shift_out [7:0] $end
$var wire 128 ) tx_packet [127:0] $end
$var wire 1 * sdo $end
$var parameter 32 + CLK_PERIOD $end
$var parameter 32 , SCK_PERIOD $end
$var reg 1 - clk $end
$var reg 1 . cs_n $end
$var reg 1 / expected_bit $end
$var reg 1 0 gyro1_valid $end
$var reg 16 1 gyro1_x [15:0] $end
$var reg 16 2 gyro1_y [15:0] $end
$var reg 16 3 gyro1_z [15:0] $end
$var reg 1 4 quat1_valid $end
$var reg 16 5 quat1_w [15:0] $end
$var reg 16 6 quat1_x [15:0] $end
$var reg 16 7 quat1_y [15:0] $end
$var reg 16 8 quat1_z [15:0] $end
$var reg 1 9 sampled_bit $end
$var reg 1 : sck $end
$var reg 1 ; sdi $end
$var integer 32 < bit_idx [31:0] $end
$var integer 32 = fail_count [31:0] $end
$var integer 32 > i [31:0] $end
$var integer 32 ? j [31:0] $end
$var integer 32 @ pass_count [31:0] $end
$var integer 32 A test_count [31:0] $end
$scope module dut $end
$var wire 1 - clk $end
$var wire 1 B cs_falling_edge $end
$var wire 1 C cs_falling_edge_sck $end
$var wire 1 . cs_n $end
$var wire 1 D error $end
$var wire 1 0 gyro1_valid $end
$var wire 16 E gyro1_x [15:0] $end
$var wire 16 F gyro1_y [15:0] $end
$var wire 16 G gyro1_z [15:0] $end
$var wire 1 H initialized $end
$var wire 1 4 quat1_valid $end
$var wire 16 I quat1_w [15:0] $end
$var wire 16 J quat1_x [15:0] $end
$var wire 16 K quat1_y [15:0] $end
$var wire 16 L quat1_z [15:0] $end
$var wire 1 : sck $end
$var wire 1 ; sdi $end
$var wire 128 M tx_packet [127:0] $end
$var wire 1 * sdo $end
$var parameter 8 N HEADER_BYTE $end
$var parameter 32 O PACKET_SIZE $end
$var parameter 1 P TEST_MODE $end
$var reg 3 Q bit_count [2:0] $end
$var reg 4 R byte_count [3:0] $end
$var reg 1 S cs_n_prev_sck $end
$var reg 1 T cs_n_sync1 $end
$var reg 1 U cs_n_sync2 $end
$var reg 1 V cs_n_sync_sck $end
$var reg 1 W error_clk $end
$var reg 1 X error_snap $end
$var reg 1 Y gyro1_valid_clk $end
$var reg 1 Z gyro1_valid_snap $end
$var reg 1 [ gyro1_valid_sync1 $end
$var reg 1 \ gyro1_valid_sync2 $end
$var reg 16 ] gyro1_x_clk [15:0] $end
$var reg 16 ^ gyro1_x_snap [15:0] $end
$var reg 16 _ gyro1_y_clk [15:0] $end
$var reg 16 ` gyro1_y_snap [15:0] $end
$var reg 16 a gyro1_z_clk [15:0] $end
$var reg 16 b gyro1_z_snap [15:0] $end
$var reg 1 c initialized_clk $end
$var reg 1 d initialized_snap $end
$var reg 1 e quat1_valid_clk $end
$var reg 1 f quat1_valid_snap $end
$var reg 1 g quat1_valid_sync1 $end
$var reg 1 h quat1_valid_sync2 $end
$var reg 16 i quat1_w_clk [15:0] $end
$var reg 16 j quat1_w_snap [15:0] $end
$var reg 16 k quat1_x_clk [15:0] $end
$var reg 16 l quat1_x_snap [15:0] $end
$var reg 16 m quat1_y_clk [15:0] $end
$var reg 16 n quat1_y_snap [15:0] $end
$var reg 16 o quat1_z_clk [15:0] $end
$var reg 16 p quat1_z_snap [15:0] $end
$var reg 1 q seen_first_rising $end
$var reg 8 r shift_out [7:0] $end
$var reg 8 s shift_out_prep [7:0] $end
$scope begin gen_normal_mode $end
$upscope $end
$upscope $end
$scope task check_test $end
$var reg 1 t condition $end
$upscope $end
$scope task mcu_read_packet_cs $end
$var reg 16 u data_before_transaction [15:0] $end
$var integer 32 v i [31:0] $end
$var integer 32 w j [31:0] $end
$upscope $end
$upscope $end
$enddefinitions $end
$comment Show the parameter values. $end
$dumpall
0P
b10000 O
b10101010 N
b1111101000 ,
b101001101 +
$end
#0
$dumpvars
bx w
bx v
bx u
xt
b10101010 s
b10101010 r
0q
bx p
bx o
bx n
bx m
bx l
bx k
bx j
bx i
xh
xg
xf
xe
xd
xc
bx b
bx a
bx `
bx _
bx ^
bx ]
x\
x[
xZ
xY
xX
xW
1V
xU
xT
1S
b0 R
b0 Q
b10101010xxxxxxxxxxxxxxxxxxxxxxxxxxxxxxxxxxxxxxxxxxxxxxxxxxxxxxxxxxxxxxxxxxxxxxxxxxxxxxxxxxxxxxxxxxxxxxxxxxxxxxxxxxxxxxxx0000xxxx M
b1101111011110000 L
b1001101010111100 K
b101011001111000 J
b1001000110100 I
1H
b11001100110011 G
b10001000100010 F
b1000100010001 E
0D
0C
0B
b0 A
b0 @
bx ?
bx >
b0 =
bx <
0;
0:
x9
b1101111011110000 8
b1001101010111100 7
b101011001111000 6
b1001000110100 5
14
b11001100110011 3
b10001000100010 2
b1000100010001 1
10
x/
1.
0-
z*
b10101010xxxxxxxxxxxxxxxxxxxxxxxxxxxxxxxxxxxxxxxxxxxxxxxxxxxxxxxxxxxxxxxxxxxxxxxxxxxxxxxxxxxxxxxxxxxxxxxxxxxxxxxxxxxxxxxx0000xxxx )
b10101010 (
bx '
bx &
x%
bx $
x#
b0 "
b0 !
$end
#166000
b11001100110011 a
b10001000100010 _
b1000100010001 ]
b1101111011110000 o
b1001101010111100 m
b101011001111000 k
b1001000110100 i
0W
1c
1Y
1e
1T
1-
#332000
0-
#498000
0X
b101010100001001000110100010101100111100010011010101111001101111011110000000100010001000100100010001000100011001100110011000001xx )
b101010100001001000110100010101100111100010011010101111001101111011110000000100010001000100100010001000100011001100110011000001xx M
1d
b11001100110011 b
b10001000100010 `
b1000100010001 $
b1000100010001 ^
b1101111011110000 p
b1001101010111100 n
b101011001111000 '
b101011001111000 l
b1001000110100 &
b1001000110100 j
1U
1[
1g
1-
#664000
0-
#830000
1\
1h
1-
#996000
0-
#1162000
1#
1Z
b10101010000100100011010001010110011110001001101010111100110111101111000000010001000100010010001000100010001100110011001100000111 )
b10101010000100100011010001010110011110001001101010111100110111101111000000010001000100010010001000100010001100110011001100000111 M
1%
1f
1-
#1328000
0-
#1494000
1-
#1660000
0-
#1826000
1-
#1992000
0-
#2158000
1-
#2324000
0-
#2490000
1-
#2656000
0-
#2822000
1-
#2988000
0-
#3154000
1-
#3320000
0-
#3486000
1-
#3652000
0-
#3818000
1-
#3984000
0-
#3996000
b1 =
b101 @
b110 A
1t
#4150000
1-
#4316000
0-
#4482000
1-
#4648000
0-
#4814000
1-
#4980000
0-
#5146000
1-
#5312000
0-
#5478000
1-
#5644000
0-
#5661000
1B
1*
0.
b1000 @
b1001 A
#5810000
0B
0T
1-
#5976000
0-
#6142000
0U
1-
#6308000
0-
#6474000
1-
#6640000
0-
#6806000
1-
#6972000
0-
#7138000
1-
#7304000
0-
#7326000
1q
1:
b111 <
b1010 @
b1011 A
#7336000
19
#7470000
1-
#7636000
0-
#7802000
1-
#7826000
b1011 @
b1100 A
1/
#7968000
0-
#8076000
0*
1C
b1 !
b1 Q
b1010100 (
b1010100 r
0V
0:
#8134000
1-
#8300000
0-
#8466000
1-
#8576000
1:
b110 <
#8586000
09
#8632000
0-
#8798000
1-
#8964000
0-
#9076000
1*
0C
b0 !
b0 Q
b10101010 (
b10101010 r
0S
0:
b1100 @
b1101 A
0/
#9130000
1-
#9296000
0-
#9462000
1-
#9576000
1:
b101 <
#9586000
19
#9628000
0-
#9794000
1-
#9960000
0-
#10076000
0*
b1 !
b1 Q
b1010100 (
b1010100 r
0:
b1101 @
b1110 A
1/
#10126000
1-
#10292000
0-
#10458000
1-
#10576000
1:
b100 <
#10586000
09
#10624000
0-
#10790000
1-
#10956000
0-
#11076000
1*
b10 !
b10 Q
b10101000 (
b10101000 r
0:
b1110 @
b1111 A
0/
#11122000
1-
#11288000
0-
#11454000
1-
#11576000
1:
b11 <
#11586000
19
#11620000
0-
#11786000
1-
#11952000
0-
#12076000
0*
b11 !
b11 Q
b1010000 (
b1010000 r
0:
b1111 @
b10000 A
1/
#12118000
1-
#12284000
0-
#12450000
1-
#12576000
1:
b10 <
#12586000
09
#12616000
0-
#12782000
1-
#12948000
0-
#13076000
1*
b100 !
b100 Q
b10100000 (
b10100000 r
0:
b10000 @
b10001 A
0/
#13114000
1-
#13280000
0-
#13446000
1-
#13576000
1:
b1 <
#13586000
19
#13612000
0-
#13778000
1-
#13944000
0-
#14076000
0*
b101 !
b101 Q
b1000000 (
b1000000 r
0:
b10001 @
b10010 A
1/
#14110000
1-
#14276000
0-
#14442000
1-
#14576000
1:
b0 <
#14586000
09
#14608000
0-
#14774000
1-
#14940000
0-
#15076000
1*
b110 !
b110 Q
b10000000 (
b10000000 r
0:
b10010 @
b10011 A
0/
#15106000
1-
#15272000
0-
#15438000
1-
#15576000
b10101010 (
b10101010 r
b0 !
b0 Q
0q
z*
1.
b11111111111111111111111111111111 <
#15604000
0-
#15770000
1T
1-
#15936000
0-
#16102000
1U
1-
#16268000
0-
#16434000
1-
#16600000
0-
#16766000
1-
#16932000
0-
#17098000
1-
#17264000
0-
#17430000
1-
#17596000
0-
#17762000
1-
#17928000
0-
#18094000
1-
#18260000
0-
#18426000
1-
#18592000
0-
#18758000
1-
#18924000
0-
#19090000
1-
#19256000
0-
#19422000
1-
#19588000
0-
#19754000
1-
#19920000
0-
#20086000
1-
#20252000
0-
#20418000
1-
#20584000
0-
#20750000
1-
#20916000
0-
#21082000
1-
#21248000
0-
#21414000
1-
#21580000
0-
#21746000
1-
#21912000
0-
#22078000
1-
#22236000
1B
1*
0.
b1001000110100 u
#22244000
0-
#22410000
0B
0T
1-
#22576000
0-
#22742000
0U
1-
#22908000
0-
#23074000
1-
#23240000
0-
#23406000
1-
#23572000
0-
#23738000
1-
#23901000
1q
1:
b111 w
b0 v
#23904000
0-
#24070000
1-
#24236000
0-
#24401000
0*
b1 !
b1 Q
b1010100 (
b1010100 r
0:
#24402000
1-
#24568000
0-
#24734000
1-
#24900000
0-
#24901000
1:
b110 w
#25066000
1-
#25232000
0-
#25398000
1-
#25401000
1*
b10 !
b10 Q
b10101000 (
b10101000 r
0:
#25564000
0-
#25730000
1-
#25896000
0-
#25901000
1:
b101 w
#26062000
1-
#26228000
0-
#26394000
1-
#26401000
0*
b11 !
b11 Q
b1010000 (
b1010000 r
0:
#26560000
0-
#26726000
1-
#26892000
0-
#26901000
1:
b100 w
#27058000
1-
#27224000
0-
#27390000
1-
#27401000
1*
b100 !
b100 Q
b10100000 (
b10100000 r
0:
#27556000
0-
#27722000
1-
#27888000
0-
#27901000
1:
b11 w
#28054000
1-
#28220000
0-
#28386000
1-
#28401000
0*
b101 !
b101 Q
b1000000 (
b1000000 r
0:
#28552000
0-
#28718000
1-
#28884000
0-
#28901000
1:
b10 w
#29050000
1-
#29216000
0-
#29382000
1-
#29401000
1*
b110 !
b110 Q
b10000000 (
b10000000 r
0:
#29548000
0-
#29714000
1-
#29880000
0-
#29901000
1:
b1 w
#30046000
1-
#30212000
0-
#30378000
1-
#30401000
0*
b111 !
b111 Q
b0 (
b0 r
0:
#30544000
0-
#30710000
1-
#30876000
0-
#30901000
1:
b0 w
#31042000
1-
#31208000
0-
#31374000
1-
#31401000
b10010 (
b10010 r
b0 !
b0 Q
b1 "
b1 R
0:
#31540000
0-
#31706000
1-
#31872000
0-
#31901000
1:
b1 v
b111 w
#32038000
1-
#32204000
0-
#32370000
1-
#32401000
b1 !
b1 Q
b100100 (
b100100 r
0:
#32536000
0-
#32702000
1-
#32868000
0-
#32901000
1:
b110 w
#33034000
1-
#33200000
0-
#33366000
1-
#33401000
b10 !
b10 Q
b1001000 (
b1001000 r
0:
#33532000
0-
#33698000
1-
#33864000
0-
#33901000
1:
b101 w
#34030000
1-
#34196000
0-
#34362000
1-
#34401000
1*
b11 !
b11 Q
b10010000 (
b10010000 r
0:
#34528000
0-
#34694000
1-
#34860000
0-
#34901000
1:
b100 w
#35026000
1-
#35192000
0-
#35358000
1-
#35401000
0*
b100 !
b100 Q
b100000 (
b100000 r
0:
#35524000
0-
#35690000
1-
#35856000
0-
#35901000
1:
b11 w
#36022000
1-
#36188000
0-
#36354000
1-
#36401000
b101 !
b101 Q
b1000000 (
b1000000 r
0:
#36520000
0-
#36686000
1-
#36852000
0-
#36901000
1:
b10 w
#37018000
1-
#37184000
0-
#37350000
1-
#37401000
1*
b110 !
b110 Q
b10000000 (
b10000000 r
0:
#37516000
0-
#37682000
1-
#37848000
0-
#37901000
1:
b1 w
#38014000
1-
#38180000
0-
#38346000
1-
#38401000
0*
b111 !
b111 Q
b0 (
b0 r
0:
#38512000
0-
#38678000
1-
#38844000
0-
#38901000
1:
b0 w
#39010000
1-
#39176000
0-
#39342000
1-
#39401000
b110100 (
b110100 r
b0 !
b0 Q
b10 "
b10 R
0:
#39508000
0-
#39674000
1-
#39840000
0-
#39901000
1:
b10 v
b111 w
#40006000
1-
#40172000
0-
#40338000
1-
#40401000
b1 !
b1 Q
b1101000 (
b1101000 r
0:
#40504000
0-
#40670000
1-
#40836000
0-
#40901000
1:
b110 w
#41002000
1-
#41168000
0-
#41334000
1-
#41401000
1*
b10 !
b10 Q
b11010000 (
b11010000 r
0:
#41500000
0-
#41666000
1-
#41832000
0-
#41901000
1:
b101 w
#41998000
1-
#42164000
0-
#42330000
1-
#42401000
b11 !
b11 Q
b10100000 (
b10100000 r
0:
#42496000
0-
#42662000
1-
#42828000
0-
#42901000
1:
b100 w
#42994000
1-
#43160000
0-
#43326000
1-
#43401000
0*
b100 !
b100 Q
b1000000 (
b1000000 r
0:
#43492000
0-
#43658000
1-
#43824000
0-
#43901000
1:
b11 w
#43990000
1-
#44156000
0-
#44322000
1-
#44401000
1*
b101 !
b101 Q
b10000000 (
b10000000 r
0:
#44488000
0-
#44654000
1-
#44820000
0-
#44901000
1:
b10 w
#44986000
1-
#45152000
0-
#45318000
1-
#45401000
0*
b110 !
b110 Q
b0 (
b0 r
0:
#45484000
0-
#45650000
1-
#45816000
0-
#45901000
1:
b1 w
#45982000
1-
#46148000
0-
#46314000
1-
#46401000
b111 !
b111 Q
0:
#46480000
0-
#46646000
1-
#46812000
0-
#46901000
1:
b0 w
#46978000
1-
#47144000
0-
#47310000
1-
#47401000
b1010110 (
b1010110 r
b0 !
b0 Q
b11 "
b11 R
0:
#47476000
0-
#47642000
1-
#47808000
0-
#47901000
1:
b11 v
b111 w
#47974000
1-
#48140000
0-
#48306000
1-
#48401000
1*
b1 !
b1 Q
b10101100 (
b10101100 r
0:
#48472000
0-
#48638000
1-
#48804000
0-
#48901000
1:
b110 w
#48970000
1-
#49136000
0-
#49302000
1-
#49401000
0*
b10 !
b10 Q
b1011000 (
b1011000 r
0:
#49468000
0-
#49634000
1-
#49800000
0-
#49901000
1:
b101 w
#49966000
1-
#50132000
0-
#50298000
1-
#50401000
1*
b11 !
b11 Q
b10110000 (
b10110000 r
0:
#50464000
0-
#50630000
1-
#50796000
0-
#50901000
1:
b100 w
#50962000
1-
#51128000
0-
#51294000
1-
#51401000
0*
b100 !
b100 Q
b1100000 (
b1100000 r
0:
#51460000
0-
#51626000
1-
#51792000
0-
#51901000
1:
b11 w
#51958000
1-
#52124000
0-
#52290000
1-
#52401000
1*
b101 !
b101 Q
b11000000 (
b11000000 r
0:
#52456000
0-
#52622000
1-
#52788000
0-
#52901000
1:
b10 w
#52954000
1-
#53120000
0-
#53286000
1-
#53401000
b110 !
b110 Q
b10000000 (
b10000000 r
0:
#53452000
0-
#53618000
1-
#53784000
0-
#53901000
1:
b1 w
#53950000
1-
#54116000
0-
#54282000
1-
#54401000
0*
b111 !
b111 Q
b0 (
b0 r
0:
#54448000
0-
#54614000
1-
#54780000
0-
#54901000
1:
b0 w
#54946000
1-
#55112000
0-
#55278000
1-
#55401000
b1111000 (
b1111000 r
b0 !
b0 Q
b100 "
b100 R
0:
#55444000
0-
#55610000
1-
#55776000
0-
#55901000
1:
b100 v
b111 w
#55942000
1-
#56108000
0-
#56274000
1-
#56401000
1*
b1 !
b1 Q
b11110000 (
b11110000 r
0:
#56440000
0-
#56606000
1-
#56772000
0-
#56901000
1:
b110 w
#56938000
1-
#57104000
0-
#57270000
1-
#57401000
b10 !
b10 Q
b11100000 (
b11100000 r
0:
#57436000
0-
#57602000
1-
#57768000
0-
#57901000
1:
b101 w
#57934000
1-
#58100000
0-
#58266000
1-
#58401000
b11 !
b11 Q
b11000000 (
b11000000 r
0:
#58432000
0-
#58598000
1-
#58764000
0-
#58901000
1:
b100 w
#58930000
1-
#59096000
0-
#59262000
1-
#59401000
b100 !
b100 Q
b10000000 (
b10000000 r
0:
#59428000
0-
#59594000
1-
#59760000
0-
#59901000
1:
b11 w
#59926000
1-
#60092000
0-
#60258000
1-
#60401000
0*
b101 !
b101 Q
b0 (
b0 r
0:
#60424000
0-
#60590000
1-
#60756000
0-
#60901000
1:
b10 w
#60922000
1-
#61088000
0-
#61254000
1-
#61401000
b110 !
b110 Q
0:
#61420000
0-
#61586000
1-
#61752000
0-
#61901000
1:
b1 w
#61918000
1-
#62084000
0-
#62250000
1-
#62401000
b111 !
b111 Q
0:
#62416000
0-
#62582000
1-
#62748000
0-
#62901000
1:
b0 w
#62914000
1-
#63080000
0-
#63246000
1-
#63401000
1*
b10011010 (
b10011010 r
b0 !
b0 Q
b101 "
b101 R
0:
#63412000
0-
#63578000
1-
#63744000
0-
#63901000
1:
b101 v
b111 w
#63910000
1-
#64076000
0-
#64242000
1-
#64401000
0*
b1 !
b1 Q
b110100 (
b110100 r
0:
#64408000
0-
#64574000
1-
#64740000
0-
#64901000
1:
b110 w
#64906000
1-
#65072000
0-
#65238000
1-
#65401000
b10 !
b10 Q
b1101000 (
b1101000 r
0:
#65404000
0-
#65570000
1-
#65736000
0-
#65901000
1:
b101 w
#65902000
1-
#66068000
0-
#66234000
1-
#66400000
0-
#66401000
1*
b11 !
b11 Q
b11010000 (
b11010000 r
0:
#66566000
1-
#66732000
0-
#66898000
1-
#66901000
1:
b100 w
#67064000
0-
#67230000
1-
#67396000
0-
#67401000
b100 !
b100 Q
b10100000 (
b10100000 r
0:
#67562000
1-
#67728000
0-
#67894000
1-
#67901000
1:
b11 w
#68060000
0-
#68226000
1-
#68392000
0-
#68401000
0*
b101 !
b101 Q
b1000000 (
b1000000 r
0:
#68558000
1-
#68724000
0-
#68890000
1-
#68901000
1:
b10 w
#69056000
0-
#69222000
1-
#69388000
0-
#69401000
1*
b110 !
b110 Q
b10000000 (
b10000000 r
0:
#69554000
1-
#69720000
0-
#69886000
1-
#69901000
1:
b1 w
#70052000
0-
#70218000
1-
#70384000
0-
#70401000
0*
b111 !
b111 Q
b0 (
b0 r
0:
#70550000
1-
#70716000
0-
#70882000
1-
#70901000
1:
b0 w
#71048000
0-
#71214000
1-
#71380000
0-
#71401000
1*
b10111100 (
b10111100 r
b0 !
b0 Q
b110 "
b110 R
0:
#71546000
1-
#71712000
0-
#71878000
1-
#71901000
1:
b110 v
b111 w
#72044000
0-
#72210000
1-
#72376000
0-
#72401000
0*
b1 !
b1 Q
b1111000 (
b1111000 r
0:
#72542000
1-
#72708000
0-
#72874000
1-
#72901000
1:
b110 w
#73040000
0-
#73206000
1-
#73372000
0-
#73401000
1*
b10 !
b10 Q
b11110000 (
b11110000 r
0:
#73538000
1-
#73704000
0-
#73870000
1-
#73901000
1:
b101 w
#74036000
0-
#74202000
1-
#74368000
0-
#74401000
b11 !
b11 Q
b11100000 (
b11100000 r
0:
#74534000
1-
#74700000
0-
#74866000
1-
#74901000
1:
b100 w
#75032000
0-
#75198000
1-
#75364000
0-
#75401000
b100 !
b100 Q
b11000000 (
b11000000 r
0:
#75530000
1-
#75696000
0-
#75862000
1-
#75901000
1:
b11 w
#76028000
0-
#76194000
1-
#76360000
0-
#76401000
b101 !
b101 Q
b10000000 (
b10000000 r
0:
#76526000
1-
#76692000
0-
#76858000
1-
#76901000
1:
b10 w
#77024000
0-
#77190000
1-
#77356000
0-
#77401000
0*
b110 !
b110 Q
b0 (
b0 r
0:
#77522000
1-
#77688000
0-
#77854000
1-
#77901000
1:
b1 w
#78020000
0-
#78186000
1-
#78352000
0-
#78401000
b111 !
b111 Q
0:
#78518000
1-
#78684000
0-
#78850000
1-
#78901000
1:
b0 w
#79016000
0-
#79182000
1-
#79348000
0-
#79401000
1*
b11011110 (
b11011110 r
b0 !
b0 Q
b111 "
b111 R
0:
#79514000
1-
#79680000
0-
#79846000
1-
#79901000
1:
b111 v
b111 w
#80012000
0-
#80178000
1-
#80344000
0-
#80401000
b1 !
b1 Q
b10111100 (
b10111100 r
0:
#80510000
1-
#80676000
0-
#80842000
1-
#80901000
1:
b110 w
#81008000
0-
#81174000
1-
#81340000
0-
#81401000
0*
b10 !
b10 Q
b1111000 (
b1111000 r
0:
#81506000
1-
#81672000
0-
#81838000
1-
#81901000
1:
b101 w
#82004000
0-
#82170000
1-
#82336000
0-
#82401000
1*
b11 !
b11 Q
b11110000 (
b11110000 r
0:
#82502000
1-
#82668000
0-
#82834000
1-
#82901000
1:
b100 w
#83000000
0-
#83166000
1-
#83332000
0-
#83401000
b100 !
b100 Q
b11100000 (
b11100000 r
0:
#83498000
1-
#83664000
0-
#83830000
1-
#83901000
1:
b11 w
#83996000
0-
#84162000
1-
#84328000
0-
#84401000
b101 !
b101 Q
b11000000 (
b11000000 r
0:
#84494000
1-
#84660000
0-
#84826000
1-
#84901000
1:
b10 w
#84992000
0-
#85158000
1-
#85324000
0-
#85401000
b110 !
b110 Q
b10000000 (
b10000000 r
0:
#85490000
1-
#85656000
0-
#85822000
1-
#85901000
1:
b1 w
#85988000
0-
#86154000
1-
#86320000
0-
#86401000
0*
b111 !
b111 Q
b0 (
b0 r
0:
#86486000
1-
#86652000
0-
#86818000
1-
#86901000
1:
b0 w
#86984000
0-
#87150000
1-
#87316000
0-
#87401000
1*
b11110000 (
b11110000 r
b0 !
b0 Q
b1000 "
b1000 R
0:
#87482000
1-
#87648000
0-
#87814000
1-
#87901000
1:
b1000 v
b111 w
#87980000
0-
#88146000
1-
#88312000
0-
#88401000
b1 !
b1 Q
b11100000 (
b11100000 r
0:
#88478000
1-
#88644000
0-
#88810000
1-
#88901000
1:
b110 w
#88976000
0-
#89142000
1-
#89308000
0-
#89401000
b10 !
b10 Q
b11000000 (
b11000000 r
0:
#89474000
1-
#89640000
0-
#89806000
1-
#89901000
1:
b101 w
#89972000
0-
#90138000
1-
#90304000
0-
#90401000
b11 !
b11 Q
b10000000 (
b10000000 r
0:
#90470000
1-
#90636000
0-
#90802000
1-
#90901000
1:
b100 w
#90968000
0-
#91134000
1-
#91300000
0-
#91401000
0*
b100 !
b100 Q
b0 (
b0 r
0:
#91466000
1-
#91632000
0-
#91798000
1-
#91901000
1:
b11 w
#91964000
0-
#92130000
1-
#92296000
0-
#92401000
b101 !
b101 Q
0:
#92462000
1-
#92628000
0-
#92794000
1-
#92901000
1:
b10 w
#92960000
0-
#93126000
1-
#93292000
0-
#93401000
b110 !
b110 Q
0:
#93458000
1-
#93624000
0-
#93790000
1-
#93901000
1:
b1 w
#93956000
0-
#94122000
1-
#94288000
0-
#94401000
b111 !
b111 Q
0:
#94454000
1-
#94620000
0-
#94786000
1-
#94901000
1:
b0 w
#94952000
0-
#95118000
1-
#95284000
0-
#95401000
b10001 (
b10001 r
b0 !
b0 Q
b1001 "
b1001 R
0:
#95450000
1-
#95616000
0-
#95782000
1-
#95901000
1:
b1001 v
b111 w
#95948000
0-
#96114000
1-
#96280000
0-
#96401000
b1 !
b1 Q
b100010 (
b100010 r
0:
#96446000
1-
#96612000
0-
#96778000
1-
#96901000
1:
b110 w
#96944000
0-
#97110000
1-
#97276000
0-
#97401000
b10 !
b10 Q
b1000100 (
b1000100 r
0:
#97442000
1-
#97608000
0-
#97774000
1-
#97901000
1:
b101 w
#97940000
0-
#98106000
1-
#98272000
0-
#98401000
1*
b11 !
b11 Q
b10001000 (
b10001000 r
0:
#98438000
1-
#98604000
0-
#98770000
1-
#98901000
1:
b100 w
#98936000
0-
#99102000
1-
#99268000
0-
#99401000
0*
b100 !
b100 Q
b10000 (
b10000 r
0:
#99434000
1-
#99600000
0-
#99766000
1-
#99901000
1:
b11 w
#99932000
0-
#100098000
1-
#100264000
0-
#100401000
b101 !
b101 Q
b100000 (
b100000 r
0:
#100430000
1-
#100596000
0-
#100762000
1-
#100901000
1:
b10 w
#100928000
0-
#101094000
1-
#101260000
0-
#101401000
b110 !
b110 Q
b1000000 (
b1000000 r
0:
#101426000
1-
#101592000
0-
#101758000
1-
#101901000
1:
b1 w
#101924000
0-
#102090000
1-
#102256000
0-
#102401000
1*
b111 !
b111 Q
b10000000 (
b10000000 r
0:
#102422000
1-
#102588000
0-
#102754000
1-
#102901000
1:
b0 w
#102920000
0-
#103086000
1-
#103252000
0-
#103401000
0*
b10001 (
b10001 r
b0 !
b0 Q
b1010 "
b1010 R
0:
#103418000
1-
#103584000
0-
#103750000
1-
#103901000
1:
b1010 v
b111 w
#103916000
0-
#104082000
1-
#104248000
0-
#104401000
b1 !
b1 Q
b100010 (
b100010 r
0:
#104414000
1-
#104580000
0-
#104746000
1-
#104901000
1:
b110 w
#104912000
0-
#105078000
1-
#105244000
0-
#105401000
b10 !
b10 Q
b1000100 (
b1000100 r
0:
#105410000
1-
#105576000
0-
#105742000
1-
#105901000
1:
b101 w
#105908000
0-
#106074000
1-
#106240000
0-
#106401000
1*
b11 !
b11 Q
b10001000 (
b10001000 r
0:
#106406000
1-
#106572000
0-
#106738000
1-
#106901000
1:
b100 w
#106904000
0-
#107070000
1-
#107236000
0-
#107401000
0*
b100 !
b100 Q
b10000 (
b10000 r
0:
#107402000
1-
#107568000
0-
#107734000
1-
#107900000
0-
#107901000
1:
b11 w
#108066000
1-
#108232000
0-
#108398000
1-
#108401000
b101 !
b101 Q
b100000 (
b100000 r
0:
#108564000
0-
#108730000
1-
#108896000
0-
#108901000
1:
b10 w
#109062000
1-
#109228000
0-
#109394000
1-
#109401000
b110 !
b110 Q
b1000000 (
b1000000 r
0:
#109560000
0-
#109726000
1-
#109892000
0-
#109901000
1:
b1 w
#110058000
1-
#110224000
0-
#110390000
1-
#110401000
1*
b111 !
b111 Q
b10000000 (
b10000000 r
0:
#110556000
0-
#110722000
1-
#110888000
0-
#110901000
1:
b0 w
#111054000
1-
#111220000
0-
#111386000
1-
#111401000
0*
b100010 (
b100010 r
b0 !
b0 Q
b1011 "
b1011 R
0:
#111552000
0-
#111718000
1-
#111884000
0-
#111901000
1:
b1011 v
b111 w
#112050000
1-
#112216000
0-
#112382000
1-
#112401000
b1 !
b1 Q
b1000100 (
b1000100 r
0:
#112548000
0-
#112714000
1-
#112880000
0-
#112901000
1:
b110 w
#113046000
1-
#113212000
0-
#113378000
1-
#113401000
1*
b10 !
b10 Q
b10001000 (
b10001000 r
0:
#113544000
0-
#113710000
1-
#113876000
0-
#113901000
1:
b101 w
#114042000
1-
#114208000
0-
#114374000
1-
#114401000
0*
b11 !
b11 Q
b10000 (
b10000 r
0:
#114540000
0-
#114706000
1-
#114872000
0-
#114901000
1:
b100 w
#115038000
1-
#115204000
0-
#115370000
1-
#115401000
b100 !
b100 Q
b100000 (
b100000 r
0:
#115536000
0-
#115702000
1-
#115868000
0-
#115901000
1:
b11 w
#116034000
1-
#116200000
0-
#116366000
1-
#116401000
b101 !
b101 Q
b1000000 (
b1000000 r
0:
#116532000
0-
#116698000
1-
#116864000
0-
#116901000
1:
b10 w
#117030000
1-
#117196000
0-
#117362000
1-
#117401000
1*
b110 !
b110 Q
b10000000 (
b10000000 r
0:
#117528000
0-
#117694000
1-
#117860000
0-
#117901000
1:
b1 w
#118026000
1-
#118192000
0-
#118358000
1-
#118401000
0*
b111 !
b111 Q
b0 (
b0 r
0:
#118524000
0-
#118690000
1-
#118856000
0-
#118901000
1:
b0 w
#119022000
1-
#119188000
0-
#119354000
1-
#119401000
b100010 (
b100010 r
b0 !
b0 Q
b1100 "
b1100 R
0:
#119520000
0-
#119686000
1-
#119852000
0-
#119901000
1:
b1100 v
b111 w
#120018000
1-
#120184000
0-
#120350000
1-
#120401000
b1 !
b1 Q
b1000100 (
b1000100 r
0:
#120516000
0-
#120682000
1-
#120848000
0-
#120901000
1:
b110 w
#121014000
1-
#121180000
0-
#121346000
1-
#121401000
1*
b10 !
b10 Q
b10001000 (
b10001000 r
0:
#121512000
0-
#121678000
1-
#121844000
0-
#121901000
1:
b101 w
#122010000
1-
#122176000
0-
#122342000
1-
#122401000
0*
b11 !
b11 Q
b10000 (
b10000 r
0:
#122508000
0-
#122674000
1-
#122840000
0-
#122901000
1:
b100 w
#123006000
1-
#123172000
0-
#123338000
1-
#123401000
b100 !
b100 Q
b100000 (
b100000 r
0:
#123504000
0-
#123670000
1-
#123836000
0-
#123901000
1:
b11 w
#124002000
1-
#124168000
0-
#124334000
1-
#124401000
b101 !
b101 Q
b1000000 (
b1000000 r
0:
#124500000
0-
#124666000
1-
#124832000
0-
#124901000
1:
b10 w
#124998000
1-
#125164000
0-
#125330000
1-
#125401000
1*
b110 !
b110 Q
b10000000 (
b10000000 r
0:
#125496000
0-
#125662000
1-
#125828000
0-
#125901000
1:
b1 w
#125994000
1-
#126160000
0-
#126326000
1-
#126401000
0*
b111 !
b111 Q
b0 (
b0 r
0:
#126492000
0-
#126658000
1-
#126824000
0-
#126901000
1:
b0 w
#126990000
1-
