fpga/dual_sensor_mcu_test.vcd
$date
	Wed Nov 26 22:39:21 2025
$end
$version
	Icarus Verilog
$end
$timescale
	1ps
$end
$scope module tb_dual_sensor_mcu_fixed $end
$var wire 1 ! sclk_mcu $end
$var wire 1 " sclk2 $end
$var wire 1 # sclk1 $end
$var wire 1 $ ps0_wake2 $end
$var wire 1 % ps0_wake1 $end
$var wire 1 & mosi2 $end
$var wire 1 ' mosi1 $end
$var wire 1 ( miso_mcu $end
$var wire 1 ) miso2 $end
$var wire 1 * miso1 $end
$var wire 1 + led_initialized $end
$var wire 1 , led_heartbeat $end
$var wire 1 - led_error $end
$var wire 1 . int_n2 $end
$var wire 1 / int_n1 $end
$var wire 1 0 done $end
$var wire 1 1 cs_n2 $end
$var wire 1 2 cs_n1 $end
$var wire 1 3 bno085_rst_n2 $end
$var wire 1 4 bno085_rst_n1 $end
$var reg 1 5 cs_n_mcu $end
$var reg 16 6 expected_gyro1_x [15:0] $end
$var reg 16 7 expected_gyro1_y [15:0] $end
$var reg 16 8 expected_gyro1_z [15:0] $end
$var reg 16 9 expected_gyro2_x [15:0] $end
$var reg 16 : expected_gyro2_y [15:0] $end
$var reg 16 ; expected_gyro2_z [15:0] $end
$var reg 16 < expected_quat1_w [15:0] $end
$var reg 16 = expected_quat1_x [15:0] $end
$var reg 16 > expected_quat1_y [15:0] $end
$var reg 16 ? expected_quat1_z [15:0] $end
$var reg 16 @ expected_quat2_w [15:0] $end
$var reg 16 A expected_quat2_x [15:0] $end
$var reg 16 B expected_quat2_y [15:0] $end
$var reg 16 C expected_quat2_z [15:0] $end
$var reg 1 D fpga_rst_n $end
$var reg 1 E load $end
$var reg 3 F mcu_bit_cnt [2:0] $end
$var reg 8 G mcu_rx_shift [7:0] $end
$var reg 8 H mcu_sclk_div [7:0] $end
$var reg 1 I mcu_sclk_en $end
$var reg 1 J mcu_sclk_reg $end
$var reg 1 K mosi_mcu $end
$var reg 16 L rx_gyro1_x [15:0] $end
$var reg 16 M rx_gyro1_y [15:0] $end
$var reg 16 N rx_gyro1_z [15:0] $end
$var reg 16 O rx_gyro2_x [15:0] $end
$var reg 16 P rx_gyro2_y [15:0] $end
$var reg 16 Q rx_gyro2_z [15:0] $end
$var reg 16 R rx_quat1_w [15:0] $end
$var reg 16 S rx_quat1_x [15:0] $end
$var reg 16 T rx_quat1_y [15:0] $end
$var reg 16 U rx_quat1_z [15:0] $end
$var reg 16 V rx_quat2_w [15:0] $end
$var reg 16 W rx_quat2_x [15:0] $end
$var reg 16 X rx_quat2_y [15:0] $end
$var reg 16 Y rx_quat2_z [15:0] $end
$var integer 32 Z init_commands_sensor1 [31:0] $end
$var integer 32 [ init_commands_sensor2 [31:0] $end
$var integer 32 \ mcu_rx_index [31:0] $end
$scope module dut $end
$var wire 1 4 bno085_rst_n1 $end
$var wire 1 3 bno085_rst_n2 $end
$var wire 1 5 cs_n_mcu $end
$var wire 1 D fpga_rst_n $end
$var wire 1 - led_error $end
$var wire 1 + led_initialized $end
$var wire 1 E load $end
$var wire 1 K mosi_mcu $end
$var wire 1 ] rst_n $end
$var wire 1 ! sclk_mcu $end
$var wire 1 ^ tx_data_ready $end
$var wire 8 _ tx_data [7:0] $end
$var wire 1 ` tx_ack $end
$var wire 1 a spi2_tx_valid $end
$var wire 1 b spi2_tx_ready $end
$var wire 8 c spi2_tx_data [7:0] $end
$var wire 1 d spi2_start $end
$var wire 1 e spi2_rx_valid $end
$var wire 8 f spi2_rx_data [7:0] $end
$var wire 1 g spi2_busy $end
$var wire 1 h spi1_tx_valid $end
$var wire 1 i spi1_tx_ready $end
$var wire 8 j spi1_tx_data [7:0] $end
$var wire 1 k spi1_start $end
$var wire 1 l spi1_rx_valid $end
$var wire 8 m spi1_rx_data [7:0] $end
$var wire 1 n spi1_busy $end
$var wire 1 o sensor2_valid $end
$var wire 1 p sensor1_valid $end
$var wire 1 " sclk2 $end
$var wire 1 # sclk1 $end
$var wire 16 q quat2_z [15:0] $end
$var wire 16 r quat2_y [15:0] $end
$var wire 16 s quat2_x [15:0] $end
$var wire 16 t quat2_w [15:0] $end
$var wire 16 u quat1_z [15:0] $end
$var wire 16 v quat1_y [15:0] $end
$var wire 16 w quat1_x [15:0] $end
$var wire 16 x quat1_w [15:0] $end
$var wire 1 $ ps0_wake2 $end
$var wire 1 % ps0_wake1 $end
$var wire 1 & mosi2 $end
$var wire 1 ' mosi1 $end
$var wire 1 ( miso_mcu $end
$var wire 1 ) miso2 $end
$var wire 1 * miso1 $end
$var wire 1 , led_heartbeat $end
$var wire 1 . int_n2 $end
$var wire 1 / int_n1 $end
$var wire 1 y initialized $end
$var wire 16 z gyro2_z [15:0] $end
$var wire 16 { gyro2_y [15:0] $end
$var wire 16 | gyro2_x [15:0] $end
$var wire 16 } gyro1_z [15:0] $end
$var wire 16 ~ gyro1_y [15:0] $end
$var wire 16 !" gyro1_x [15:0] $end
$var wire 1 "" formatter_busy $end
$var wire 1 #" error $end
$var wire 1 0 done $end
$var wire 1 $" data_ready $end
$var wire 1 1 cs_n2 $end
$var wire 1 2 cs_n1 $end
$var wire 1 %" clk $end
$var parameter 23 &" DELAY_100MS $end
$var parameter 23 '" DELAY_2SEC $end
$var reg 1 (" bno085_rst_n1_delayed $end
$var reg 1 )" bno085_rst_n2_delayed $end
$var reg 1 *" controller_rst_n $end
$var reg 22 +" heartbeat_cnt [21:0] $end
$var reg 23 ," rst_delay_counter [22:0] $end
$scope module data_formatter $end
$var wire 1 ] rst_n $end
$var wire 1 ` tx_ack $end
$var wire 1 o sensor2_valid $end
$var wire 1 p sensor1_valid $end
$var wire 16 -" quat2_z [15:0] $end
$var wire 16 ." quat2_y [15:0] $end
$var wire 16 /" quat2_x [15:0] $end
$var wire 16 0" quat2_w [15:0] $end
$var wire 16 1" quat1_z [15:0] $end
$var wire 16 2" quat1_y [15:0] $end
$var wire 16 3" quat1_x [15:0] $end
$var wire 16 4" quat1_w [15:0] $end
$var wire 16 5" gyro2_z [15:0] $end
$var wire 16 6" gyro2_y [15:0] $end
$var wire 16 7" gyro2_x [15:0] $end
$var wire 16 8" gyro1_z [15:0] $end
$var wire 16 9" gyro1_y [15:0] $end
$var wire 16 :" gyro1_x [15:0] $end
$var wire 1 $" data_ready $end
$var wire 1 %" clk $end
$var parameter 8 ;" HEADER_BYTE $end
$var parameter 6 <" PACKET_SIZE $end
$var reg 1 "" busy $end
$var reg 6 =" byte_index [5:0] $end
$var reg 1 >" data_captured $end
$var reg 16 ?" gyro1_x_buf [15:0] $end
$var reg 16 @" gyro1_y_buf [15:0] $end
$var reg 16 A" gyro1_z_buf [15:0] $end
$var reg 16 B" gyro2_x_buf [15:0] $end
$var reg 16 C" gyro2_y_buf [15:0] $end
$var reg 16 D" gyro2_z_buf [15:0] $end
$var reg 16 E" quat1_w_buf [15:0] $end
$var reg 16 F" quat1_x_buf [15:0] $end
$var reg 16 G" quat1_y_buf [15:0] $end
$var reg 16 H" quat1_z_buf [15:0] $end
$var reg 16 I" quat2_w_buf [15:0] $end
$var reg 16 J" quat2_x_buf [15:0] $end
$var reg 16 K" quat2_y_buf [15:0] $end
$var reg 16 L" quat2_z_buf [15:0] $end
$var reg 3 M" state [2:0] $end
$var reg 8 N" tx_data [7:0] $end
$var reg 1 ^ tx_data_ready $end
$scope function get_byte_lsb $end
$upscope $end
$scope function get_byte_msb $end
$upscope $end
$upscope $end
$scope module dual_sensor_ctrl $end
$var wire 1 $" data_ready $end
$var wire 1 #" error $end
$var wire 1 y initialized $end
$var wire 1 ] rst_n $end
$var wire 1 a spi2_tx_valid $end
$var wire 1 b spi2_tx_ready $end
$var wire 8 O" spi2_tx_data [7:0] $end
$var wire 1 d spi2_start $end
$var wire 1 e spi2_rx_valid $end
$var wire 8 P" spi2_rx_data [7:0] $end
$var wire 1 g spi2_busy $end
$var wire 1 h spi1_tx_valid $end
$var wire 1 i spi1_tx_ready $end
$var wire 8 Q" spi1_tx_data [7:0] $end
$var wire 1 k spi1_start $end
$var wire 1 l spi1_rx_valid $end
$var wire 8 R" spi1_rx_data [7:0] $end
$var wire 1 n spi1_busy $end
$var wire 16 S" quat2_z [15:0] $end
$var wire 16 T" quat2_y [15:0] $end
$var wire 16 U" quat2_x [15:0] $end
$var wire 16 V" quat2_w [15:0] $end
$var wire 1 W" quat2_valid $end
$var wire 16 X" quat1_z [15:0] $end
$var wire 16 Y" quat1_y [15:0] $end
$var wire 16 Z" quat1_x [15:0] $end
$var wire 16 [" quat1_w [15:0] $end
$var wire 1 \" quat1_valid $end
$var wire 1 $ ps0_wake2 $end
$var wire 1 % ps0_wake1 $end
$var wire 1 . int_n2 $end
$var wire 1 / int_n1 $end
$var wire 1 ]" initialized2 $end
$var wire 1 ^" initialized1 $end
$var wire 16 _" gyro2_z [15:0] $end
$var wire 16 `" gyro2_y [15:0] $end
$var wire 16 a" gyro2_x [15:0] $end
$var wire 1 b" gyro2_valid $end
$var wire 16 c" gyro1_z [15:0] $end
$var wire 16 d" gyro1_y [15:0] $end
$var wire 16 e" gyro1_x [15:0] $end
$var wire 1 f" gyro1_valid $end
$var wire 1 g" error2 $end
$var wire 1 h" error1 $end
$var wire 1 1 cs_n2 $end
$var wire 1 2 cs_n1 $end
$var wire 1 %" clk $end
$var reg 1 i" sensor1_gyro_pending $end
$var reg 1 j" sensor1_quat_pending $end
$var reg 1 p sensor1_valid $end
$var reg 1 k" sensor2_gyro_pending $end
$var reg 1 l" sensor2_quat_pending $end
$var reg 1 o sensor2_valid $end
$scope module bno085_ctrl1 $end
$var wire 1 ] rst_n $end
$var wire 1 i spi_tx_ready $end
$var wire 1 l spi_rx_valid $end
$var wire 8 m" spi_rx_data [7:0] $end
$var wire 1 n spi_busy $end
$var wire 1 / int_n $end
$var wire 1 %" clk $end
$var parameter 8 n" CHANNEL_COMMAND $end
$var parameter 8 o" CHANNEL_CONTROL $end
$var parameter 8 p" CHANNEL_EXECUTABLE $end
$var parameter 8 q" CHANNEL_GYRO_RV $end
$var parameter 8 r" CHANNEL_REPORTS $end
$var parameter 8 s" CHANNEL_WAKE_REPORTS $end
$var parameter 8 t" REPORT_ID_GYROSCOPE $end
$var parameter 8 u" REPORT_ID_ROTATION_VECTOR $end
$var reg 8 v" byte_cnt [7:0] $end
$var reg 8 w" channel [7:0] $end
$var reg 2 x" cmd_select [1:0] $end
$var reg 1 2 cs_n $end
$var reg 8 y" current_report_id [7:0] $end
$var reg 19 z" delay_counter [18:0] $end
$var reg 1 h" error $end
$var reg 1 f" gyro_valid $end
$var reg 16 {" gyro_x [15:0] $end
$var reg 16 |" gyro_y [15:0] $end
$var reg 16 }" gyro_z [15:0] $end
$var reg 1 ^" initialized $end
$var reg 1 ~" int_n_prev $end
$var reg 1 !# int_n_sync $end
$var reg 8 "# last_seq_num [7:0] $end
$var reg 16 ## packet_length [15:0] $end
$var reg 1 % ps0_wake $end
$var reg 1 \" quat_valid $end
$var reg 16 $# quat_w [15:0] $end
$var reg 16 %# quat_x [15:0] $end
$var reg 16 &# quat_y [15:0] $end
$var reg 16 '# quat_z [15:0] $end
$var reg 8 (# report_delay [7:0] $end
$var reg 8 )# report_status [7:0] $end
$var reg 1 k spi_start $end
$var reg 8 *# spi_tx_data [7:0] $end
$var reg 1 h spi_tx_valid $end
$var reg 4 +# state [3:0] $end
$var reg 8 ,# temp_byte_lsb [7:0] $end
$scope function get_cmd_len $end
$var reg 2 -# cmd [1:0] $end
$upscope $end
$scope function get_init_byte $end
$var reg 2 .# cmd [1:0] $end
$var reg 8 /# idx [7:0] $end
$upscope $end
$upscope $end
$scope module bno085_ctrl2 $end
$var wire 1 ] rst_n $end
$var wire 1 b spi_tx_ready $end
$var wire 1 e spi_rx_valid $end
$var wire 8 0# spi_rx_data [7:0] $end
$var wire 1 g spi_busy $end
$var wire 1 . int_n $end
$var wire 1 %" clk $end
$var parameter 8 1# CHANNEL_COMMAND $end
$var parameter 8 2# CHANNEL_CONTROL $end
$var parameter 8 3# CHANNEL_EXECUTABLE $end
$var parameter 8 4# CHANNEL_GYRO_RV $end
$var parameter 8 5# CHANNEL_REPORTS $end
$var parameter 8 6# CHANNEL_WAKE_REPORTS $end
$var parameter 8 7# REPORT_ID_GYROSCOPE $end
$var parameter 8 8# REPORT_ID_ROTATION_VECTOR $end
$var reg 8 9# byte_cnt [7:0] $end
$var reg 8 :# channel [7:0] $end
$var reg 2 ;# cmd_select [1:0] $end
$var reg 1 1 cs_n $end
$var reg 8 <# current_report_id [7:0] $end
$var reg 19 =# delay_counter [18:0] $end
$var reg 1 g" error $end
$var reg 1 b" gyro_valid $end
$var reg 16 ># gyro_x [15:0] $end
$var reg 16 ?# gyro_y [15:0] $end
$var reg 16 @# gyro_z [15:0] $end
$var reg 1 ]" initialized $end
$var reg 1 A# int_n_prev $end
$var reg 1 B# int_n_sync $end
$var reg 8 C# last_seq_num [7:0] $end
$var reg 16 D# packet_length [15:0] $end
$var reg 1 $ ps0_wake $end
$var reg 1 W" quat_valid $end
$var reg 16 E# quat_w [15:0] $end
$var reg 16 F# quat_x [15:0] $end
$var reg 16 G# quat_y [15:0] $end
$var reg 16 H# quat_z [15:0] $end
$var reg 8 I# report_delay [7:0] $end
$var reg 8 J# report_status [7:0] $end
$var reg 1 d spi_start $end
$var reg 8 K# spi_tx_data [7:0] $end
$var reg 1 a spi_tx_valid $end
$var reg 4 L# state [3:0] $end
$var reg 8 M# temp_byte_lsb [7:0] $end
$scope function get_cmd_len $end
$var reg 2 N# cmd [1:0] $end
$upscope $end
$scope function get_init_byte $end
$var reg 2 O# cmd [1:0] $end
$var reg 8 P# idx [7:0] $end
$upscope $end
$upscope $end
$upscope $end
$scope module hf_osc $end
$var wire 1 Q# CLKHFEN $end
$var wire 1 R# CLKHFPU $end
$var parameter 2 S# CLKHF_DIV $end
$var reg 1 %" CLKHF $end
$upscope $end
$scope module spi_master1 $end
$var wire 1 %" clk $end
$var wire 1 ] rst_n $end
$var wire 1 # sclk $end
$var wire 1 k start $end
$var wire 8 T# tx_data [7:0] $end
$var wire 1 h tx_valid $end
$var wire 1 ' mosi $end
$var wire 1 * miso $end
$var wire 1 n busy $end
$var parameter 32 U# CLK_DIV $end
$var reg 4 V# bit_cnt [3:0] $end
$var reg 8 W# clk_cnt [7:0] $end
$var reg 8 X# rx_data [7:0] $end
$var reg 8 Y# rx_shift [7:0] $end
$var reg 1 l rx_valid $end
$var reg 1 Z# sclk_en $end
$var reg 1 [# sclk_reg $end
$var reg 3 \# state [2:0] $end
$var reg 1 i tx_ready $end
$var reg 8 ]# tx_shift [7:0] $end
$upscope $end
$scope module spi_master2 $end
$var wire 1 %" clk $end
$var wire 1 ] rst_n $end
$var wire 1 " sclk $end
$var wire 1 d start $end
$var wire 8 ^# tx_data [7:0] $end
$var wire 1 a tx_valid $end
$var wire 1 & mosi $end
$var wire 1 ) miso $end
$var wire 1 g busy $end
$var parameter 32 _# CLK_DIV $end
$var reg 4 `# bit_cnt [3:0] $end
$var reg 8 a# clk_cnt [7:0] $end
$var reg 8 b# rx_data [7:0] $end
$var reg 8 c# rx_shift [7:0] $end
$var reg 1 e rx_valid $end
$var reg 1 d# sclk_en $end
$var reg 1 e# sclk_reg $end
$var reg 3 f# state [2:0] $end
$var reg 1 b tx_ready $end
$var reg 8 g# tx_shift [7:0] $end
$upscope $end
$scope module spi_slave $end
$var wire 1 %" clk $end
$var wire 1 5 cs_n_mcu $end
$var wire 1 ^ data_ready $end
$var wire 1 E load $end
$var wire 1 h# load_falling $end
$var wire 1 i# load_rising $end
$var wire 1 K mosi_mcu $end
$var wire 1 ] rst_n $end
$var wire 1 j# sclk_falling $end
$var wire 1 ! sclk_mcu $end
$var wire 1 k# sclk_rising $end
$var wire 8 l# tx_data [7:0] $end
$var wire 1 ( miso_mcu $end
$var reg 3 m# bit_cnt [2:0] $end
$var reg 1 n# cs_prev $end
$var reg 1 o# cs_sync1 $end
$var reg 1 p# cs_sync2 $end
$var reg 1 0 done $end
$var reg 1 q# load_prev $end
$var reg 1 r# load_sync1 $end
$var reg 1 s# load_sync2 $end
$var reg 1 t# sclk_prev $end
$var reg 1 u# sclk_sync1 $end
$var reg 1 v# sclk_sync2 $end
$var reg 4 w# state [3:0] $end
$var reg 1 ` tx_ack $end
$var reg 8 x# tx_shift [7:0] $end
$upscope $end
$upscope $end
$scope module sensor1 $end
$var wire 1 %" clk $end
$var wire 1 2 cs_n $end
$var wire 1 ' mosi $end
$var wire 1 y# ps0_falling $end
$var wire 1 z# ps0_falling_edge $end
$var wire 1 % ps0_wake $end
$var wire 1 4 rst_n $end
$var wire 1 # sclk $end
$var reg 1 {# cs_n_prev $end
$var reg 1 |# cs_n_sync $end
$var reg 8 }# int_assert_delay [7:0] $end
$var reg 8 ~# int_deassert_cnt [7:0] $end
$var reg 1 / int_n $end
$var reg 1 * miso $end
$var reg 1 !$ ps0_prev $end
$var reg 1 "$ ps0_sync $end
$var reg 1 #$ ps0_wake_prev $end
$var reg 8 $$ received_channel [7:0] $end
$var reg 16 %$ received_length [15:0] $end
$var reg 8 &$ received_seq [7:0] $end
$var reg 4 '$ rx_bit_cnt [3:0] $end
$var reg 8 ($ rx_byte [7:0] $end
$var reg 4 )$ tx_bit_cnt [3:0] $end
$var reg 8 *$ tx_byte [7:0] $end
$var reg 1 +$ wake_triggered $end
$var integer 32 ,$ cmd_byte_count [31:0] $end
$var integer 32 -$ response_len [31:0] $end
$var integer 32 .$ response_ptr [31:0] $end
$var integer 32 /$ rx_byte_count [31:0] $end
$var integer 32 0$ rx_ptr [31:0] $end
$var integer 32 1$ state [31:0] $end
$scope function get_prod_id_byte $end
$var reg 4 2$ idx [3:0] $end
$upscope $end
$scope function get_set_feature_ack $end
$var reg 8 3$ seq [7:0] $end
$upscope $end
$scope task prepare_response $end
$var integer 32 4$ i [31:0] $end
$upscope $end
$scope task send_gyroscope $end
$var reg 16 5$ x [15:0] $end
$var reg 16 6$ y [15:0] $end
$var reg 16 7$ z [15:0] $end
$upscope $end
$scope task send_rotation_vector $end
$var reg 16 8$ w [15:0] $end
$var reg 16 9$ x [15:0] $end
$var reg 16 :$ y [15:0] $end
$var reg 16 ;$ z [15:0] $end
$upscope $end
$upscope $end
$scope module sensor2 $end
$var wire 1 %" clk $end
$var wire 1 1 cs_n $end
$var wire 1 & mosi $end
$var wire 1 <$ ps0_falling $end
$var wire 1 =$ ps0_falling_edge $end
$var wire 1 $ ps0_wake $end
$var wire 1 3 rst_n $end
$var wire 1 " sclk $end
$var reg 1 >$ cs_n_prev $end
$var reg 1 ?$ cs_n_sync $end
$var reg 8 @$ int_assert_delay [7:0] $end
$var reg 8 A$ int_deassert_cnt [7:0] $end
$var reg 1 . int_n $end
$var reg 1 ) miso $end
$var reg 1 B$ ps0_prev $end
$var reg 1 C$ ps0_sync $end
$var reg 1 D$ ps0_wake_prev $end
$var reg 8 E$ received_channel [7:0] $end
$var reg 16 F$ received_length [15:0] $end
$var reg 8 G$ received_seq [7:0] $end
$var reg 4 H$ rx_bit_cnt [3:0] $end
$var reg 8 I$ rx_byte [7:0] $end
$var reg 4 J$ tx_bit_cnt [3:0] $end
$var reg 8 K$ tx_byte [7:0] $end
$var reg 1 L$ wake_triggered $end
$var integer 32 M$ cmd_byte_count [31:0] $end
$var integer 32 N$ response_len [31:0] $end
$var integer 32 O$ response_ptr [31:0] $end
$var integer 32 P$ rx_byte_count [31:0] $end
$var integer 32 Q$ rx_ptr [31:0] $end
$var integer 32 R$ state [31:0] $end
$scope function get_prod_id_byte $end
$var reg 4 S$ idx [3:0] $end
$upscope $end
$scope function get_set_feature_ack $end
$var reg 8 T$ seq [7:0] $end
$upscope $end
$scope task prepare_response $end
$var integer 32 U$ i [31:0] $end
$upscope $end
$scope task send_gyroscope $end
$var reg 16 V$ x [15:0] $end
$var reg 16 W$ y [15:0] $end
$var reg 16 X$ z [15:0] $end
$upscope $end
$scope task send_rotation_vector $end
$var reg 16 Y$ w [15:0] $end
$var reg 16 Z$ x [15:0] $end
$var reg 16 [$ y [15:0] $end
$var reg 16 \$ z [15:0] $end
$upscope $end
$upscope $end
$scope task mcu_read_packet $end
$var integer 32 ]$ i [31:0] $end
$upscope $end
$upscope $end
$enddefinitions $end
$comment Show the parameter values. $end
$dumpall
b10 _#
b10 U#
b11 S#
b101 8#
b10 7#
b100 6#
b11 5#
b101 4#
b1 3#
b10 2#
b0 1#
b101 u"
b10 t"
b100 s"
b11 r"
b101 q"
b1 p"
b10 o"
b0 n"
b11101 <"
b10101010 ;"
b10110111000110110000000 '"
b1001001001111100000 &"
$end
#0
$dumpvars
bx ]$
bx \$
bx [$
bx Z$
bx Y$
bx X$
bx W$
bx V$
bx U$
bx T$
bx S$
b1 R$
b0 Q$
b0 P$
b0 O$
b0 N$
b0 M$
0L$
b0 K$
b0 J$
b0 I$
b0 H$
b0 G$
b0 F$
b0 E$
xD$
1C$
1B$
b0 A$
b0 @$
1?$
1>$
0=$
0<$
bx ;$
bx :$
bx 9$
bx 8$
bx 7$
bx 6$
bx 5$
bx 4$
bx 3$
bx 2$
b1 1$
b0 0$
b0 /$
b0 .$
b0 -$
b0 ,$
0+$
b0 *$
b0 )$
b0 ($
b0 '$
b0 &$
b0 %$
b0 $$
x#$
1"$
1!$
b0 ~#
b0 }#
1|#
1{#
0z#
0y#
b0 x#
b0 w#
0v#
0u#
0t#
0s#
0r#
0q#
1p#
1o#
1n#
b0 m#
b0 l#
0k#
0j#
0i#
0h#
b0 g#
b0 f#
1e#
0d#
b0 c#
b0 b#
b0 a#
b0 `#
bx ^#
b0 ]#
b0 \#
1[#
0Z#
b0 Y#
b0 X#
b0 W#
b0 V#
bx T#
1R#
1Q#
bx P#
bx O#
bx N#
b0 M#
b1 L#
bx K#
b0 J#
b0 I#
b0 H#
b0 G#
b0 F#
b0 E#
bx D#
b0 C#
1B#
1A#
b0 @#
b0 ?#
b0 >#
b0 =#
b0 <#
b0 ;#
bx :#
b0 9#
b0 0#
bx /#
bx .#
bx -#
b0 ,#
b1 +#
bx *#
b0 )#
b0 (#
b0 '#
b0 &#
b0 %#
b0 $#
bx ##
b0 "#
1!#
1~"
b0 }"
b0 |"
b0 {"
b0 z"
b0 y"
b0 x"
bx w"
b0 v"
b0 m"
0l"
0k"
0j"
0i"
0h"
0g"
0f"
b0 e"
b0 d"
b0 c"
0b"
b0 a"
b0 `"
b0 _"
0^"
0]"
0\"
b0 ["
b0 Z"
b0 Y"
b0 X"
0W"
b0 V"
b0 U"
b0 T"
b0 S"
b0 R"
bx Q"
b0 P"
bx O"
b0 N"
b0 M"
bx L"
bx K"
bx J"
bx I"
bx H"
bx G"
bx F"
bx E"
bx D"
bx C"
bx B"
bx A"
bx @"
bx ?"
0>"
b0 ="
b0 :"
b0 9"
b0 8"
b0 7"
b0 6"
b0 5"
b0 4"
b0 3"
b0 2"
b0 1"
b0 0"
b0 /"
b0 ."
b0 -"
b0 ,"
b0 +"
0*"
0)"
0("
0%"
0$"
0#"
0""
b0 !"
b0 ~
b0 }
b0 |
b0 {
b0 z
0y
b0 x
b0 w
b0 v
b0 u
b0 t
b0 s
b0 r
b0 q
0p
0o
0n
b0 m
0l
0k
bx j
0i
0h
0g
b0 f
0e
0d
bx c
0b
0a
0`
b0 _
0^
0]
b0 \
b0 [
b0 Z
bx Y
bx X
bx W
bx V
bx U
bx T
bx S
bx R
bx Q
bx P
bx O
bx N
bx M
bx L
0K
0J
0I
b0 H
b0 G
b0 F
0E
0D
bx C
bx B
bx A
bx @
bx ?
bx >
bx =
bx <
bx ;
bx :
bx 9
bx 8
bx 7
bx 6
15
04
03
12
11
00
1/
1.
0-
0,
0+
x*
x)
0(
0'
0&
1%
1$
1#
1"
0!
$end
#166670
1#$
1D$
1%"
#333340
0%"
#500010
1%"
#666680
0%"
#833350
1%"
#1000000
1D
#1000020
0%"
#1166690
b1 ,"
1%"
#1333360
0%"
#1500030
b10 ,"
1%"
#1666700
0%"
#1833370
b11 ,"
1%"
#2000040
0%"
#2166710
b100 ,"
1%"
#2333380
0%"
#2500050
b101 ,"
1%"
#2666720
0%"
#2833390
b110 ,"
1%"
#3000060
0%"
#3166730
b111 ,"
1%"
#3333400
0%"
#3500070
b1000 ,"
1%"
#3666740
0%"
#3833410
b1001 ,"
1%"
#4000080
0%"
#4166750
b1010 ,"
1%"
#4333420
0%"
#4500090
b1011 ,"
1%"
#4666760
0%"
#4833430
b1100 ,"
1%"
#5000100
0%"
#5166770
b1101 ,"
1%"
#5333440
0%"
#5500110
b1110 ,"
1%"
#5666780
0%"
#5833450
b1111 ,"
1%"
#6000120
0%"
#6166790
b10000 ,"
1%"
#6333460
0%"
#6500130
b10001 ,"
1%"
#6666800
0%"
#6833470
b10010 ,"
1%"
#7000140
0%"
#7166810
b10011 ,"
1%"
#7333480
0%"
#7500150
b10100 ,"
1%"
#7666820
0%"
#7833490
b10101 ,"
1%"
#8000160
0%"
#8166830
b10110 ,"
1%"
#8333500
0%"
#8500170
b10111 ,"
1%"
#8666840
0%"
#8833510
b11000 ,"
1%"
#9000180
0%"
#9166850
b11001 ,"
1%"
#9333520
0%"
#9500190
b11010 ,"
1%"
#9666860
0%"
#9833530
b11011 ,"
1%"
#10000200
0%"
#10166870
b11100 ,"
1%"
#10333540
0%"
#10500210
b11101 ,"
1%"
#10666880
0%"
#10833550
b11110 ,"
1%"
#11000220
0%"
#11166890
13
1)"
14
1("
b10110111000110101110110 ,"
1%"
#11333560
0%"
#11500230
b1001001001111010110 z"
b10110111000110101110111 ,"
1%"
#11666900
0%"
#11833570
b10110111000110101111000 ,"
b1001001001111010110 =#
b0 z"
1%"
#12000240
0%"
#12166910
b10110111000110101111001 ,"
b0 =#
1%"
#12333580
0%"
#12500250
b10110111000110101111010 ,"
b1001001001111010110 z"
1%"
#12666920
0%"
#12833590
b10110111000110101111011 ,"
b1001001001111010110 =#
b0 z"
1%"
#13000260
0%"
#13166930
b10110111000110101111100 ,"
b0 =#
1%"
#13333600
0%"
#13500270
b10110111000110101111101 ,"
b1001001001111010110 z"
1%"
#13666940
0%"
#13833610
b10110111000110101111110 ,"
b1001001001111010110 =#
b0 z"
1%"
#14000280
0%"
#14166950
b10110111000110101111111 ,"
b0 =#
1%"
#14333620
0%"
#14500290
b10110111000110110000000 ,"
b1001001001111010110 z"
1%"
#14666960
0%"
#14833630
1]
1*"
b1001001001111010110 =#
b0 z"
1%"
#15000300
0%"
#15166970
1i
1b
b1 z"
b1 +"
b1001001001111010111 =#
1%"
#15333640
0%"
#15500310
b10 +"
b1001001001111011000 =#
b1001001001111010110 z"
1%"
#15666980
0%"
#15833650
b1001001001111011001 =#
b11 +"
b1001001001111010111 z"
1%"
#16000320
0%"
#16166990
b100 +"
b1001001001111011010 =#
b1001001001111011000 z"
1%"
#16333660
0%"
#16500330
b1001001001111011001 z"
b1001001001111011011 =#
b101 +"
1%"
#16667000
0%"
#16833670
b110 +"
b1001001001111011100 =#
b1001001001111011010 z"
1%"
#17000340
0%"
#17167010
b1001001001111011011 z"
b1001001001111011101 =#
b111 +"
1%"
#17333680
0%"
#17500350
b1000 +"
b1001001001111011110 =#
b1001001001111011100 z"
1%"
#17667020
0%"
#17833690
b1001001001111011101 z"
b1001001001111011111 =#
b1001 +"
1%"
#18000360
0%"
#18167030
b1010 +"
b1001001001111100000 =#
b1001001001111011110 z"
1%"
#18333700
0%"
#18500370
b1001001001111011111 z"
b0 =#
b10 L#
b1011 +"
1%"
#18667040
0%"
#18833710
1<$
b1100 +"
b11 L#
0$
b1001001001111100000 z"
1%"
#19000380
0%"
#19167050
0<$
1=$
b0 z"
b10 +#
b1 =#
b1101 +"
0D$
0C$
b11 @$
1%"
#19333720
0%"
#19500390
1y#
0=$
b1110 +"
b10 =#
b11 +#
0%
b10 @$
b10 R$
1L$
0B$
1%"
#19667060
0%"
#19833730
0y#
1z#
b1 z"
b11 =#
b1111 +"
0#$
0"$
b11 }#
b1 @$
1%"
#20000400
0%"
#20167070
0z#
b10000 +"
b100 =#
b10 z"
b10 }#
b10 1$
1+$
0!$
0.
b0 @$
1%"
#20333740
0%"
#20500410
b11 z"
0B#
b101 =#
b10001 +"
b1 }#
1%"
#20667080
0%"
#20833750
b10010 +"
b100 L#
b0 =#
0A#
b100 z"
0/
b0 }#
1%"
#21000420
0%"
#21167090
0!#
b101 z"
b101 L#
1$
01
b10011 +"
1%"
#21333760
0%"
#21500430
b10100 +"
1d
1a
b101 c
b101 O"
b101 K#
b101 ^#
b100 +#
b0 z"
0~"
1D$
0?$
1C$
b0 O#
b0 P#
b0 N#
1%"
#21667100
0%"
#21833770
1d#
0b
b101 g#
1g
b1 f#
b101 +#
1%
02
1a
1d
b10101 +"
1B$
0>$
1.
1%"
#22000440
0%"
#22167110
b10110 +"
0a
0d
1B#
1k
1h
b101 j
b101 Q"
b101 *#
b101 T#
b1 a#
1#$
0|#
1"$
b0 .#
b0 /#
b0 -#
1%"
#22333780
0%"
#22500450
0)
1Z#
0i
b101 ]#
1n
b1 \#
0"
0e#
b0 a#
1h
1k
1A#
b10111 +"
1!$
0{#
1/
1%"
#22667120
0%"
#22833790
b11000 +"
0h
0k
1!#
b1 a#
b1 W#
1%"
#23000460
0%"
#23167130
0*
b1 H$
0#
0[#
b0 W#
1"
1e#
b0 a#
b1 `#
1~"
b11001 +"
1%"
#23333800
0%"
#23500470
b11010 +"
b1 a#
b1 W#
1%"
#23667140
0%"
#23833810
b1 '$
1#
1[#
b0 W#
b1 V#
0"
0e#
b0 a#
b1010 g#
b11011 +"
1%"
#24000480
0%"
#24167150
b11100 +"
b1 a#
b1 W#
1%"
#24333820
0%"
