fpga/test_btn.vcd
$date
	Wed Nov 26 18:28:54 2025
$end
$version
	Icarus Verilog
$end
$timescale
	1ps
$end
$scope module test_btn_minimal $end
$var wire 1 ! btn_pressed $end
$var reg 1 " btn_n $end
$var reg 1 # clk $end
$var reg 1 $ rst_n $end
$var integer 32 % cycle_count [31:0] $end
$scope module dut $end
$var wire 1 " btn_n $end
$var wire 1 ! btn_pressed $end
$var wire 1 & btn_released $end
$var wire 1 # clk $end
$var wire 1 $ rst_n $end
$var wire 1 ' btn_state $end
$var parameter 32 ( DEBOUNCE_CYCLES $end
$var reg 1 ) btn_prev $end
$var reg 1 * btn_stable $end
$var reg 1 + btn_sync1 $end
$var reg 1 , btn_sync2 $end
$var reg 18 - debounce_counter [17:0] $end
$upscope $end
$upscope $end
$enddefinitions $end
$comment Show the parameter values. $end
$dumpall
b11 (
$end
#0
$dumpvars
b0 -
1,
1+
1*
1)
0'
0&
b0 %
0$
0#
1"
0!
$end
#166670
b1 %
1#
#333340
0#
#500010
b10 %
1#
#666680
0#
#833350
b11 %
1#
#1000020
0#
#1166690
b100 %
1#
#1333360
0#
#1500030
b101 %
1#
#1666700
0#
#1833370
b110 %
1#
#2000000
1$
#2000040
0#
#2166710
b1 -
b111 %
1#
#2333380
0#
#2500050
b10 -
b1000 %
1#
#2666720
0#
#2833390
b11 -
b1001 %
1#
#3000060
0#
#3166730
b1010 %
1#
#3333400
0#
#3500070
b1011 %
1#
#3666740
0#
#3833410
b1100 %
1#
#4000080
0#
#4166750
b1101 %
1#
#4333420
0#
#4500090
b1110 %
1#
#4666760
0#
#4833430
b1111 %
1#
#5000100
0#
#5166770
b10000 %
1#
#5333440
0#
#5500110
b10001 %
1#
#5666780
0#
#5833450
b10010 %
1#
#6000120
0#
#6166790
b10011 %
1#
#6333460
0#
#6500130
b10100 %
1#
#6666800
0#
#6833470
b10101 %
1#
#7000000
0"
#7000140
0#
#7166810
0+
b10110 %
1#
#7333480
0#
#7500150
0,
b10111 %
1#
#7666820
0#
#7833490
b0 -
b11000 %
1#
#8000160
0#
#8166830
b11001 %
1#
#8333500
0#
#8500170
b11010 %
1#
#8666840
0#
#8833510
b11011 %
1#
#9000180
0#
#9166850
b11100 %
1#
#9333520
0#
#9500190
b11101 %
1#
#9666860
0#
#9833530
b11110 %
1#
#10000200
0#
#10166870
b11111 %
1#
#10333540
0#
#10500210
b100000 %
1#
#10666880
0#
#10833550
b100001 %
1#
#11000220
0#
#11166890
b100010 %
1#
#11333560
0#
#11500230
b100011 %
1#
#11666900
0#
#11833570
b100100 %
1#
#12000240
0#
#12166910
b100101 %
1#
#12333580
0#
#12500250
b100110 %
1#
#12666920
0#
#12833590
b100111 %
1#
#13000260
0#
#13166930
b101000 %
1#
#13333600
0#
#13500270
b101001 %
1#
#13666940
0#
#13833610
b101010 %
1#
#14000280
0#
#14166950
b101011 %
1#
#14333620
0#
#14500290
b101100 %
1#
#14666960
0#
#14833630
b101101 %
1#
#15000300
0#
#15166970
b101110 %
1#
#15333640
0#
#15500310
b101111 %
1#
#15666980
0#
#15833650
b110000 %
1#
#16000320
0#
#16166990
b110001 %
1#
#16333660
0#
#16500330
b110010 %
1#
#16667000
0#
#16833670
b110011 %
1#
#17000340
0#
#17167010
b110100 %
1#
#17333680
0#
#17500350
b110101 %
1#
#17667020
0#
#17833690
b110110 %
1#
#18000360
0#
#18167030
b110111 %
1#
#18333700
0#
#18500370
b111000 %
1#
#18667040
0#
#18833710
b111001 %
1#
#19000380
0#
#19167050
b111010 %
1#
#19333720
0#
#19500390
b111011 %
1#
#19667060
0#
#19833730
b111100 %
1#
#20000400
0#
#20167070
b111101 %
1#
#20333740
0#
#20500410
b111110 %
1#
#20667080
0#
#20833750
b111111 %
1#
#21000420
0#
#21167090
b1000000 %
1#
#21333760
0#
#21500430
b1000001 %
1#
#21667100
0#
#21833770
b1000010 %
1#
#22000440
0#
#22167110
b1000011 %
1#
#22333780
0#
#22500450
b1000100 %
1#
#22667120
0#
#22833790
b1000101 %
1#
#23000460
0#
#23167130
b1000110 %
1#
#23333800
0#
#23500470
b1000111 %
1#
#23667140
0#
#23833810
b1001000 %
1#
#24000480
0#
#24167150
b1001001 %
1#
#24333820
0#
#24500490
b1001010 %
1#
#24667160
0#
#24833830
b1001011 %
1#
#25000500
0#
#25167170
b1001100 %
1#
#25333840
0#
#25500510
b1001101 %
1#
#25667180
0#
#25833850
b1001110 %
1#
#26000520
0#
#26167190
b1001111 %
1#
#26333860
0#
#26500530
b1010000 %
1#
#26667200
0#
#26833870
b1010001 %
1#
#27000540
0#
#27167210
b1010010 %
1#
#27333880
0#
#27500550
b1010011 %
1#
#27667220
0#
#27833890
b1010100 %
1#
#28000560
0#
#28167230
b1010101 %
1#
#28333900
0#
#28500570
b1010110 %
1#
#28667240
0#
#28833910
b1010111 %
1#
#29000580
0#
#29167250
b1011000 %
1#
#29333920
0#
#29500590
b1011001 %
1#
#29667260
0#
#29833930
b1011010 %
1#
#30000600
0#
#30167270
b1011011 %
1#
#30333940
0#
#30500610
b1011100 %
1#
#30667280
0#
#30833950
b1011101 %
1#
#31000620
0#
#31167290
b1011110 %
1#
#31333960
0#
#31500630
b1011111 %
1#
#31667300
0#
#31833970
b1100000 %
1#
#32000640
0#
#32167310
b1100001 %
1#
#32333980
0#
#32500650
b1100010 %
1#
#32667320
0#
#32833990
b1100011 %
1#
#33000660
0#
#33167330
b1100100 %
1#
#33334000
0#
#33500670
b1100101 %
1#
#33667340
0#
#33834010
b1100110 %
1#
#34000680
0#
#34167350
b1100111 %
1#
#34334020
0#
#34500690
b1101000 %
1#
#34667360
0#
#34834030
b1101001 %
1#
#35000700
0#
#35167370
b1101010 %
1#
#35334040
0#
#35500710
b1101011 %
1#
#35667380
0#
#35834050
b1101100 %
1#
#36000720
0#
#36167390
b1101101 %
1#
#36334060
0#
#36500730
b1101110 %
1#
#36667400
0#
#36834070
b1101111 %
1#
#37000740
0#
#37167410
b1110000 %
1#
#37334080
0#
#37500750
b1110001 %
1#
#37667420
0#
#37834090
b1110010 %
1#
#38000760
0#
#38167430
b1110011 %
1#
#38334100
0#
#38500770
b1110100 %
1#
#38667440
0#
#38834110
b1110101 %
1#
#39000780
0#
#39167450
b1110110 %
1#
#39334120
0#
#39500790
b1110111 %
1#
#39667460
0#
#39834130
b1111000 %
1#
#40000800
0#
#40167470
b1111001 %
1#
#40334140
0#
#40500810
b1111010 %
1#
#40667480
0#
#40834150
b1111011 %
1#
#41000820
0#
#41167490
b1111100 %
1#
#41334160
0#
#41500830
b1111101 %
1#
#41667500
0#
#41834170
b1111110 %
1#
#42000840
0#
#42167510
b1111111 %
1#
#42334180
0#
#42500850
b10000000 %
1#
#42667520
0#
#42834190
b10000001 %
1#
#43000860
0#
#43167530
b10000010 %
1#
#43334200
0#
#43500870
b10000011 %
1#
#43667540
0#
#43834210
b10000100 %
1#
#44000880
0#
#44167550
b10000101 %
1#
#44334220
0#
#44500890
b10000110 %
1#
#44667560
0#
#44834230
b10000111 %
1#
#45000900
0#
#45167570
b10001000 %
1#
#45334240
0#
#45500910
b10001001 %
1#
#45667580
0#
#45834250
b10001010 %
1#
#46000920
0#
#46167590
b10001011 %
1#
#46334260
0#
#46500930
b10001100 %
1#
#46667600
0#
#46834270
b10001101 %
1#
#47000940
0#
#47167610
b10001110 %
1#
#47334280
0#
#47500950
b10001111 %
1#
#47667620
0#
#47834290
b10010000 %
1#
#48000960
0#
#48167630
b10010001 %
1#
#48334300
0#
#48500970
b10010010 %
1#
#48667640
0#
#48834310
b10010011 %
1#
#49000980
0#
#49167650
b10010100 %
1#
#49334320
0#
#49500990
b10010101 %
1#
#49667660
0#
#49834330
b10010110 %
1#
#50001000
0#
#50167670
b10010111 %
1#
#50334340
0#
#50501010
b10011000 %
1#
#50667680
0#
#50834350
b10011001 %
1#
#51001020
0#
#51167690
b10011010 %
1#
#51334360
0#
#51501030
b10011011 %
1#
#51667700
0#
#51834370
b10011100 %
1#
#52001040
0#
#52167710
b10011101 %
1#
#52334380
0#
#52501050
b10011110 %
1#
#52667720
0#
#52834390
b10011111 %
1#
#53001060
0#
#53167730
b10100000 %
1#
#53334400
0#
#53501070
b10100001 %
1#
#53667740
0#
#53834410
b10100010 %
1#
#54001080
0#
#54167750
b10100011 %
1#
#54334420
0#
#54501090
b10100100 %
1#
#54667760
0#
#54834430
b10100101 %
1#
#55001100
0#
#55167770
b10100110 %
1#
#55334440
0#
#55501110
b10100111 %
1#
#55667780
0#
#55834450
b10101000 %
1#
#56001120
0#
#56167790
b10101001 %
1#
#56334460
0#
#56501130
b10101010 %
1#
#56667800
0#
#56834470
b10101011 %
1#
#57001140
0#
#57167810
b10101100 %
1#
#57334480
0#
#57501150
b10101101 %
1#
#57667820
0#
#57834490
b10101110 %
1#
#58001160
0#
#58167830
b10101111 %
1#
#58334500
0#
#58501170
b10110000 %
1#
#58667840
0#
#58834510
b10110001 %
1#
#59001180
0#
#59167850
b10110010 %
1#
#59334520
0#
#59501190
b10110011 %
1#
#59667860
0#
#59834530
b10110100 %
1#
#60001200
0#
#60167870
b10110101 %
1#
#60334540
0#
#60501210
b10110110 %
1#
#60667880
0#
#60834550
b10110111 %
1#
#61001220
0#
#61167890
b10111000 %
1#
#61334560
0#
#61501230
b10111001 %
1#
#61667900
0#
#61834570
b10111010 %
1#
#62001240
0#
#62167910
b10111011 %
1#
#62334580
0#
#62501250
b10111100 %
1#
#62667920
0#
#62834590
b10111101 %
1#
#63001260
0#
#63167930
b10111110 %
1#
#63334600
0#
#63501270
b10111111 %
1#
#63667940
0#
#63834610
b11000000 %
1#
#64001280
0#
#64167950
b11000001 %
1#
#64334620
0#
#64501290
b11000010 %
1#
#64667960
0#
#64834630
b11000011 %
1#
#65001300
0#
#65167970
b11000100 %
1#
#65334640
0#
#65501310
b11000101 %
1#
#65667980
0#
#65834650
b11000110 %
1#
#66001320
0#
#66167990
b11000111 %
1#
#66334660
0#
#66501330
b11001000 %
1#
#66668000
0#
#66834670
b11001001 %
1#
#67001340
0#
#67168010
b11001010 %
1#
#67334680
0#
#67501350
b11001011 %
1#
#67668020
0#
#67834690
b11001100 %
1#
#68001360
0#
#68168030
b11001101 %
1#
#68334700
0#
#68501370
b11001110 %
1#
#68668040
0#
#68834710
b11001111 %
1#
#69001380
0#
#69168050
b11010000 %
1#
#69334720
0#
#69501390
b11010001 %
1#
#69668060
0#
#69834730
b11010010 %
1#
#70001400
0#
#70168070
b11010011 %
1#
#70334740
0#
#70501410
b11010100 %
1#
#70668080
0#
#70834750
b11010101 %
1#
#71001420
0#
#71168090
b11010110 %
1#
#71334760
0#
#71501430
b11010111 %
1#
#71668100
0#
#71834770
b11011000 %
1#
#72001440
0#
#72168110
b11011001 %
1#
#72334780
0#
#72501450
b11011010 %
1#
#72668120
0#
#72834790
b11011011 %
1#
#73001460
0#
#73168130
b11011100 %
1#
#73334800
0#
#73501470
b11011101 %
1#
#73668140
0#
#73834810
b11011110 %
1#
#74001480
0#
#74168150
b11011111 %
1#
#74334820
0#
#74501490
b11100000 %
1#
#74668160
0#
#74834830
b11100001 %
1#
#75001500
0#
#75168170
b11100010 %
1#
#75334840
0#
#75501510
b11100011 %
1#
#75668180
0#
#75834850
b11100100 %
1#
#76001520
0#
#76168190
b11100101 %
1#
#76334860
0#
#76501530
b11100110 %
1#
#76668200
0#
#76834870
b11100111 %
1#
#77001540
0#
#77168210
b11101000 %
1#
#77334880
0#
#77501550
b11101001 %
1#
#77668220
0#
#77834890
b11101010 %
1#
#78001560
0#
#78168230
b11101011 %
1#
#78334900
0#
#78501570
b11101100 %
1#
#78668240
0#
#78834910
b11101101 %
1#
#79001580
0#
#79168250
b11101110 %
1#
#79334920
0#
#79501590
b11101111 %
1#
#79668260
0#
#79834930
b11110000 %
1#
#80001600
0#
#80168270
b11110001 %
1#
#80334940
0#
#80501610
b11110010 %
1#
#80668280
0#
#80834950
b11110011 %
1#
#81001620
0#
#81168290
b11110100 %
1#
#81334960
0#
#81501630
b11110101 %
1#
#81668300
0#
#81834970
b11110110 %
1#
#82001640
0#
#82168310
b11110111 %
1#
#82334980
0#
#82501650
b11111000 %
1#
#82668320
0#
#82834990
b11111001 %
1#
#83001660
0#
#83168330
b11111010 %
1#
#83335000
0#
#83501670
b11111011 %
1#
#83668340
0#
#83835010
b11111100 %
1#
#84001680
0#
#84168350
b11111101 %
1#
#84335020
0#
#84501690
b11111110 %
1#
#84668360
0#
#84835030
b11111111 %
1#
#85001700
0#
#85168370
b100000000 %
1#
#85335040
0#
#85501710
b100000001 %
1#
#85668380
0#
#85835050
b100000010 %
1#
#86001720
0#
#86168390
b100000011 %
1#
#86335060
0#
#86501730
b100000100 %
1#
#86668400
0#
#86835070
b100000101 %
1#
#87001740
0#
#87168410
b100000110 %
1#
#87335080
0#
#87501750
b100000111 %
1#
#87668420
0#
#87835090
b100001000 %
1#
#88001760
0#
#88168430
b100001001 %
1#
#88335100
0#
#88501770
b100001010 %
1#
#88668440
0#
#88835110
b100001011 %
1#
#89001780
0#
#89168450
b100001100 %
1#
#89335120
0#
#89501790
b100001101 %
1#
#89668460
0#
#89835130
b100001110 %
1#
#90001800
0#
#90168470
b100001111 %
1#
#90335140
0#
#90501810
b100010000 %
1#
#90668480
0#
#90835150
b100010001 %
1#
#91001820
0#
#91168490
b100010010 %
1#
#91335160
0#
#91501830
b100010011 %
1#
#91668500
0#
#91835170
b100010100 %
1#
#92001840
0#
#92168510
b100010101 %
1#
#92335180
0#
#92501850
b100010110 %
1#
#92668520
0#
#92835190
b100010111 %
1#
#93001860
0#
#93168530
b100011000 %
1#
#93335200
0#
#93501870
b100011001 %
1#
#93668540
0#
#93835210
b100011010 %
1#
#94001880
0#
#94168550
b100011011 %
1#
#94335220
0#
#94501890
b100011100 %
1#
#94668560
0#
#94835230
b100011101 %
1#
#95001900
0#
#95168570
b100011110 %
1#
#95335240
0#
#95501910
b100011111 %
1#
#95668580
0#
#95835250
b100100000 %
1#
#96001920
0#
#96168590
b100100001 %
1#
#96335260
0#
#96501930
b100100010 %
1#
#96668600
0#
#96835270
b100100011 %
1#
#97001940
0#
#97168610
b100100100 %
1#
#97335280
0#
#97501950
b100100101 %
1#
#97668620
0#
#97835290
b100100110 %
1#
#98001960
0#
#98168630
b100100111 %
1#
#98335300
0#
#98501970
b100101000 %
1#
#98668640
0#
#98835310
b100101001 %
1#
#99001980
0#
#99168650
b100101010 %
1#
#99335320
0#
#99501990
b100101011 %
1#
#99668660
0#
#99835330
b100101100 %
1#
#100002000
0#
#100168670
b100101101 %
1#
#100335340
0#
#100502010
b100101110 %
1#
#100668680
0#
#100835350
b100101111 %
1#
#101002020
0#
#101168690
b100110000 %
1#
#101335360
0#
#101502030
b100110001 %
1#
#101668700
0#
#101835370
b100110010 %
1#
#102002040
0#
#102168710
b100110011 %
1#
#102335380
0#
#102502050
b100110100 %
1#
#102668720
0#
#102835390
b100110101 %
1#
#103002060
0#
#103168730
b100110110 %
1#
#103335400
0#
#103502070
b100110111 %
1#
#103668740
0#
#103835410
b100111000 %
1#
#104002080
0#
#104168750
b100111001 %
1#
#104335420
0#
#104502090
b100111010 %
1#
#104668760
0#
#104835430
b100111011 %
1#
#105002100
0#
#105168770
b100111100 %
1#
#105335440
0#
#105502110
b100111101 %
1#
#105668780
0#
#105835450
b100111110 %
1#
#106002120
0#
#106168790
b100111111 %
1#
#106335460
0#
#106502130
b101000000 %
1#
#106668800
0#
#106835470
b101000001 %
1#
#107000000
1"
#107002140
0#
#107168810
1+
b101000010 %
1#
#107335480
0#
#107502150
1,
b101000011 %
1#
#107668820
0#
#107835490
b1 -
b101000100 %
1#
#108002160
0#
#108168830
b10 -
b101000101 %
1#
#108335500
0#
#108502170
b11 -
b101000110 %
1#
#108668840
0#
#108835510
b101000111 %
1#
#109002180
0#
#109168850
b101001000 %
1#
#109335520
0#
#109502190
b101001001 %
1#
#109668860
0#
#109835530
b101001010 %
1#
#110002200
0#
#110168870
b101001011 %
1#
#110335540
0#
#110502210
b101001100 %
1#
#110668880
0#
#110835550
b101001101 %
1#
#111002220
0#
#111168890
b101001110 %
1#
#111335560
0#
#111502230
b101001111 %
1#
#111668900
0#
#111835570
b101010000 %
1#
#112002240
0#
#112168910
b101010001 %
1#
#112335580
0#
#112502250
b101010010 %
1#
#112668920
0#
#112835590
b101010011 %
1#
#113002260
0#
#113168930
b101010100 %
1#
#113335600
0#
#113502270
b101010101 %
1#
#113668940
0#
#113835610
b101010110 %
1#
#114002280
0#
#114168950
b101010111 %
1#
#114335620
0#
#114502290
b101011000 %
1#
#114668960
0#
#114835630
b101011001 %
1#
#115002300
0#
#115168970
b101011010 %
1#
#115335640
0#
#115502310
b101011011 %
1#
#115668980
0#
#115835650
b101011100 %
1#
#116002320
0#
#116168990
b101011101 %
1#
#116335660
0#
#116502330
b101011110 %
1#
#116669000
0#
#116835670
b101011111 %
1#
#117002340
0#
#117169010
b101100000 %
1#
#117335680
0#
#117502350
b101100001 %
1#
#117669020
0#
#117835690
b101100010 %
1#
#118002360
0#
#118169030
b101100011 %
1#
#118335700
0#
#118502370
b101100100 %
1#
#118669040
0#
#118835710
b101100101 %
1#
#119002380
0#
#119169050
b101100110 %
1#
#119335720
0#
#119502390
b101100111 %
1#
#119669060
0#
#119835730
b101101000 %
1#
#120002400
0#
#120169070
b101101001 %
1#
#120335740
0#
#120502410
b101101010 %
1#
#120669080
0#
#120835750
b101101011 %
1#
#121002420
0#
#121169090
b101101100 %
1#
#121335760
0#
#121502430
b101101101 %
1#
#121669100
0#
#121835770
b101101110 %
1#
#122002440
0#
#122169110
b101101111 %
1#
#122335780
0#
#122502450
b101110000 %
1#
#122669120
0#
#122835790
b101110001 %
1#
#123002460
0#
#123169130
b101110010 %
1#
#123335800
0#
#123502470
b101110011 %
1#
#123669140
0#
#123835810
b101110100 %
1#
#124002480
0#
#124169150
b101110101 %
1#
#124335820
0#
#124502490
b101110110 %
1#
#124669160
0#
#124835830
b101110111 %
1#
#125002500
0#
#125169170
b101111000 %
1#
#125335840
0#
#125502510
b101111001 %
1#
#125669180
0#
#125835850
b101111010 %
1#
#126002520
0#
#126169190
b101111011 %
1#
#126335860
0#
#126502530
b101111100 %
1#
#126669200
0#
#126835870
b101111101 %
1#
#127002540
0#
#127169210
b101111110 %
1#
#127335880
0#
#127502550
b101111111 %
1#
#127669220
0#
#127835890
b110000000 %
1#
#128002560
0#
#128169230
b110000001 %
1#
#128335900
0#
#128502570
b110000010 %
1#
#128669240
0#
#128835910
b110000011 %
1#
#129002580
0#
#129169250
b110000100 %
1#
#129335920
0#
#129502590
b110000101 %
1#
#129669260
0#
#129835930
b110000110 %
1#
#130002600
0#
#130169270
b110000111 %
1#
#130335940
0#
#130502610
b110001000 %
1#
#130669280
0#
#130835950
b110001001 %
1#
#131002620
0#
#131169290
b110001010 %
1#
#131335960
0#
#131502630
b110001011 %
1#
#131669300
0#
#131835970
b110001100 %
1#
#132002640
0#
#132169310
b110001101 %
1#
#132335980
0#
#132502650
b110001110 %
1#
#132669320
0#
#132835990
b110001111 %
1#
#133002660
0#
#133169330
b110010000 %
1#
#133336000
0#
#133502670
b110010001 %
1#
#133669340
0#
#133836010
b110010010 %
1#
#134002680
0#
#134169350
b110010011 %
1#
#134336020
0#
#134502690
b110010100 %
1#
#134669360
0#
#134836030
b110010101 %
1#
#135002700
0#
#135169370
b110010110 %
1#
#135336040
0#
#135502710
b110010111 %
1#
#135669380
0#
#135836050
b110011000 %
1#
#136002720
0#
#136169390
b110011001 %
1#
#136336060
0#
#136502730
b110011010 %
1#
#136669400
0#
#136836070
b110011011 %
1#
#137002740
0#
#137169410
b110011100 %
1#
#137336080
0#
#137502750
b110011101 %
1#
#137669420
0#
#137836090
b110011110 %
1#
#138002760
0#
#138169430
b110011111 %
1#
#138336100
0#
#138502770
b110100000 %
1#
#138669440
0#
#138836110
b110100001 %
1#
#139002780
0#
#139169450
b110100010 %
1#
#139336120
0#
#139502790
b110100011 %
1#
#139669460
0#
#139836130
b110100100 %
1#
#140002800
0#
#140169470
b110100101 %
1#
#140336140
0#
#140502810
b110100110 %
1#
#140669480
0#
#140836150
b110100111 %
1#
#141002820
0#
#141169490
b110101000 %
1#
#141336160
0#
#141502830
b110101001 %
1#
#141669500
0#
#141836170
b110101010 %
1#
#142002840
0#
#142169510
b110101011 %
1#
#142336180
0#
#142502850
b110101100 %
1#
#142669520
0#
#142836190
b110101101 %
1#
#143002860
0#
#143169530
b110101110 %
1#
#143336200
0#
#143502870
b110101111 %
1#
#143669540
0#
#143836210
b110110000 %
1#
#144002880
0#
#144169550
b110110001 %
1#
#144336220
0#
#144502890
b110110010 %
1#
#144669560
0#
#144836230
b110110011 %
1#
#145002900
0#
#145169570
b110110100 %
1#
#145336240
0#
#145502910
b110110101 %
1#
#145669580
0#
#145836250
b110110110 %
1#
#146002920
0#
#146169590
b110110111 %
1#
#146336260
0#
#146502930
b110111000 %
1#
#146669600
0#
#146836270
b110111001 %
1#
#147002940
0#
#147169610
b110111010 %
1#
#147336280
0#
#147502950
b110111011 %
1#
#147669620
0#
#147836290
b110111100 %
1#
#148002960
0#
#148169630
b110111101 %
1#
#148336300
0#
#148502970
b110111110 %
1#
#148669640
0#
#148836310
b110111111 %
1#
#149002980
0#
#149169650
b111000000 %
1#
#149336320
0#
#149502990
b111000001 %
1#
#149669660
0#
#149836330
b111000010 %
1#
#150003000
0#
#150169670
b111000011 %
1#
#150336340
0#
#150503010
b111000100 %
1#
#150669680
0#
#150836350
b111000101 %
1#
#151003020
0#
#151169690
b111000110 %
1#
#151336360
0#
#151503030
b111000111 %
1#
#151669700
0#
#151836370
b111001000 %
1#
#152003040
0#
#152169710
b111001001 %
1#
#152336380
0#
#152503050
b111001010 %
1#
#152669720
0#
#152836390
b111001011 %
1#
#153003060
0#
#153169730
b111001100 %
1#
#153336400
0#
#153503070
b111001101 %
1#
#153669740
0#
#153836410
b111001110 %
1#
#154003080
0#
#154169750
b111001111 %
1#
#154336420
0#
#154503090
b111010000 %
1#
#154669760
0#
#154836430
b111010001 %
1#
#155003100
0#
#155169770
b111010010 %
1#
#155336440
0#
#155503110
b111010011 %
1#
#155669780
0#
#155836450
b111010100 %
1#
#156003120
0#
#156169790
b111010101 %
1#
#156336460
0#
#156503130
b111010110 %
1#
#156669800
0#
#156836470
b111010111 %
1#
#157003140
0#
#157169810
b111011000 %
1#
#157336480
0#
#157503150
b111011001 %
1#
#157669820
0#
#157836490
b111011010 %
1#
#158003160
0#
#158169830
b111011011 %
1#
#158336500
0#
#158503170
b111011100 %
1#
#158669840
0#
#158836510
b111011101 %
1#
#159003180
0#
#159169850
b111011110 %
1#
#159336520
0#
#159503190
b111011111 %
1#
#159669860
0#
#159836530
b111100000 %
1#
#160003200
0#
#160169870
b111100001 %
1#
#160336540
0#
#160503210
b111100010 %
1#
#160669880
0#
#160836550
b111100011 %
1#
#161003220
0#
#161169890
b111100100 %
1#
#161336560
0#
#161503230
b111100101 %
1#
#161669900
0#
#161836570
b111100110 %
1#
#162003240
0#
#162169910
b111100111 %
1#
#162336580
0#
#162503250
b111101000 %
1#
#162669920
0#
#162836590
b111101001 %
1#
#163003260
0#
#163169930
b111101010 %
1#
#163336600
0#
#163503270
b111101011 %
1#
#163669940
0#
#163836610
b111101100 %
1#
#164003280
0#
#164169950
b111101101 %
1#
#164336620
0#
#164503290
b111101110 %
1#
#164669960
0#
#164836630
b111101111 %
1#
#165003300
0#
#165169970
b111110000 %
1#
#165336640
0#
#165503310
b111110001 %
1#
#165669980
0#
#165836650
b111110010 %
1#
#166003320
0#
#166169990
b111110011 %
1#
#166336660
0#
#166503330
b111110100 %
1#
#166670000
0#
#166836670
b111110101 %
1#
#167003340
0#
#167170010
b111110110 %
1#
#167336680
0#
#167503350
b111110111 %
1#
#167670020
0#
#167836690
b111111000 %
1#
#168003360
0#
#168170030
b111111001 %
1#
#168336700
0#
#168503370
b111111010 %
1#
#168670040
0#
#168836710
b111111011 %
1#
#169003380
0#
#169170050
b111111100 %
1#
#169336720
0#
#169503390
b111111101 %
1#
#169670060
0#
#169836730
b111111110 %
1#
#170003400
0#
#170170070
b111111111 %
1#
#170336740
0#
#170503410
b1000000000 %
1#
#170670080
0#
#170836750
b1000000001 %
1#
#171003420
0#
#171170090
b1000000010 %
1#
#171336760
0#
#171503430
b1000000011 %
1#
#171670100
0#
#171836770
b1000000100 %
1#
#172003440
0#
#172170110
b1000000101 %
1#
#172336780
0#
#172503450
b1000000110 %
1#
#172670120
0#
#172836790
b1000000111 %
1#
#173003460
0#
#173170130
b1000001000 %
1#
#173336800
0#
#173503470
b1000001001 %
1#
#173670140
0#
#173836810
b1000001010 %
1#
#174003480
0#
#174170150
b1000001011 %
1#
#174336820
0#
#174503490
b1000001100 %
1#
#174670160
0#
#174836830
b1000001101 %
1#
#175003500
0#
#175170170
b1000001110 %
1#
#175336840
0#
#175503510
b1000001111 %
1#
#175670180
0#
#175836850
b1000010000 %
1#
#176003520
0#
#176170190
b1000010001 %
1#
#176336860
0#
#176503530
b1000010010 %
1#
#176670200
0#
#176836870
b1000010011 %
1#
#177003540
0#
#177170210
b1000010100 %
1#
#177336880
0#
#177503550
b1000010101 %
1#
#177670220
0#
#177836890
b1000010110 %
1#
#178003560
0#
#178170230
b1000010111 %
1#
#178336900
0#
#178503570
b1000011000 %
1#
#178670240
0#
#178836910
b1000011001 %
1#
#179003580
0#
#179170250
b1000011010 %
1#
#179336920
0#
#179503590
b1000011011 %
1#
#179670260
0#
#179836930
b1000011100 %
1#
#180003600
0#
#180170270
b1000011101 %
1#
#180336940
0#
#180503610
b1000011110 %
1#
#180670280
0#
#180836950
b1000011111 %
1#
#181003620
0#
#181170290
b1000100000 %
1#
#181336960
0#
#181503630
b1000100001 %
1#
#181670300
0#
#181836970
b1000100010 %
1#
#182003640
0#
#182170310
b1000100011 %
1#
#182336980
0#
#182503650
b1000100100 %
1#
#182670320
0#
#182836990
b1000100101 %
1#
#183003660
0#
#183170330
b1000100110 %
1#
#183337000
0#
#183503670
b1000100111 %
1#
#183670340
0#
#183837010
b1000101000 %
1#
#184003680
0#
#184170350
b1000101001 %
1#
#184337020
0#
#184503690
b1000101010 %
1#
#184670360
0#
#184837030
b1000101011 %
1#
#185003700
0#
#185170370
b1000101100 %
1#
#185337040
0#
#185503710
b1000101101 %
1#
#185670380
0#
#185837050
b1000101110 %
1#
#186003720
0#
#186170390
b1000101111 %
1#
#186337060
0#
#186503730
b1000110000 %
1#
#186670400
0#
#186837070
b1000110001 %
1#
#187003740
0#
#187170410
b1000110010 %
1#
#187337080
0#
#187503750
b1000110011 %
1#
#187670420
0#
#187837090
b1000110100 %
1#
#188003760
0#
#188170430
b1000110101 %
1#
#188337100
0#
#188503770
b1000110110 %
1#
#188670440
0#
#188837110
b1000110111 %
1#
#189003780
0#
#189170450
b1000111000 %
1#
#189337120
0#
#189503790
b1000111001 %
1#
#189670460
0#
#189837130
b1000111010 %
1#
#190003800
0#
#190170470
b1000111011 %
1#
#190337140
0#
#190503810
b1000111100 %
1#
#190670480
0#
#190837150
b1000111101 %
1#
#191003820
0#
#191170490
b1000111110 %
1#
#191337160
0#
#191503830
b1000111111 %
1#
#191670500
0#
#191837170
b1001000000 %
1#
#192003840
0#
#192170510
b1001000001 %
1#
#192337180
0#
#192503850
b1001000010 %
1#
#192670520
0#
#192837190
b1001000011 %
1#
#193003860
0#
#193170530
b1001000100 %
1#
#193337200
0#
#193503870
b1001000101 %
1#
#193670540
0#
#193837210
b1001000110 %
1#
#194003880
0#
#194170550
b1001000111 %
1#
#194337220
0#
#194503890
b1001001000 %
1#
#194670560
0#
#194837230
b1001001001 %
1#
#195003900
0#
#195170570
b1001001010 %
1#
#195337240
0#
#195503910
b1001001011 %
1#
#195670580
0#
#195837250
b1001001100 %
1#
#196003920
0#
#196170590
b1001001101 %
1#
#196337260
0#
#196503930
b1001001110 %
1#
#196670600
0#
#196837270
b1001001111 %
1#
#197003940
0#
#197170610
b1001010000 %
1#
#197337280
0#
#197503950
b1001010001 %
1#
#197670620
0#
#197837290
b1001010010 %
1#
#198003960
0#
#198170630
b1001010011 %
1#
#198337300
0#
#198503970
b1001010100 %
1#
#198670640
0#
#198837310
b1001010101 %
1#
#199003980
0#
#199170650
b1001010110 %
1#
#199337320
0#
#199503990
b1001010111 %
1#
#199670660
0#
#199837330
b1001011000 %
1#
#200004000
0#
#200170670
b1001011001 %
1#
#200337340
0#
#200504010
b1001011010 %
1#
#200670680
0#
#200837350
b1001011011 %
1#
#201004020
0#
#201170690
b1001011100 %
1#
#201337360
0#
#201504030
b1001011101 %
1#
#201670700
0#
#201837370
b1001011110 %
1#
#202004040
0#
#202170710
b1001011111 %
1#
#202337380
0#
#202504050
b1001100000 %
1#
#202670720
0#
#202837390
b1001100001 %
1#
#203004060
0#
#203170730
b1001100010 %
1#
#203337400
0#
#203504070
b1001100011 %
1#
#203670740
0#
#203837410
b1001100100 %
1#
#204004080
0#
#204170750
b1001100101 %
1#
#204337420
0#
#204504090
b1001100110 %
1#
#204670760
0#
#204837430
b1001100111 %
1#
#205004100
0#
#205170770
b1001101000 %
1#
#205337440
0#
#205504110
b1001101001 %
1#
#205670780
0#
#205837450
b1001101010 %
1#
#206004120
0#
#206170790
b1001101011 %
1#
#206337460
0#
#206504130
b1001101100 %
1#
#206670800
0#
#206837470
b1001101101 %
1#
