test/fpga/tb_arduino_spi_slave_with_arduino_model.vcd
$date
	Wed Dec  3 19:52:54 2025
$end
$version
	Icarus Verilog
$end
$timescale
	1ps
$end
$scope module tb_arduino_spi_slave_with_arduino_model $end
$var wire 1 ! cs_high_stable $end
$var wire 8 " header [7:0] $end
$var wire 1 # new_packet_available $end
$var wire 8 $ packet_buffer_0 [7:0] $end
$var wire 8 % packet_buffer_1 [7:0] $end
$var wire 8 & packet_buffer_2 [7:0] $end
$var wire 8 ' packet_snapshot_0 [7:0] $end
$var wire 1 ( packet_valid $end
$var wire 1 ) packet_valid_raw $end
$var wire 16 * pitch [15:0] $end
$var wire 16 + roll [15:0] $end
$var wire 16 , yaw [15:0] $end
$var wire 16 - quat1_z [15:0] $end
$var wire 16 . quat1_y [15:0] $end
$var wire 16 / quat1_x [15:0] $end
$var wire 16 0 quat1_w [15:0] $end
$var wire 1 1 quat1_valid $end
$var wire 1 2 initialized $end
$var wire 16 3 gyro1_z [15:0] $end
$var wire 16 4 gyro1_y [15:0] $end
$var wire 16 5 gyro1_x [15:0] $end
$var wire 1 6 gyro1_valid $end
$var wire 1 7 error $end
$var parameter 32 8 CLK_PERIOD $end
$var parameter 32 9 SCK_PERIOD $end
$var reg 1 : arduino_euler_valid $end
$var reg 1 ; arduino_gyro_valid $end
$var reg 16 < arduino_gyro_x [15:0] $end
$var reg 16 = arduino_gyro_y [15:0] $end
$var reg 16 > arduino_gyro_z [15:0] $end
$var reg 16 ? arduino_pitch [15:0] $end
$var reg 16 @ arduino_roll [15:0] $end
$var reg 16 A arduino_yaw [15:0] $end
$var reg 1 B clk $end
$var reg 1 C cs_n $end
$var reg 1 D sck $end
$var reg 1 E sdi $end
$var integer 32 F fail_count [31:0] $end
$var integer 32 G pass_count [31:0] $end
$var integer 32 H test_count [31:0] $end
$scope module dut $end
$var wire 1 B clk $end
$var wire 1 I cs_falling_edge_sck $end
$var wire 1 C cs_n $end
$var wire 1 J cs_rising_edge_clk $end
$var wire 1 D sck $end
$var wire 1 E sdi $end
$var parameter 8 K HEADER_BYTE $end
$var parameter 32 L PACKET_SIZE $end
$var reg 3 M bit_count [2:0] $end
$var reg 4 N byte_count [3:0] $end
$var reg 2 O cs_high_counter [1:0] $end
$var reg 1 P cs_high_stable $end
$var reg 1 Q cs_n_prev_clk $end
$var reg 1 R cs_n_prev_sck $end
$var reg 1 S cs_n_prev_sync $end
$var reg 1 T cs_n_sync_clk1 $end
$var reg 1 U cs_n_sync_clk2 $end
$var reg 1 V cs_n_sync_sck $end
$var reg 1 7 error $end
$var reg 8 W flags [7:0] $end
$var reg 1 6 gyro1_valid $end
$var reg 16 X gyro1_x [15:0] $end
$var reg 16 Y gyro1_y [15:0] $end
$var reg 16 Z gyro1_z [15:0] $end
$var reg 16 [ gyro_x [15:0] $end
$var reg 16 \ gyro_y [15:0] $end
$var reg 16 ] gyro_z [15:0] $end
$var reg 8 ^ header [7:0] $end
$var reg 1 2 initialized $end
$var reg 1 _ new_packet_available $end
$var reg 1 ` packet_received $end
$var reg 1 a packet_valid $end
$var reg 1 b packet_valid_delayed $end
$var reg 1 c packet_valid_raw $end
$var reg 16 d pitch [15:0] $end
$var reg 1 1 quat1_valid $end
$var reg 16 e quat1_w [15:0] $end
$var reg 16 f quat1_x [15:0] $end
$var reg 16 g quat1_y [15:0] $end
$var reg 16 h quat1_z [15:0] $end
$var reg 16 i roll [15:0] $end
$var reg 8 j rx_shift [7:0] $end
$var reg 16 k yaw [15:0] $end
$scope begin $ivl_for_loop2 $end
$var integer 32 l i [31:0] $end
$upscope $end
$scope begin $ivl_for_loop3 $end
$var integer 32 m i [31:0] $end
$upscope $end
$upscope $end
$scope task check_test $end
$var reg 1 n condition $end
$upscope $end
$scope task send_sensor_packet $end
$var reg 1 o euler_v $end
$var reg 16 p gx [15:0] $end
$var reg 16 q gy [15:0] $end
$var reg 1 r gyro_v $end
$var reg 16 s gz [15:0] $end
$var reg 16 t p [15:0] $end
$var reg 16 u r [15:0] $end
$var reg 16 v y [15:0] $end
$upscope $end
$scope task send_spi_byte $end
$var reg 8 w data [7:0] $end
$var integer 32 x i [31:0] $end
$upscope $end
$scope task wait_cdc $end
$upscope $end
$upscope $end
$enddefinitions $end
$comment Show the parameter values. $end
$dumpall
b10000 L
b10101010 K
b10011100010000 9
b101001101 8
$end
#0
$dumpvars
bx x
bx w
bx v
bx u
bx t
bx s
xr
bx q
bx p
xo
xn
b10000 m
b10000 l
b0 k
bx j
b0 i
b0 h
b0 g
b0 f
b0 e
b0 d
xc
xb
xa
0`
x_
b0 ^
b0 ]
b0 \
b0 [
b0 Z
b0 Y
b0 X
b0 W
1V
xU
xT
xS
1R
xQ
xP
bx O
bx N
bx M
xJ
0I
b0 H
b0 G
b0 F
xE
xD
xC
0B
b0 A
b0 @
b0 ?
b0 >
b0 =
b0 <
0;
0:
07
06
b0 5
b0 4
b0 3
02
01
b0 0
b0 /
b0 .
b0 -
b0 ,
b0 +
b0 *
x)
x(
b0 '
b0 &
b0 %
b0 $
x#
b0 "
x!
$end
#166000
b0 O
0!
0P
0#
0_
1B
#332000
0B
#498000
1B
#664000
0B
#830000
1B
#996000
0B
#1162000
1B
#1328000
0B
#1494000
1B
#1660000
0B
#1826000
1B
#1992000
0B
#2158000
1B
#2324000
0B
#2490000
1B
#2656000
0B
#2822000
1B
#2988000
0B
#3154000
1B
#3320000
0B
#3330000
b0 j
b0 M
b0 N
1C
1;
1:
b110010 >
b1111111100111000 =
b1100100 <
b11111010000 A
b1111111000001100 ?
b1111101000 @
1r
1o
b110010 s
b1111111100111000 q
b1100100 p
b11111010000 v
b1111111000001100 t
b1111101000 u
#3486000
1T
1B
#3652000
0B
#3818000
1U
1B
#3984000
0B
#4150000
0J
1Q
b1 O
1S
1B
#4316000
0B
#4482000
b10 O
1B
#4648000
0B
#4814000
b11 O
1B
#4980000
0B
#5146000
1!
1P
1B
#5312000
0B
#5478000
1B
#5644000
0B
#5810000
1B
#5976000
0B
#6142000
1B
#6308000
0B
#6474000
1B
#6640000
0B
#6806000
1B
#6972000
0B
#7138000
1B
#7304000
0B
#7470000
1B
#7636000
0B
#7802000
1B
#7968000
0B
#8134000
1B
#8300000
0B
#8466000
1B
#8632000
0B
#8798000
1B
#8964000
0B
#9130000
1B
#9296000
0B
#9462000
1B
#9628000
0B
#9794000
1B
#9960000
0B
#10126000
1B
#10292000
0B
#10458000
1B
#10624000
0B
#10790000
1B
#10956000
0B
#11122000
1B
#11288000
0B
#11454000
1B
#11620000
0B
#11786000
1B
#11952000
0B
#12118000
1B
#12284000
0B
#12450000
1B
#12616000
0B
#12782000
1B
#12948000
0B
#13114000
1B
#13280000
0B
#13446000
1B
#13612000
0B
#13778000
1B
#13944000
0B
#14110000
1B
#14276000
0B
#14442000
1B
#14608000
0B
#14774000
1B
#14940000
0B
#15106000
1B
#15272000
0B
#15438000
1B
#15604000
0B
#15770000
1B
#15936000
0B
#16102000
1B
#16268000
0B
#16434000
1B
#16600000
0B
#16766000
1B
#16932000
0B
#17098000
1B
#17264000
0B
#17430000
1B
#17596000
0B
#17762000
1B
#17928000
0B
#18094000
1B
#18260000
0B
#18426000
1B
#18592000
0B
#18758000
1B
#18924000
0B
#19090000
1B
#19256000
0B
#19422000
1B
#19588000
0B
#19754000
1B
#19920000
0B
#20086000
1B
#20252000
0B
#20418000
1B
#20584000
0B
#20750000
1B
#20916000
0B
#21082000
1B
#21248000
0B
#21414000
1B
#21580000
0B
#21746000
1B
#21912000
0B
#22078000
1B
#22244000
0B
#22410000
1B
#22576000
0B
#22742000
1B
#22908000
0B
#23074000
1B
#23240000
0B
#23406000
1B
#23572000
0B
#23738000
1B
#23904000
0B
#24070000
1B
#24236000
0B
#24402000
1B
#24568000
0B
#24734000
1B
#24900000
0B
#25066000
1B
#25232000
0B
#25398000
1B
#25564000
0B
#25730000
1B
#25896000
0B
#26062000
1B
#26228000
0B
#26394000
1B
#26560000
0B
#26726000
1B
#26892000
0B
#27058000
1B
#27224000
0B
#27390000
1B
#27556000
0B
#27722000
1B
#27888000
0B
#28054000
1B
#28220000
0B
#28386000
1B
#28552000
0B
#28718000
1B
#28884000
0B
#29050000
1B
#29216000
0B
#29382000
1B
#29548000
0B
#29714000
1B
#29880000
0B
#30046000
1B
#30212000
0B
#30378000
1B
#30544000
0B
#30710000
1B
#30876000
0B
#31042000
1B
#31208000
0B
#31374000
1B
#31540000
0B
#31706000
1B
#31872000
0B
#32038000
1B
#32204000
0B
#32370000
1B
#32536000
0B
#32702000
1B
#32868000
0B
#33034000
1B
#33200000
0B
#33330000
0C
#33366000
0T
1B
#33532000
0B
#33698000
0U
1B
#33864000
0B
#34030000
0Q
b0 O
0!
0P
0S
0)
0c
1B
#34196000
0B
#34362000
0(
0a
1B
#34528000
0B
#34694000
0b
1B
