test/fpga/tb_arduino_spi_slave_with_arduino_model.vcd
$date
	Wed Dec  3 20:06:50 2025
$end
$version
	Icarus Verilog
$end
$timescale
	1ps
$end
$scope module tb_arduino_spi_slave_with_arduino_model $end
$var wire 1 ! packet_ready $end
$var wire 8 " packet_snapshot_0 [7:0] $end
$var wire 16 # quat1_z [15:0] $end
$var wire 16 $ quat1_y [15:0] $end
$var wire 16 % quat1_x [15:0] $end
$var wire 16 & quat1_w [15:0] $end
$var wire 1 ' quat1_valid $end
$var wire 1 ( initialized $end
$var wire 16 ) gyro1_z [15:0] $end
$var wire 16 * gyro1_y [15:0] $end
$var wire 16 + gyro1_x [15:0] $end
$var wire 1 , gyro1_valid $end
$var wire 1 - error $end
$var parameter 32 . CLK_PERIOD $end
$var parameter 32 / SCK_PERIOD $end
$var reg 1 0 arduino_euler_valid $end
$var reg 1 1 arduino_gyro_valid $end
$var reg 16 2 arduino_gyro_x [15:0] $end
$var reg 16 3 arduino_gyro_y [15:0] $end
$var reg 16 4 arduino_gyro_z [15:0] $end
$var reg 16 5 arduino_pitch [15:0] $end
$var reg 16 6 arduino_roll [15:0] $end
$var reg 16 7 arduino_yaw [15:0] $end
$var reg 1 8 clk $end
$var reg 1 9 cs_n $end
$var reg 1 : sck $end
$var reg 1 ; sdi $end
$var integer 32 < fail_count [31:0] $end
$var integer 32 = pass_count [31:0] $end
$var integer 32 > test_count [31:0] $end
$scope module dut $end
$var wire 1 8 clk $end
$var wire 1 9 cs_n $end
$var wire 1 : sck $end
$var wire 1 ; sdi $end
$var parameter 8 ? HEADER_BYTE $end
$var parameter 32 @ PACKET_SIZE $end
$var reg 8 A bit_count [7:0] $end
$var reg 2 B cs_high_count [1:0] $end
$var reg 1 C cs_n_prev $end
$var reg 1 D cs_n_sync1 $end
$var reg 1 E cs_n_sync2 $end
$var reg 1 - error $end
$var reg 8 F flags [7:0] $end
$var reg 1 , gyro1_valid $end
$var reg 16 G gyro1_x [15:0] $end
$var reg 16 H gyro1_y [15:0] $end
$var reg 16 I gyro1_z [15:0] $end
$var reg 16 J gyro_x [15:0] $end
$var reg 16 K gyro_y [15:0] $end
$var reg 16 L gyro_z [15:0] $end
$var reg 8 M header [7:0] $end
$var reg 1 ( initialized $end
$var reg 1 N packet_ready $end
$var reg 1 O packet_ready_delayed $end
$var reg 128 P packet_shift [127:0] $end
$var reg 16 Q pitch [15:0] $end
$var reg 1 ' quat1_valid $end
$var reg 16 R quat1_w [15:0] $end
$var reg 16 S quat1_x [15:0] $end
$var reg 16 T quat1_y [15:0] $end
$var reg 16 U quat1_z [15:0] $end
$var reg 16 V roll [15:0] $end
$var reg 16 W yaw [15:0] $end
$scope begin $ivl_for_loop2 $end
$var integer 32 X i [31:0] $end
$upscope $end
$scope begin $ivl_for_loop3 $end
$var integer 32 Y i [31:0] $end
$upscope $end
$scope begin $unm_blk_23 $end
$var reg 128 Z packet_shift_new [127:0] $end
$upscope $end
$upscope $end
$scope task check_test $end
$var reg 1 [ condition $end
$upscope $end
$scope task send_sensor_packet $end
$var reg 1 \ euler_v $end
$var reg 16 ] gx [15:0] $end
$var reg 16 ^ gy [15:0] $end
$var reg 1 _ gyro_v $end
$var reg 16 ` gz [15:0] $end
$var reg 16 a p [15:0] $end
$var reg 16 b r [15:0] $end
$var reg 16 c y [15:0] $end
$upscope $end
$scope task send_spi_byte $end
$var reg 8 d data [7:0] $end
$var integer 32 e i [31:0] $end
$upscope $end
$scope task wait_cdc $end
$upscope $end
$upscope $end
$enddefinitions $end
$comment Show the parameter values. $end
$dumpall
b10000 @
b10101010 ?
b10011100010000 /
b101001101 .
$end
#0
$dumpvars
bx e
bx d
bx c
bx b
bx a
bx `
x_
bx ^
bx ]
x\
x[
b0x Z
b10000 Y
b10000 X
b0 W
b0 V
b0 U
b0 T
b0 S
b0 R
b0 Q
b0 P
0O
0N
b0 M
b0 L
b0 K
b0 J
b0 I
b0 H
b0 G
b0 F
xE
xD
xC
b0 B
b0 A
b0 >
b0 =
b0 <
x;
x:
x9
08
b0 7
b0 6
b0 5
b0 4
b0 3
b0 2
01
00
0-
0,
b0 +
b0 *
b0 )
0(
0'
b0 &
b0 %
b0 $
b0 #
b0 "
0!
$end
#166000
18
#332000
08
#498000
18
#664000
08
#830000
18
#996000
08
#1162000
18
#1328000
08
#1494000
18
#1660000
08
#1826000
18
#1992000
08
#2158000
18
#2324000
08
#2490000
18
#2656000
08
#2822000
18
#2988000
08
#3154000
18
#3320000
08
#3330000
19
11
10
b110010 4
b1111111100111000 3
b1100100 2
b11111010000 7
b1111111000001100 5
b1111101000 6
1_
1\
b110010 `
b1111111100111000 ^
b1100100 ]
b11111010000 c
b1111111000001100 a
b1111101000 b
#3486000
1D
18
#3652000
08
#3818000
1E
18
#3984000
08
#4150000
1C
b1 B
18
#4316000
08
#4482000
b10 B
18
#4648000
08
#4814000
1!
1N
18
#4980000
08
#5146000
1O
18
#5312000
08
#5478000
1-
18
