test/fpga/tb_arduino_spi_slave.vcd
$date
	Wed Dec  3 16:02:32 2025
$end
$version
	Icarus Verilog
$end
$timescale
	1ps
$end
$scope module tb_arduino_spi_slave $end
$var wire 3 ! bit_count [2:0] $end
$var wire 4 " byte_count [3:0] $end
$var wire 2 # cs_high_counter [1:0] $end
$var wire 1 $ cs_high_stable $end
$var wire 1 % cs_n_sync_clk2 $end
$var wire 1 & cs_rising_edge_clk $end
$var wire 8 ' header [7:0] $end
$var wire 1 ( new_packet_available $end
$var wire 8 ) packet_buffer_0 [7:0] $end
$var wire 8 * packet_buffer_1 [7:0] $end
$var wire 8 + packet_buffer_2 [7:0] $end
$var wire 8 , packet_snapshot_0 [7:0] $end
$var wire 1 - packet_valid $end
$var wire 1 . packet_valid_delayed $end
$var wire 1 / packet_valid_raw $end
$var wire 16 0 pitch [15:0] $end
$var wire 16 1 roll [15:0] $end
$var wire 8 2 rx_shift [7:0] $end
$var wire 16 3 yaw [15:0] $end
$var wire 16 4 quat1_z [15:0] $end
$var wire 16 5 quat1_y [15:0] $end
$var wire 16 6 quat1_x [15:0] $end
$var wire 16 7 quat1_w [15:0] $end
$var wire 1 8 quat1_valid $end
$var wire 1 9 initialized $end
$var wire 16 : gyro1_z [15:0] $end
$var wire 16 ; gyro1_y [15:0] $end
$var wire 16 < gyro1_x [15:0] $end
$var wire 1 = gyro1_valid $end
$var wire 1 > error $end
$var parameter 32 ? CLK_PERIOD $end
$var parameter 32 @ SCK_PERIOD $end
$var reg 1 A clk $end
$var reg 1 B cs_n $end
$var reg 1 C sck $end
$var reg 1 D sdi $end
$var integer 32 E fail_count [31:0] $end
$var integer 32 F pass_count [31:0] $end
$var integer 32 G test_count [31:0] $end
$scope module dut $end
$var wire 1 A clk $end
$var wire 1 H cs_falling_edge_sck $end
$var wire 1 B cs_n $end
$var wire 1 I cs_rising_edge_clk $end
$var wire 1 C sck $end
$var wire 1 D sdi $end
$var parameter 8 J HEADER_BYTE $end
$var parameter 32 K PACKET_SIZE $end
$var reg 3 L bit_count [2:0] $end
$var reg 4 M byte_count [3:0] $end
$var reg 2 N cs_high_counter [1:0] $end
$var reg 1 O cs_high_stable $end
$var reg 1 P cs_n_prev_clk $end
$var reg 1 Q cs_n_prev_sck $end
$var reg 1 R cs_n_sync_clk1 $end
$var reg 1 S cs_n_sync_clk2 $end
$var reg 1 T cs_n_sync_sck $end
$var reg 1 > error $end
$var reg 8 U flags [7:0] $end
$var reg 1 = gyro1_valid $end
$var reg 16 V gyro1_x [15:0] $end
$var reg 16 W gyro1_y [15:0] $end
$var reg 16 X gyro1_z [15:0] $end
$var reg 16 Y gyro_x [15:0] $end
$var reg 16 Z gyro_y [15:0] $end
$var reg 16 [ gyro_z [15:0] $end
$var reg 8 \ header [7:0] $end
$var reg 1 9 initialized $end
$var reg 1 ] new_packet_available $end
$var reg 1 ^ packet_valid $end
$var reg 1 _ packet_valid_delayed $end
$var reg 1 ` packet_valid_raw $end
$var reg 16 a pitch [15:0] $end
$var reg 1 8 quat1_valid $end
$var reg 16 b quat1_w [15:0] $end
$var reg 16 c quat1_x [15:0] $end
$var reg 16 d quat1_y [15:0] $end
$var reg 16 e quat1_z [15:0] $end
$var reg 16 f roll [15:0] $end
$var reg 8 g rx_shift [7:0] $end
$var reg 16 h yaw [15:0] $end
$upscope $end
$scope task check_test $end
$var reg 1 i condition $end
$upscope $end
$scope task send_packet_inline $end
$var reg 8 j b0 [7:0] $end
$var reg 8 k b1 [7:0] $end
$var reg 8 l b10 [7:0] $end
$var reg 8 m b11 [7:0] $end
$var reg 8 n b12 [7:0] $end
$var reg 8 o b13 [7:0] $end
$var reg 8 p b14 [7:0] $end
$var reg 8 q b15 [7:0] $end
$var reg 8 r b2 [7:0] $end
$var reg 8 s b3 [7:0] $end
$var reg 8 t b4 [7:0] $end
$var reg 8 u b5 [7:0] $end
$var reg 8 v b6 [7:0] $end
$var reg 8 w b7 [7:0] $end
$var reg 8 x b8 [7:0] $end
$var reg 8 y b9 [7:0] $end
$upscope $end
$scope task send_spi_byte $end
$var reg 8 z data [7:0] $end
$var integer 32 { i [31:0] $end
$upscope $end
$scope task wait_cdc $end
$upscope $end
$upscope $end
$enddefinitions $end
$comment Show the parameter values. $end
$dumpall
b10000 K
b10101010 J
b10011100010000 @
b101001101 ?
$end
#0
$dumpvars
bx {
bx z
bx y
bx x
bx w
bx v
bx u
bx t
bx s
bx r
bx q
bx p
bx o
bx n
bx m
bx l
bx k
bx j
xi
bx h
b0 g
bx f
b0 e
b0 d
b0 c
b0 b
bx a
x`
x_
x^
x]
bx \
bx [
bx Z
bx Y
b0 X
b0 W
b0 V
bx U
1T
xS
xR
1Q
xP
xO
bx N
b0 M
b0 L
xI
0H
b0 G
b0 F
b0 E
0D
0C
1B
0A
0>
0=
b0 <
b0 ;
b0 :
09
08
b0 7
b0 6
b0 5
b0 4
bx 3
b0 2
bx 1
bx 0
x/
x.
x-
bx ,
bx +
bx *
bx )
x(
bx '
x&
x%
x$
bx #
b0 "
b0 !
$end
#166000
1R
b0 #
b0 N
0$
0O
0(
0]
1A
#332000
0A
#498000
0/
0`
1%
1S
1A
#664000
0A
#830000
0&
0I
1P
b1 #
b1 N
0-
0^
1A
#996000
0A
#1162000
0.
0_
b10 #
b10 N
1A
#1328000
0A
#1494000
b11 #
b11 N
1A
#1660000
0A
#1826000
1$
1O
1A
#1992000
0A
#2158000
1/
1`
1A
#2324000
0A
#2490000
1-
1^
1A
#2656000
0A
#2822000
1.
1_
1A
#2988000
0A
#3154000
1(
1]
1A
#3320000
0A
#3486000
1>
1A
