test/fpga/tb_arduino_spi_slave.vcd
$date
	Wed Dec  3 15:42:08 2025
$end
$version
	Icarus Verilog
$end
$timescale
	1ps
$end
$scope module tb_arduino_spi_slave $end
$var wire 3 ! bit_count [2:0] $end
$var wire 4 " byte_count [3:0] $end
$var wire 8 # header [7:0] $end
$var wire 8 $ packet_buffer_0 [7:0] $end
$var wire 8 % packet_buffer_1 [7:0] $end
$var wire 8 & packet_buffer_2 [7:0] $end
$var wire 16 ' pitch [15:0] $end
$var wire 16 ( roll [15:0] $end
$var wire 8 ) rx_shift [7:0] $end
$var wire 16 * yaw [15:0] $end
$var wire 16 + quat1_z [15:0] $end
$var wire 16 , quat1_y [15:0] $end
$var wire 16 - quat1_x [15:0] $end
$var wire 16 . quat1_w [15:0] $end
$var wire 1 / quat1_valid $end
$var wire 1 0 initialized $end
$var wire 16 1 gyro1_z [15:0] $end
$var wire 16 2 gyro1_y [15:0] $end
$var wire 16 3 gyro1_x [15:0] $end
$var wire 1 4 gyro1_valid $end
$var wire 1 5 error $end
$var parameter 32 6 CLK_PERIOD $end
$var parameter 32 7 SCK_PERIOD $end
$var reg 1 8 clk $end
$var reg 1 9 cs_n $end
$var reg 1 : sck $end
$var reg 1 ; sdi $end
$var integer 32 < fail_count [31:0] $end
$var integer 32 = pass_count [31:0] $end
$var integer 32 > test_count [31:0] $end
$scope module dut $end
$var wire 1 8 clk $end
$var wire 1 ? cs_falling_edge_sck $end
$var wire 1 9 cs_n $end
$var wire 1 @ cs_rising_edge_clk $end
$var wire 1 : sck $end
$var wire 1 ; sdi $end
$var parameter 8 A HEADER_BYTE $end
$var parameter 32 B PACKET_SIZE $end
$var reg 3 C bit_count [2:0] $end
$var reg 4 D byte_count [3:0] $end
$var reg 1 E cs_n_prev_clk $end
$var reg 1 F cs_n_prev_sck $end
$var reg 1 G cs_n_sync_clk1 $end
$var reg 1 H cs_n_sync_clk2 $end
$var reg 1 I cs_n_sync_sck $end
$var reg 1 J cs_rising_edge_clk_delayed1 $end
$var reg 1 K cs_rising_edge_clk_delayed2 $end
$var reg 1 5 error $end
$var reg 8 L flags [7:0] $end
$var reg 1 4 gyro1_valid $end
$var reg 16 M gyro1_x [15:0] $end
$var reg 16 N gyro1_y [15:0] $end
$var reg 16 O gyro1_z [15:0] $end
$var reg 16 P gyro_x [15:0] $end
$var reg 16 Q gyro_y [15:0] $end
$var reg 16 R gyro_z [15:0] $end
$var reg 8 S header [7:0] $end
$var reg 1 0 initialized $end
$var reg 1 T new_packet_available $end
$var reg 1 U packet_valid $end
$var reg 1 V packet_valid_raw $end
$var reg 16 W pitch [15:0] $end
$var reg 1 / quat1_valid $end
$var reg 16 X quat1_w [15:0] $end
$var reg 16 Y quat1_x [15:0] $end
$var reg 16 Z quat1_y [15:0] $end
$var reg 16 [ quat1_z [15:0] $end
$var reg 16 \ roll [15:0] $end
$var reg 8 ] rx_shift [7:0] $end
$var reg 16 ^ yaw [15:0] $end
$upscope $end
$scope task check_test $end
$var reg 1 _ condition $end
$upscope $end
$scope task send_packet_inline $end
$var reg 8 ` b0 [7:0] $end
$var reg 8 a b1 [7:0] $end
$var reg 8 b b10 [7:0] $end
$var reg 8 c b11 [7:0] $end
$var reg 8 d b12 [7:0] $end
$var reg 8 e b13 [7:0] $end
$var reg 8 f b14 [7:0] $end
$var reg 8 g b15 [7:0] $end
$var reg 8 h b2 [7:0] $end
$var reg 8 i b3 [7:0] $end
$var reg 8 j b4 [7:0] $end
$var reg 8 k b5 [7:0] $end
$var reg 8 l b6 [7:0] $end
$var reg 8 m b7 [7:0] $end
$var reg 8 n b8 [7:0] $end
$var reg 8 o b9 [7:0] $end
$upscope $end
$scope task send_spi_byte $end
$var reg 8 p data [7:0] $end
$var integer 32 q i [31:0] $end
$upscope $end
$scope task wait_cdc $end
$upscope $end
$upscope $end
$enddefinitions $end
$comment Show the parameter values. $end
$dumpall
b10000 B
b10101010 A
b10011100010000 7
b101001101 6
$end
#0
$dumpvars
bx q
bx p
bx o
bx n
bx m
bx l
bx k
bx j
bx i
bx h
bx g
bx f
bx e
bx d
bx c
bx b
bx a
bx `
x_
bx ^
b0 ]
bx \
b0 [
b0 Z
b0 Y
b0 X
bx W
xV
xU
xT
bx S
bx R
bx Q
bx P
b0 O
b0 N
b0 M
bx L
xK
xJ
1I
xH
xG
1F
xE
b0 D
b0 C
x@
0?
b0 >
b0 =
b0 <
0;
0:
19
08
05
04
b0 3
b0 2
b0 1
00
0/
b0 .
b0 -
b0 ,
b0 +
bx *
b0 )
bx (
bx '
bx &
bx %
bx $
bx #
b0 "
b0 !
$end
#166000
1G
0V
0T
18
#332000
08
#498000
0U
1H
18
#664000
08
#830000
0@
1E
18
#996000
08
#1162000
0J
18
#1328000
08
#1494000
0K
18
#1660000
08
#1826000
18
#1992000
08
#2158000
18
#2324000
08
#2490000
18
#2656000
08
#2822000
18
#2988000
08
#3154000
18
#3320000
08
#3486000
18
#3652000
08
#3818000
18
#3984000
08
#4150000
18
#4316000
08
#4482000
18
#4648000
08
#4814000
18
#4980000
08
#5146000
18
#5312000
08
#5478000
18
#5644000
08
#5810000
18
#5976000
08
#6142000
18
#6308000
08
#6474000
18
#6640000
08
#6806000
18
#6972000
08
#7138000
18
#7304000
08
#7470000
18
#7636000
08
#7802000
18
#7968000
08
#8134000
18
#8300000
08
#8466000
18
#8632000
08
#8798000
18
#8964000
08
#9130000
18
#9296000
08
#9462000
18
#9628000
08
#9794000
18
#9960000
08
#10126000
18
#10292000
08
#10458000
18
#10624000
08
#10790000
18
#10956000
08
#11122000
18
#11288000
08
#11454000
18
#11620000
08
#11786000
18
#11952000
08
#12118000
18
#12284000
08
#12450000
18
#12616000
08
#12782000
18
#12948000
08
#13114000
18
#13280000
08
#13446000
18
#13612000
08
#13778000
18
#13944000
08
#14110000
18
#14276000
08
#14442000
18
#14608000
08
#14774000
18
#14940000
08
#15106000
18
#15272000
08
#15438000
18
#15604000
08
#15770000
18
#15936000
08
#16102000
18
#16268000
08
#16434000
18
#16600000
08
#16766000
18
#16932000
08
#17098000
18
#17264000
08
#17430000
18
#17596000
08
#17762000
18
#17928000
08
#18094000
18
#18260000
08
#18426000
18
#18592000
08
#18758000
18
#18924000
08
#19090000
18
#19256000
08
#19422000
18
#19588000
08
#19754000
18
#19920000
08
#20086000
18
#20252000
08
#20418000
18
#20584000
08
#20750000
18
#20916000
08
#21082000
18
#21248000
08
#21414000
18
#21580000
08
#21746000
18
#21912000
08
#22078000
18
#22244000
08
#22410000
18
#22576000
08
#22742000
18
#22908000
08
#23074000
18
#23240000
08
#23406000
18
#23572000
08
#23738000
18
#23904000
08
#24070000
18
#24236000
08
#24402000
18
#24568000
08
#24734000
18
#24900000
08
#25066000
18
#25232000
08
#25398000
18
#25564000
08
#25730000
18
#25896000
08
#26062000
18
#26228000
08
#26394000
18
#26560000
08
#26726000
18
#26892000
08
#27058000
18
#27224000
08
#27390000
18
#27556000
08
#27722000
18
#27888000
08
#28054000
18
#28220000
08
#28386000
18
#28552000
08
#28718000
18
#28884000
08
#29050000
18
#29216000
08
#29382000
18
#29548000
08
#29714000
18
#29880000
08
#30046000
18
#30212000
08
#30378000
18
#30544000
08
#30710000
18
#30876000
08
#31042000
18
#31208000
08
#31374000
18
#31540000
08
#31706000
18
#31872000
08
#32038000
18
#32204000
08
#32370000
18
#32536000
08
#32702000
18
#32868000
08
#33034000
18
#33200000
08
#33330000
09
#33366000
0G
18
#33532000
08
#33698000
0H
18
#33864000
08
#34030000
0E
18
#34196000
08
#34362000
18
#34528000
08
#34694000
18
#34860000
08
#35026000
18
#35192000
08
#35358000
18
#35524000
08
#35690000
18
#35856000
08
#36022000
18
#36188000
08
#36354000
18
#36520000
08
#36686000
18
#36852000
08
#37018000
18
#37184000
08
#37350000
18
#37516000
08
#37682000
18
#37848000
08
#38014000
18
#38180000
08
#38346000
18
#38512000
08
#38678000
18
#38844000
08
#39010000
18
#39176000
08
#39342000
18
#39508000
08
#39674000
18
#39840000
08
#40006000
18
#40172000
08
#40338000
18
#40504000
08
#40670000
18
#40836000
08
#41002000
18
#41168000
08
#41334000
18
#41500000
08
#41666000
18
#41832000
08
#41998000
18
#42164000
08
#42330000
18
#42496000
08
#42662000
18
#42828000
08
#42994000
18
#43160000
08
#43326000
18
#43492000
08
#43658000
18
#43824000
08
#43990000
18
#44156000
08
#44322000
18
#44488000
08
#44654000
18
#44820000
08
#44986000
18
#45152000
08
#45318000
18
#45484000
08
#45650000
18
#45816000
08
#45982000
18
#46148000
08
#46314000
18
#46480000
08
#46646000
18
#46812000
08
#46978000
18
#47144000
08
#47310000
18
#47476000
08
#47642000
18
#47808000
08
#47974000
18
#48140000
08
#48306000
18
#48472000
08
#48638000
18
#48804000
08
#48970000
18
#49136000
08
#49302000
18
#49468000
08
#49634000
18
#49800000
08
#49966000
18
#50132000
08
#50298000
18
#50464000
08
#50630000
18
#50796000
08
#50962000
18
#51128000
08
#51294000
18
#51460000
08
#51626000
18
#51792000
08
#51958000
18
#52124000
08
#52290000
18
#52456000
08
#52622000
18
#52788000
08
#52954000
18
#53120000
08
#53286000
18
#53330000
1;
b111 q
b10101010 p
#53452000
08
#53618000
18
#53784000
08
#53950000
18
#54116000
08
#54282000
18
#54448000
08
#54614000
18
#54780000
08
#54946000
18
#55112000
08
#55278000
18
#55444000
08
#55610000
18
#55776000
08
#55830000
b1 !
b1 C
b1 )
b1 ]
1:
#55942000
18
#56108000
08
#56274000
18
#56440000
08
#56606000
18
#56772000
08
#56938000
18
#57104000
08
#57270000
18
#57436000
08
#57602000
18
#57768000
08
#57934000
18
#58100000
08
#58266000
18
#58432000
08
#58598000
18
#58764000
08
#58930000
18
#59096000
08
#59262000
18
#59428000
08
#59594000
18
#59760000
08
#59926000
18
#60092000
08
#60258000
18
#60424000
08
#60590000
18
#60756000
08
#60922000
18
#61088000
08
#61254000
18
#61420000
08
#61586000
18
#61752000
08
#61918000
18
#62084000
08
#62250000
18
#62416000
08
#62582000
18
#62748000
08
#62914000
18
#63080000
08
#63246000
18
#63330000
1?
0I
0;
b110 q
0:
#63412000
08
#63578000
18
#63744000
08
#63910000
18
#64076000
08
#64242000
18
#64408000
08
#64574000
18
#64740000
08
#64906000
18
#65072000
08
#65238000
18
#65404000
08
#65570000
18
#65736000
08
#65830000
b10 !
b10 C
b10 )
b10 ]
1:
