test/fpga/tb_mcu_spi_slave_simple.vcd
$date
	Fri Nov 28 13:48:26 2025
$end
$version
	Icarus Verilog
$end
$timescale
	1ps
$end
$scope module tb_mcu_spi_slave_simple $end
$var wire 1 ! sdo $end
$var wire 1 " done $end
$var parameter 32 # CLK_PERIOD $end
$var reg 1 $ clk $end
$var reg 1 % gyro1_valid $end
$var reg 16 & gyro1_x [15:0] $end
$var reg 16 ' gyro1_y [15:0] $end
$var reg 16 ( gyro1_z [15:0] $end
$var reg 1 ) gyro2_valid $end
$var reg 16 * gyro2_x [15:0] $end
$var reg 16 + gyro2_y [15:0] $end
$var reg 16 , gyro2_z [15:0] $end
$var reg 1 - load $end
$var reg 1 . quat1_valid $end
$var reg 16 / quat1_w [15:0] $end
$var reg 16 0 quat1_x [15:0] $end
$var reg 16 1 quat1_y [15:0] $end
$var reg 16 2 quat1_z [15:0] $end
$var reg 1 3 quat2_valid $end
$var reg 16 4 quat2_w [15:0] $end
$var reg 16 5 quat2_x [15:0] $end
$var reg 16 6 quat2_y [15:0] $end
$var reg 16 7 quat2_z [15:0] $end
$var reg 1 8 sck $end
$var reg 1 9 sdi $end
$var integer 32 : fail_count [31:0] $end
$var integer 32 ; pass_count [31:0] $end
$var integer 32 < test_count [31:0] $end
$scope module dut $end
$var wire 1 $ clk $end
$var wire 1 " done $end
$var wire 1 % gyro1_valid $end
$var wire 16 = gyro1_x [15:0] $end
$var wire 16 > gyro1_y [15:0] $end
$var wire 16 ? gyro1_z [15:0] $end
$var wire 1 ) gyro2_valid $end
$var wire 16 @ gyro2_x [15:0] $end
$var wire 16 A gyro2_y [15:0] $end
$var wire 16 B gyro2_z [15:0] $end
$var wire 1 C has_valid $end
$var wire 1 - load $end
$var wire 1 . quat1_valid $end
$var wire 16 D quat1_w [15:0] $end
$var wire 16 E quat1_x [15:0] $end
$var wire 16 F quat1_y [15:0] $end
$var wire 16 G quat1_z [15:0] $end
$var wire 1 3 quat2_valid $end
$var wire 16 H quat2_w [15:0] $end
$var wire 16 I quat2_x [15:0] $end
$var wire 16 J quat2_y [15:0] $end
$var wire 16 K quat2_z [15:0] $end
$var wire 1 8 sck $end
$var wire 1 9 sdi $end
$var wire 1 ! sdo $end
$var parameter 8 L HEADER_BYTE $end
$var parameter 32 M PACKET_SIZE $end
$var reg 1 " data_ready_reg $end
$var reg 1 N has_valid_prev $end
$var reg 1 O has_valid_prev_reg $end
$var reg 1 P load_prev $end
$var reg 256 Q packet_shift_reg [255:0] $end
$var reg 1 R sdodelayed $end
$var reg 1 S wasdone $end
$upscope $end
$scope task check_test $end
$var reg 1 T condition $end
$upscope $end
$scope task wait_comb $end
$upscope $end
$upscope $end
$enddefinitions $end
$comment Show the parameter values. $end
$dumpall
b100000 M
b10101010 L
b101001101 #
$end
#0
$dumpvars
xT
xS
xR
bx Q
xP
0O
0N
b0 K
b0 J
b0 I
b0 H
b0 G
b0 F
b0 E
b0 D
0C
b0 B
b0 A
b0 @
b0 ?
b0 >
b0 =
b0 <
b0 ;
b0 :
09
08
b0 7
b0 6
b0 5
b0 4
03
b0 2
b0 1
b0 0
b0 /
0.
0-
b0 ,
b0 +
b0 *
0)
b0 (
b0 '
b0 &
0%
0$
0"
x!
$end
#166000
0P
1$
#332000
0$
#498000
1$
#664000
0$
#830000
1$
#996000
0$
#1162000
1$
#1328000
0$
#1494000
1$
#1660000
0$
#1826000
1$
#1992000
0$
#2158000
1$
#2324000
0$
#2490000
1$
#2656000
0$
#2822000
1$
#2988000
0$
#3154000
1$
#3320000
0$
#3330000
b1001000110100 /
b1001000110100 D
#3486000
1$
#3652000
0$
#3818000
1$
#3984000
0$
#3996000
b1101111011110000 2
b1101111011110000 G
b1001101010111100 1
b1001101010111100 F
b101011001111000 0
b101011001111000 E
b1 ;
b1 <
1T
#4150000
1$
#4316000
0$
#4482000
1$
#4648000
0$
#4662000
b11001100110011 (
b11001100110011 ?
b10001000100010 '
b10001000100010 >
b1000100010001 &
b1000100010001 =
b101 ;
b101 <
#4814000
1$
#4980000
0$
#5146000
1$
#5312000
0$
#5328000
1C
1.
b1000 ;
b1000 <
#5478000
1N
1"
1$
#5644000
0$
#5810000
1O
1$
#5976000
0$
#5994000
1%
0.
b1001 ;
b1001 <
#6142000
1$
#6308000
0$
#6474000
1$
#6640000
0$
#6660000
1.
b1010 ;
b1010 <
#6806000
1$
#6972000
0$
#7138000
1$
#7304000
0$
#7326000
b110011110001001 7
b110011110001001 K
b10001101000101 6
b10001101000101 J
b1110111100000001 5
b1110111100000001 I
b1010101111001101 4
b1010101111001101 H
b1011 ;
b1011 <
#7470000
1$
#7636000
0$
#7802000
1$
#7968000
0$
#7992000
b110011001100110 ,
b110011001100110 B
b101010101010101 +
b101010101010101 A
b100010001000100 *
b100010001000100 @
b1111 ;
b1111 <
#8134000
1$
#8300000
0$
#8466000
1$
#8632000
0$
#8658000
1)
13
b10010 ;
b10010 <
#8798000
1$
#8964000
0$
#9130000
1$
#9296000
0$
#9324000
0C
0)
03
0%
0.
b10100 ;
b10100 <
#9462000
0N
0"
1$
#9628000
0$
#9794000
0O
1$
#9960000
0$
#10126000
1$
#10292000
0$
#10458000
1$
#10624000
0$
#10790000
1$
#10956000
0$
#10989000
1C
1.
b10101 ;
b10101 <
#11122000
1N
1"
1$
#11288000
0$
#11454000
1O
1$
#11620000
0$
#11786000
1$
#11952000
0$
#12118000
1$
#12284000
0$
#12450000
1$
#12616000
0$
#12654000
1%
0.
b10110 ;
b10110 <
#12782000
1$
#12948000
0$
#13114000
1$
#13280000
0$
#13446000
1$
#13612000
0$
#13778000
1$
#13944000
0$
#14110000
1$
#14276000
0$
#14319000
13
0%
b10111 ;
b10111 <
#14442000
1$
#14608000
0$
#14774000
1$
#14940000
0$
#15106000
1$
#15272000
0$
#15438000
1$
#15604000
0$
#15770000
1$
#15936000
0$
#15984000
1)
03
b11000 ;
b11000 <
#16102000
1$
#16268000
0$
#16434000
1$
#16600000
0$
#16766000
1$
#16932000
0$
#17098000
1$
#17264000
0$
#17430000
1$
#17596000
0$
#17649000
13
1%
1.
b11001 ;
b11001 <
#17762000
1$
#17928000
0$
#18094000
1$
#18260000
0$
#18426000
1$
#18592000
0$
#18758000
1$
#18924000
0$
#19090000
1$
#19256000
0$
#19314000
b11010 ;
b11010 <
#19422000
1$
#19588000
0$
#19754000
1$
#19920000
0$
#20086000
1$
#20252000
0$
#20418000
1$
#20584000
0$
#20750000
1$
#20916000
0$
#20979000
1-
b11011 ;
b11011 <
#21082000
0"
1P
1$
#21248000
0$
#21414000
1$
#21580000
0$
#21746000
1$
#21912000
0$
#22078000
1$
#22244000
0$
#22410000
1$
#22576000
0$
#22644000
0-
b11100 ;
b11100 <
#22742000
0P
1$
#22908000
0$
#23074000
1$
#23240000
0$
#23406000
1$
#23572000
0$
#23738000
1$
#23904000
0$
#24070000
1$
#24236000
0$
#24309000
0.
b11101 ;
b11101 <
#24402000
1$
#24568000
0$
#24734000
1$
#24900000
0$
#25066000
1$
#25232000
0$
#25398000
1$
#25564000
0$
#25730000
1$
#25896000
0$
#26062000
1$
#26228000
0$
#26394000
1$
#26560000
0$
#26726000
1$
#26892000
0$
#27058000
1$
#27224000
0$
#27390000
1.
1$
#27556000
0$
#27722000
1$
#27888000
0$
#28054000
1$
#28220000
0$
#28386000
1$
#28552000
0$
#28718000
1$
#28884000
0$
#29050000
1$
#29216000
0$
#29382000
1$
#29548000
0$
#29714000
1$
#29880000
0$
#30046000
1$
#30212000
0$
#30378000
1$
#30544000
0$
#30710000
1-
b1 :
b11110 <
0T
1$
#30876000
0$
#31042000
1P
1$
#31208000
0$
#31374000
1$
#31376000
0-
#31540000
0$
#31706000
0P
1$
#31872000
0$
#32038000
1$
#32042000
1-
#32204000
0$
#32370000
1P
1$
#32536000
0$
#32702000
1$
#32708000
0-
#32868000
0$
#33034000
0P
1$
#33200000
0$
#33366000
1$
#33532000
0$
#33698000
1$
#33864000
0$
#34030000
1$
#34196000
0$
#34362000
1$
#34373000
b0 (
b0 ?
b0 '
b0 >
b0 &
b0 =
b0 2
b0 G
b0 1
b0 F
b0 0
b0 E
b0 /
b0 D
b11110 ;
b11111 <
1T
#34528000
0$
#34694000
1$
#34860000
0$
#35026000
1$
#35039000
b111111111111111 /
b111111111111111 D
b11111 ;
b100000 <
#35192000
0$
#35358000
1$
#35524000
0$
#35690000
1$
#35705000
b1000000000000000 /
b1000000000000000 D
b100000 ;
b100001 <
#35856000
0$
#36022000
1$
#36188000
0$
#36354000
1$
#36371000
b1111111111111111 /
b1111111111111111 D
b100001 ;
b100010 <
#36520000
0$
#36686000
1$
#36852000
0$
#37018000
1$
#37037000
0%
b100010 ;
b100011 <
#37184000
0$
#37350000
1$
#37516000
0$
#37682000
1$
#37703000
1%
0.
b100011 ;
b100100 <
#37848000
0$
#38014000
1$
#38180000
0$
#38346000
1$
#38369000
1.
b100100 ;
b100101 <
#38512000
0$
#38678000
1$
#38844000
0$
#39010000
1$
#39035000
b1000100010001 /
b1000100010001 D
b100101 ;
b100110 <
#39176000
0$
#39342000
1$
#39508000
0$
#39674000
1$
#39701000
b10001000100010 /
b10001000100010 D
#39840000
0$
#40006000
1$
#40172000
0$
#40338000
1$
#40367000
b11001100110011 /
b11001100110011 D
#40504000
0$
#40670000
1$
#40836000
0$
#41002000
1$
#41033000
b1001000110100 /
b1001000110100 D
b100110 ;
b100111 <
#41168000
0$
#41334000
1$
#41500000
0$
#41666000
1$
#41699000
b1010101111001101 /
b1010101111001101 D
b100111 ;
b101000 <
#41832000
0$
#41998000
1$
#42164000
0$
#42330000
1$
#42365000
b1111111111111111 /
b1111111111111111 D
b101000 ;
b101001 <
#42496000
0$
#42662000
1$
#42828000
0$
#42994000
1$
#43031000
b0 /
b0 D
b101001 ;
b101010 <
#43160000
0$
#43326000
1$
#43492000
0$
#43658000
1$
#43697000
b101010 ;
b101011 <
